single_cycle/wave.vcd
$date
	Fri Apr 23 00:55:01 2021
$end
$version
	Icarus Verilog
$end
$timescale
	10ns
$end
$scope module test $end
$var reg 1 ! clock $end
$var reg 1 " reset $end
$scope module MIPS $end
$var wire 1 ! clock $end
$var wire 1 " reset $end
$var wire 32 # instruction [31:0] $end
$var wire 1 $ RegWrite $end
$var wire 1 % RegDst $end
$var wire 1 & MemtoReg $end
$var wire 1 ' MemWrite $end
$var wire 1 ( Jump $end
$var wire 1 ) Ext_op $end
$var wire 1 * Branch $end
$var wire 1 + ALUSrc $end
$var wire 2 , ALUOp [1:0] $end
$scope module Controller $end
$var wire 6 - funct [5:0] $end
$var wire 6 . opcode [31:26] $end
$var reg 2 / ALUOp [1:0] $end
$var reg 1 + ALUSrc $end
$var reg 1 * Branch $end
$var reg 1 ) Ext_op $end
$var reg 1 ( Jump $end
$var reg 1 ' MemWrite $end
$var reg 1 & MemtoReg $end
$var reg 1 % RegDst $end
$var reg 1 $ RegWrite $end
$upscope $end
$scope module DataPath $end
$var wire 2 0 ALUOp [1:0] $end
$var wire 1 + ALUSrc $end
$var wire 1 * Branch $end
$var wire 1 ) Ext_op $end
$var wire 1 ( Jump $end
$var wire 1 ' MemWrite $end
$var wire 1 & MemtoReg $end
$var wire 1 % RegDst $end
$var wire 1 $ RegWrite $end
$var wire 1 ! clock $end
$var wire 1 1 jump $end
$var wire 1 " reset $end
$var wire 1 2 zero $end
$var wire 32 3 regfile_out2 [31:0] $end
$var wire 32 4 regfile_out1 [31:0] $end
$var wire 32 5 mux3_out [31:0] $end
$var wire 32 6 mux2_out [31:0] $end
$var wire 5 7 mux1_out [4:0] $end
$var wire 32 8 instruction [31:0] $end
$var wire 32 9 ext_out [31:0] $end
$var wire 32 : dm_out [31:0] $end
$var wire 32 ; alu_out [31:0] $end
$var wire 4 < alu_ctrl_out [3:0] $end
$var wire 32 = PC [31:0] $end
$var wire 32 > NPC [31:0] $end
$scope module ALU $end
$var wire 5 ? shamt [4:0] $end
$var wire 1 2 zero $end
$var wire 32 @ op_num2 [31:0] $end
$var wire 32 A op_num1 [31:0] $end
$var wire 4 B alu_ctrl_out [3:0] $end
$var reg 32 C alu_out [31:0] $end
$upscope $end
$scope module ALU_controller $end
$var wire 2 D ALUOp [1:0] $end
$var wire 6 E funct [5:0] $end
$var reg 4 F alu_ctrl_out [3:0] $end
$upscope $end
$scope module ID_EX_mux $end
$var wire 1 + ALUSrc $end
$var wire 32 G out2 [31:0] $end
$var wire 32 H Ext [31:0] $end
$var reg 32 I DstData [31:0] $end
$upscope $end
$scope module IF_ID_mux $end
$var wire 1 % RegDst $end
$var wire 5 J rd [4:0] $end
$var wire 5 K rt [4:0] $end
$var reg 5 L DstReg [4:0] $end
$upscope $end
$scope module MEM_WB_mux $end
$var wire 1 & MemtoReg $end
$var wire 32 M alu_out [31:0] $end
$var wire 32 N dm_out [31:0] $end
$var reg 32 O WriteData [31:0] $end
$upscope $end
$scope module data_memory $end
$var wire 1 ' MemWrite $end
$var wire 32 P alu_out [31:0] $end
$var wire 1 ! clock $end
$var wire 32 Q dm_out [31:0] $end
$var wire 32 R out2 [31:0] $end
$upscope $end
$scope module extension_unit $end
$var wire 1 ) Ext_op $end
$var wire 16 S input_num [15:0] $end
$var reg 32 T output_num [31:0] $end
$upscope $end
$scope module instruction_memory $end
$var wire 32 U out_instr [31:0] $end
$var wire 32 V pc [31:0] $end
$upscope $end
$scope module next_program_counter $end
$var wire 32 W Ext [31:0] $end
$var wire 1 * branch $end
$var wire 1 1 jump $end
$var wire 26 X jump_Addr [25:0] $end
$var wire 1 2 zero $end
$var wire 32 Y PC [31:0] $end
$var reg 32 Z NPC [31:0] $end
$upscope $end
$scope module program_counter $end
$var wire 32 [ NPC [31:0] $end
$var wire 1 ! clock $end
$var wire 1 " reset $end
$var reg 32 \ PC [31:0] $end
$upscope $end
$scope module register_files $end
$var wire 1 $ RegWrite $end
$var wire 1 ! clock $end
$var wire 32 ] data [31:0] $end
$var wire 5 ^ rd [4:0] $end
$var wire 1 " reset $end
$var wire 5 _ rs [4:0] $end
$var wire 5 ` rt [4:0] $end
$var wire 32 a out2 [31:0] $end
$var wire 32 b out1 [31:0] $end
$var integer 32 c i [31:0] $end
$upscope $end
$upscope $end
$upscope $end
$upscope $end
$enddefinitions $end
#0
$dumpvars
b100000 c
b0 b
b0 a
b1 `
b0 _
b1 ^
bx ]
b11000000000000 \
b11000000000100 [
b11000000000100 Z
b11000000000000 Y
b10001000000000001 X
b1000000000001 W
b11000000000000 V
b111100000000010001000000000001 U
b1000000000001 T
b1000000000001 S
b0 R
bx Q
bx P
bx O
bx N
bx M
b1 L
b1 K
b10 J
b1000000000001 I
b1000000000001 H
b0 G
bx F
b1 E
b10 D
bx C
bx B
b0 A
b1000000000001 @
b0 ?
b11000000000100 >
b11000000000000 =
bx <
bx ;
bx :
b1000000000001 9
b111100000000010001000000000001 8
b1 7
b1000000000001 6
bx 5
b0 4
b0 3
x2
z1
b10 0
b10 /
b1111 .
b1 -
b10 ,
1+
0*
x)
0(
1'
1&
0%
0$
b111100000000010001000000000001 #
1"
1!
$end
#20
0"
#40
0!
#80
12
b1 5
b1 O
b1 ]
b1 :
b1 N
b1 Q
b0 ;
b0 C
b0 M
b0 P
b1000 <
b1000 B
b1000 F
b0 6
b0 @
b0 I
b0 9
b0 H
b0 T
b0 W
b0 E
b0 S
b10000 `
b1 _
b0 J
b10000 7
b10000 L
b10000 ^
b10000 K
b1100000000000000000000 X
b0 -
b1101 .
b110100001100000000000000000000 #
b110100001100000000000000000000 8
b110100001100000000000000000000 U
b11000000001000 >
b11000000001000 Z
b11000000001000 [
b11000000000100 =
b11000000000100 V
b11000000000100 Y
b11000000000100 \
1!
#120
0!
#160
b10 <
b10 B
b10 F
b0 6
b0 @
b0 I
b110 9
b110 H
b110 T
b110 W
0+
b0 ,
b0 /
b0 0
b0 D
1(
b110 E
b110 S
b10001 `
b0 _
b10001 7
b10001 L
b10001 ^
b10001 K
b100010000000000000110 X
b110 -
b1001 .
b100100000100010000000000000110 #
b100100000100010000000000000110 8
b100100000100010000000000000110 U
b11000000001100 >
b11000000001100 Z
b11000000001100 [
b0 5
b0 O
b0 ]
b0 :
b0 N
b0 Q
b11000000001000 =
b11000000001000 V
b11000000001000 Y
b11000000001000 \
1!
#200
0!
#240
b0 9
b0 H
b0 T
b0 W
0(
b0 E
b0 S
b10010 `
b10010 7
b10010 L
b10010 ^
b10010 K
b100100000000000000000 X
b0 -
b1000 .
b100000000100100000000000000000 #
b100000000100100000000000000000 8
b100000000100100000000000000000 U
b11000000010000 >
b11000000010000 Z
b11000000010000 [
b11000000001100 =
b11000000001100 V
b11000000001100 Y
b11000000001100 \
1!
#280
0!
#320
02
b100000000101010 5
b100000000101010 O
b100000000101010 ]
b100000000101010 ;
b100000000101010 C
b100000000101010 M
b100000000101010 P
b100000000101010 6
b100000000101010 @
b100000000101010 I
b100000000101010 9
b100000000101010 H
b100000000101010 T
b100000000101010 W
0&
1+
b101010 E
b100000000101010 S
b10001 `
b10010 _
b1000 J
b10001 7
b10001 L
b10001 ^
b10001 K
b10010100010100000000101010 X
b101010 -
b0 .
b10010100010100000000101010 #
b10010100010100000000101010 8
b10010100010100000000101010 U
b11000000010100 >
b11000000010100 Z
b11000000010100 [
b11000000010000 =
b11000000010000 V
b11000000010000 Y
b11000000010000 \
1!
#360
0!
#400
12
b0 5
b0 O
b0 ]
b0 ;
b0 C
b0 M
b0 P
b0 6
b0 @
b0 I
b10101 9
b10101 H
b10101 T
b10101 W
1%
0+
b10 ,
b10 /
b10 0
b10 D
0'
b10101 E
b10101 S
b0 `
b1000 _
b0 J
b0 7
b0 L
b0 ^
b0 K
b1000000000000000000010101 X
b10101 -
b100 .
b10001000000000000000000010101 #
b10001000000000000000000010101 8
b10001000000000000000000010101 U
b11000000011000 >
b11000000011000 Z
b11000000011000 [
b11000000010100 =
b11000000010100 V
b11000000010100 Y
b11000000010100 \
1!
#440
0!
#480
b0 9
b0 H
b0 T
b0 W
b10011 7
b10011 L
b10011 ^
0%
1&
b0 ,
b0 /
b0 0
b0 D
1'
b0 E
b0 S
b10011 `
b0 _
b10011 K
b100110000000000000000 X
b0 -
b1000 .
b100000000100110000000000000000 #
b100000000100110000000000000000 8
b100000000100110000000000000000 U
b11000000011100 >
b11000000011100 Z
b11000000011100 [
b11000000011000 =
b11000000011000 V
b11000000011000 Y
b11000000011000 \
1!
#520
0!
#560
02
b100000000100010 5
b100000000100010 O
b100000000100010 ]
b100000000100010 ;
b100000000100010 C
b100000000100010 M
b100000000100010 P
b100000000100010 6
b100000000100010 @
b100000000100010 I
b100000000100010 9
b100000000100010 H
b100000000100010 T
b100000000100010 W
0&
1+
b100010 E
b100000000100010 S
b10010 `
b10001 _
b1000 J
b10010 7
b10010 L
b10010 ^
b10010 K
b10001100100100000000100010 X
b100010 -
b0 .
b10001100100100000000100010 #
b10001100100100000000100010 8
b10001100100100000000100010 U
b11000000100000 >
b11000000100000 Z
b11000000100000 [
b11000000011100 =
b11000000011100 V
b11000000011100 Y
b11000000011100 \
1!
#600
0!
#640
12
b0 ;
b0 C
b0 M
b0 P
b0 5
b0 O
b0 ]
b0 6
b0 @
b0 I
b1 9
b1 H
b1 T
b1 W
1&
0+
b1 E
b1 S
b1001 `
b0 _
b0 J
b1001 7
b1001 L
b1001 ^
b1001 K
b10010000000000000001 X
b1 -
b1000 .
b100000000010010000000000000001 #
b100000000010010000000000000001 8
b100000000010010000000000000001 U
b11000000100100 >
b11000000100100 Z
b11000000100100 [
b11000000100000 =
b11000000100000 V
b11000000100000 Y
b11000000100000 \
1!
#680
0!
#720
02
b100000000100010 5
b100000000100010 O
b100000000100010 ]
b100000000100010 ;
b100000000100010 C
b100000000100010 M
b100000000100010 P
b100000000100010 6
b100000000100010 @
b100000000100010 I
b100000000100010 9
b100000000100010 H
b100000000100010 T
b100000000100010 W
0&
1+
b100010 E
b100000000100010 S
b1000 _
b1000 J
b1000010010100000000100010 X
b100010 -
b0 .
b1000010010100000000100010 #
b1000010010100000000100010 8
b1000010010100000000100010 U
b11000000101000 >
b11000000101000 Z
b11000000101000 [
b11000000100100 =
b11000000100100 V
b11000000100100 Y
b11000000100100 \
1!
#760
0!
#800
b100100000101010 5
b100100000101010 O
b100100000101010 ]
b100100000101010 ;
b100100000101010 C
b100100000101010 M
b100100000101010 P
b100100000101010 6
b100100000101010 @
b100100000101010 I
b100100000101010 9
b100100000101010 H
b100100000101010 T
b100100000101010 W
b101010 E
b100100000101010 S
b1000 `
b10011 _
b1001 J
b1000 7
b1000 L
b1000 ^
b1000 K
b10011010000100100000101010 X
b101010 -
b10011010000100100000101010 #
b10011010000100100000101010 8
b10011010000100100000101010 U
b11000000101100 >
b11000000101100 Z
b11000000101100 [
b11000000101000 =
b11000000101000 V
b11000000101000 Y
b11000000101000 \
1!
#840
0!
#880
12
b0 5
b0 O
b0 ]
b0 ;
b0 C
b0 M
b0 P
b0 6
b0 @
b0 I
b1101 9
b1101 H
b1101 T
b1101 W
1%
0+
b10 ,
b10 /
b10 0
b10 D
0'
b1101 E
b1101 S
b0 `
b1001 _
b0 J
b0 7
b0 L
b0 ^
b0 K
b1001000000000000000001101 X
b1101 -
b100 .
b10001001000000000000000001101 #
b10001001000000000000000001101 8
b10001001000000000000000001101 U
b11000000110000 >
b11000000110000 Z
b11000000110000 [
b11000000101100 =
b11000000101100 V
b11000000101100 Y
b11000000101100 \
1!
#920
0!
#960
02
b101000010000000 5
b101000010000000 O
b101000010000000 ]
b101000010000000 ;
b101000010000000 C
b101000010000000 M
b101000010000000 P
b101000010000000 6
b101000010000000 @
b101000010000000 I
b101000010000000 9
b101000010000000 H
b101000010000000 T
b101000010000000 W
0%
1+
b0 ,
b0 /
b0 0
b0 D
1'
b10 ?
b0 E
b101000010000000 S
b10011 `
b0 _
b10011 7
b10011 L
b10011 ^
b1010 J
b10011 K
b100110101000010000000 X
b0 -
b0 .
b100110101000010000000 #
b100110101000010000000 8
b100110101000010000000 U
b11000000110100 >
b11000000110100 Z
b11000000110100 [
b11000000110000 =
b11000000110000 V
b11000000110000 Y
b11000000110000 \
1!
#1000
0!
#1040
b101000000100000 5
b101000000100000 O
b101000000100000 ]
b101000000100000 ;
b101000000100000 C
b101000000100000 M
b101000000100000 P
b101000000100000 6
b101000000100000 @
b101000000100000 I
b101000000100000 9
b101000000100000 H
b101000000100000 T
b101000000100000 W
b0 ?
b100000 E
b101000000100000 S
b1010 `
b10000 _
b1010 7
b1010 L
b1010 ^
b1010 K
b10000010100101000000100000 X
b100000 -
b10000010100101000000100000 #
b10000010100101000000100000 8
b10000010100101000000100000 U
b11000000111000 >
b11000000111000 Z
b11000000111000 [
b11000000110100 =
b11000000110100 V
b11000000110100 Y
b11000000110100 \
1!
#1080
0!
#1120
12
b0 ;
b0 C
b0 M
b0 P
b0 5
b0 O
b0 ]
b0 6
b0 @
b0 I
b0 9
b0 H
b0 T
b0 W
1*
1&
0+
b0 E
b0 S
b1000 `
b1010 _
b0 J
b1000 7
b1000 L
b1000 ^
b1000 K
b1010010000000000000000000 X
b0 -
b100011 .
b10001101010010000000000000000000 #
b10001101010010000000000000000000 8
b10001101010010000000000000000000 U
b11000000111000 >
b11000000111000 Z
b11000000111000 [
b11000000111000 =
b11000000111000 V
b11000000111000 Y
b11000000111000 \
1!
