single_cycle/wave.vcd
$date
	Sat Apr 24 02:30:12 2021
$end
$version
	Icarus Verilog
$end
$timescale
	10ns
$end
$scope module test $end
$var reg 1 ! clock $end
$var reg 1 " reset $end
$scope module MIPS $end
$var wire 1 ! clock $end
$var wire 1 " reset $end
$var wire 32 # instruction [31:0] $end
$var wire 1 $ RegWrite $end
$var wire 1 % RegDst $end
$var wire 1 & MemtoReg $end
$var wire 1 ' MemWrite $end
$var wire 1 ( Jump $end
$var wire 1 ) Ext_op $end
$var wire 1 * Branch $end
$var wire 1 + ALUSrc $end
$var wire 3 , ALUOp [2:0] $end
$scope module Controller $end
$var wire 6 - opcode [31:26] $end
$var reg 3 . ALUOp [2:0] $end
$var reg 1 + ALUSrc $end
$var reg 1 * Branch $end
$var reg 1 ) Ext_op $end
$var reg 1 ( Jump $end
$var reg 1 ' MemWrite $end
$var reg 1 & MemtoReg $end
$var reg 1 % RegDst $end
$var reg 1 $ RegWrite $end
$upscope $end
$scope module DataPath $end
$var wire 3 / ALUOp [2:0] $end
$var wire 1 + ALUSrc $end
$var wire 1 * Branch $end
$var wire 1 ) Ext_op $end
$var wire 1 ( Jump $end
$var wire 1 ' MemWrite $end
$var wire 1 & MemtoReg $end
$var wire 1 % RegDst $end
$var wire 1 $ RegWrite $end
$var wire 1 ! clock $end
$var wire 1 " reset $end
$var wire 1 0 zero $end
$var wire 32 1 regfile_out2 [31:0] $end
$var wire 32 2 regfile_out1 [31:0] $end
$var wire 32 3 mux3_out [31:0] $end
$var wire 32 4 mux2_out [31:0] $end
$var wire 5 5 mux1_out [4:0] $end
$var wire 32 6 instruction [31:0] $end
$var wire 32 7 ext_out [31:0] $end
$var wire 32 8 dm_out [31:0] $end
$var wire 32 9 alu_out [31:0] $end
$var wire 4 : alu_ctrl_out [3:0] $end
$var wire 32 ; PC [31:0] $end
$var wire 32 < NPC [31:0] $end
$scope module ALU $end
$var wire 5 = shamt [4:0] $end
$var wire 1 0 zero $end
$var wire 32 > op_num2 [31:0] $end
$var wire 32 ? op_num1 [31:0] $end
$var wire 4 @ alu_ctrl_out [3:0] $end
$var reg 32 A alu_out [31:0] $end
$upscope $end
$scope module ALU_controller $end
$var wire 3 B ALUOp [2:0] $end
$var wire 6 C funct [5:0] $end
$var reg 4 D alu_ctrl_out [3:0] $end
$upscope $end
$scope module ID_EX_mux $end
$var wire 1 + ALUSrc $end
$var wire 32 E out2 [31:0] $end
$var wire 32 F Ext [31:0] $end
$var reg 32 G DstData [31:0] $end
$upscope $end
$scope module IF_ID_mux $end
$var wire 1 % RegDst $end
$var wire 5 H rd [4:0] $end
$var wire 5 I rt [4:0] $end
$var reg 5 J DstReg [4:0] $end
$upscope $end
$scope module MEM_WB_mux $end
$var wire 1 & MemtoReg $end
$var wire 32 K alu_out [31:0] $end
$var wire 32 L dm_out [31:0] $end
$var reg 32 M WriteData [31:0] $end
$upscope $end
$scope module data_memory $end
$var wire 1 ' MemWrite $end
$var wire 32 N alu_out [31:0] $end
$var wire 1 ! clock $end
$var wire 32 O dm_out [31:0] $end
$var wire 32 P out2 [31:0] $end
$scope begin $ivl_for_loop0 $end
$var integer 32 Q i [31:0] $end
$upscope $end
$upscope $end
$scope module extension_unit $end
$var wire 1 ) Ext_op $end
$var wire 16 R input_num [15:0] $end
$var reg 32 S output_num [31:0] $end
$upscope $end
$scope module instruction_memory $end
$var wire 32 T out_instr [31:0] $end
$var wire 32 U pc [31:0] $end
$upscope $end
$scope module next_program_counter $end
$var wire 32 V Ext [31:0] $end
$var wire 1 * branch $end
$var wire 1 ( jump $end
$var wire 26 W jump_Addr [25:0] $end
$var wire 1 0 zero $end
$var wire 32 X PC [31:0] $end
$var reg 32 Y NPC [31:0] $end
$upscope $end
$scope module program_counter $end
$var wire 32 Z NPC [31:0] $end
$var wire 1 ! clock $end
$var wire 1 " reset $end
$var reg 32 [ PC [31:0] $end
$upscope $end
$scope module register_files $end
$var wire 1 $ RegWrite $end
$var wire 1 ! clock $end
$var wire 32 \ data [31:0] $end
$var wire 5 ] rd [4:0] $end
$var wire 1 " reset $end
$var wire 5 ^ rs [4:0] $end
$var wire 5 _ rt [4:0] $end
$var wire 32 ` out2 [31:0] $end
$var wire 32 a out1 [31:0] $end
$var integer 32 b i [31:0] $end
$upscope $end
$upscope $end
$upscope $end
$upscope $end
$enddefinitions $end
#0
$dumpvars
b100000 b
b0 a
b0 `
b1 _
b0 ^
b1 ]
b10000000000010000000000000000 \
b11000000000000 [
b11000000000100 Z
b11000000000100 Y
b11000000000000 X
b10001000000000001 W
b1000000000001 V
b11000000000000 U
b111100000000010001000000000001 T
b1000000000001 S
b1000000000001 R
b110 Q
b0 P
b100 O
b10000000000010000000000000000 N
b10000000000010000000000000000 M
b100 L
b10000000000010000000000000000 K
b1 J
b1 I
b10 H
b1000000000001 G
b1000000000001 F
b0 E
b101 D
b1 C
b11 B
b10000000000010000000000000000 A
b101 @
b0 ?
b1000000000001 >
b0 =
b11000000000100 <
b11000000000000 ;
b101 :
b10000000000010000000000000000 9
b100 8
b1000000000001 7
b111100000000010001000000000001 6
b1 5
b1000000000001 4
b10000000000010000000000000000 3
b0 2
b0 1
00
b11 /
b11 .
b1111 -
b11 ,
1+
0*
0)
0(
0'
0&
0%
1$
b111100000000010001000000000001 #
1"
1!
$end
#10
0!
#20
b10000000000010000000000000000 1
b10000000000010000000000000000 E
b10000000000010000000000000000 P
b10000000000010000000000000000 `
0"
1!
#30
0!
#40
b10000000000010000000000000000 3
b10000000000010000000000000000 M
b10000000000010000000000000000 \
b0 4
b0 >
b0 G
b10000 5
b10000 J
b10000 ]
b10000000000010000000000000000 9
b10000000000010000000000000000 A
b10000000000010000000000000000 K
b10000000000010000000000000000 N
b1 :
b1 @
b1 D
b0 7
b0 F
b0 S
b0 V
b0 1
b0 E
b0 P
b0 `
b10000000000010000000000000000 2
b10000000000010000000000000000 ?
b10000000000010000000000000000 a
b100 ,
b100 .
b100 /
b100 B
b0 C
b0 R
b10000 _
b1 ^
b0 H
b10000 I
b1100000000000000000000 W
b1101 -
b110100001100000000000000000000 #
b110100001100000000000000000000 6
b110100001100000000000000000000 T
b11000000001000 <
b11000000001000 Y
b11000000001000 Z
b11000000000100 ;
b11000000000100 U
b11000000000100 X
b11000000000100 [
1!
#50
0!
#60
b11 8
b11 L
b11 O
b110 3
b110 M
b110 \
b110 4
b110 >
b110 G
b10001 5
b10001 J
b10001 ]
00
b110 9
b110 A
b110 K
b110 N
b10 :
b10 @
b10 D
b110 7
b110 F
b110 S
b110 V
b0 2
b0 ?
b0 a
b0 ,
b0 .
b0 /
b0 B
1)
b110 C
b110 R
b10001 _
b0 ^
b10001 I
b100010000000000000110 W
b1001 -
b0 1
b0 E
b0 P
b0 `
b100100000100010000000000000110 #
b100100000100010000000000000110 6
b100100000100010000000000000110 T
b11000000001100 <
b11000000001100 Y
b11000000001100 Z
b11000000001000 ;
b11000000001000 U
b11000000001000 X
b11000000001000 [
1!
#70
0!
#80
b0 3
b0 M
b0 \
10
b100 8
b100 L
b100 O
b0 9
b0 A
b0 K
b0 N
b0 4
b0 >
b0 G
b10010 5
b10010 J
b10010 ]
b0 7
b0 F
b0 S
b0 V
0)
b0 C
b0 R
b10010 _
b10010 I
b100100000000000000000 W
b1000 -
b100000000100100000000000000000 #
b100000000100100000000000000000 6
b100000000100100000000000000000 T
b11000000010000 <
b11000000010000 Y
b11000000010000 Z
b0 1
b0 E
b0 P
b0 `
b11000000001100 ;
b11000000001100 U
b11000000001100 X
b11000000001100 [
1!
#90
0!
#100
b1 3
b1 M
b1 \
00
b1 9
b1 A
b1 K
b1 N
b110 4
b110 >
b110 G
b1000 5
b1000 J
b1000 ]
b111 :
b111 @
b111 D
b100000000101010 7
b100000000101010 F
b100000000101010 S
b100000000101010 V
b110 1
b110 E
b110 P
b110 `
1%
0+
b10 ,
b10 .
b10 /
b10 B
b101010 C
b100000000101010 R
b10001 _
b10010 ^
b1000 H
b10001 I
b10010100010100000000101010 W
b0 -
b10010100010100000000101010 #
b10010100010100000000101010 6
b10010100010100000000101010 T
b11000000010100 <
b11000000010100 Y
b11000000010100 Z
b11000000010000 ;
b11000000010000 U
b11000000010000 X
b11000000010000 [
1!
#110
0!
#120
b1 3
b1 M
b1 \
b0 4
b0 >
b0 G
b0 5
b0 J
b0 ]
b100 8
b100 L
b100 O
b1 9
b1 A
b1 K
b1 N
b110 :
b110 @
b110 D
b10101 7
b10101 F
b10101 S
b10101 V
b0 1
b0 E
b0 P
b0 `
b1 2
b1 ?
b1 a
0%
1*
b1 ,
b1 .
b1 /
b1 B
0$
b10101 C
b10101 R
b0 _
b1000 ^
b0 H
b0 I
b1000000000000000000010101 W
b100 -
b10001000000000000000000010101 #
b10001000000000000000000010101 6
b10001000000000000000000010101 T
b11000000011000 <
b11000000011000 Y
b11000000011000 Z
b11000000010100 ;
b11000000010100 U
b11000000010100 X
b11000000010100 [
1!
#130
0!
#140
b0 3
b0 M
b0 \
b10011 5
b10011 J
b10011 ]
10
b0 9
b0 A
b0 K
b0 N
b10 :
b10 @
b10 D
b0 7
b0 F
b0 S
b0 V
b0 2
b0 ?
b0 a
0*
1+
b0 ,
b0 .
b0 /
b0 B
1$
b0 C
b0 R
b10011 _
b0 ^
b10011 I
b100110000000000000000 W
b1000 -
b100000000100110000000000000000 #
b100000000100110000000000000000 6
b100000000100110000000000000000 T
b11000000011100 <
b11000000011100 Y
b11000000011100 Z
b11000000011000 ;
b11000000011000 U
b11000000011000 X
b11000000011000 [
1!
#150
0!
#160
b110 3
b110 M
b110 \
b1000 5
b1000 J
b1000 ]
00
b11 8
b11 L
b11 O
b110 9
b110 A
b110 K
b110 N
b110 :
b110 @
b110 D
b100000000100010 7
b100000000100010 F
b100000000100010 S
b100000000100010 V
b110 2
b110 ?
b110 a
1%
0+
b10 ,
b10 .
b10 /
b10 B
b100010 C
b100000000100010 R
b10010 _
b10001 ^
b1000 H
b10010 I
b10001100100100000000100010 W
b0 -
b10001100100100000000100010 #
b10001100100100000000100010 6
b10001100100100000000100010 T
b11000000100000 <
b11000000100000 Y
b11000000100000 Z
b11000000011100 ;
b11000000011100 U
b11000000011100 X
b11000000011100 [
1!
#170
0!
#180
b1 3
b1 M
b1 \
b1 4
b1 >
b1 G
b1001 5
b1001 J
b1001 ]
00
b100 8
b100 L
b100 O
b1 9
b1 A
b1 K
b1 N
b10 :
b10 @
b10 D
b1 7
b1 F
b1 S
b1 V
b0 2
b0 ?
b0 a
0%
1+
b0 ,
b0 .
b0 /
b0 B
b1 C
b1 R
b1001 _
b0 ^
b0 H
b1001 I
b10010000000000000001 W
b1000 -
b100000000010010000000000000001 #
b100000000010010000000000000001 6
b100000000010010000000000000001 T
b11000000100100 <
b11000000100100 Y
b11000000100100 Z
b11000000100000 ;
b11000000100000 U
b11000000100000 X
b11000000100000 [
1!
#190
0!
#200
b101 3
b101 M
b101 \
b1000 5
b1000 J
b1000 ]
b11 8
b11 L
b11 O
b101 9
b101 A
b101 K
b101 N
b110 :
b110 @
b110 D
b100000000100010 7
b100000000100010 F
b100000000100010 S
b100000000100010 V
b110 2
b110 ?
b110 a
1%
0+
b10 ,
b10 .
b10 /
b10 B
b100010 C
b100000000100010 R
b1000 ^
b1000 H
b1000010010100000000100010 W
b0 -
b1000010010100000000100010 #
b1000010010100000000100010 6
b1000010010100000000100010 T
b11000000101000 <
b11000000101000 Y
b11000000101000 Z
b1 1
b1 E
b1 P
b1 `
b11000000100100 ;
b11000000100100 U
b11000000100100 X
b11000000100100 [
1!
#210
0!
#220
b101 4
b101 >
b101 G
b1 3
b1 M
b1 \
b1001 5
b1001 J
b1001 ]
b100 8
b100 L
b100 O
b111 :
b111 @
b111 D
b100100000101010 7
b100100000101010 F
b100100000101010 S
b100100000101010 V
b101 1
b101 E
b101 P
b101 `
b1 9
b1 A
b1 K
b1 N
b101010 C
b100100000101010 R
b1000 _
b10011 ^
b1001 H
b1000 I
b10011010000100100000101010 W
b0 2
b0 ?
b0 a
b10011010000100100000101010 #
b10011010000100100000101010 6
b10011010000100100000101010 T
b11000000101100 <
b11000000101100 Y
b11000000101100 Z
b11000000101000 ;
b11000000101000 U
b11000000101000 X
b11000000101000 [
1!
#230
0!
#240
b1 3
b1 M
b1 \
b0 4
b0 >
b0 G
b0 5
b0 J
b0 ]
b100 8
b100 L
b100 O
b1 9
b1 A
b1 K
b1 N
b110 :
b110 @
b110 D
b1101 7
b1101 F
b1101 S
b1101 V
b0 1
b0 E
b0 P
b0 `
b1 2
b1 ?
b1 a
0%
1*
b1 ,
b1 .
b1 /
b1 B
0$
b1101 C
b1101 R
b0 _
b1001 ^
b0 H
b0 I
b1001000000000000000001101 W
b100 -
b10001001000000000000000001101 #
b10001001000000000000000001101 6
b10001001000000000000000001101 T
b11000000110000 <
b11000000110000 Y
b11000000110000 Z
b11000000101100 ;
b11000000101100 U
b11000000101100 X
b11000000101100 [
1!
#250
0!
#260
b0 3
b0 M
b0 \
b1010 5
b1010 J
b1010 ]
10
b0 9
b0 A
b0 K
b0 N
b1000 :
b1000 @
b1000 D
b101000010000000 7
b101000010000000 F
b101000010000000 S
b101000010000000 V
b0 2
b0 ?
b0 a
1%
0*
b10 ,
b10 .
b10 /
b10 B
1$
b10 =
b0 C
b101000010000000 R
b10011 _
b0 ^
b1010 H
b10011 I
b100110101000010000000 W
b0 -
b100110101000010000000 #
b100110101000010000000 6
b100110101000010000000 T
b11000000110100 <
b11000000110100 Y
b11000000110100 Z
b11000000110000 ;
b11000000110000 U
b11000000110000 X
b11000000110000 [
1!
#270
0!
#280
b10000000000010000000000000000 3
b10000000000010000000000000000 M
b10000000000010000000000000000 \
00
b10000000000010000000000000000 9
b10000000000010000000000000000 A
b10000000000010000000000000000 K
b10000000000010000000000000000 N
b10 :
b10 @
b10 D
b101000000100000 7
b101000000100000 F
b101000000100000 S
b101000000100000 V
b10000000000010000000000000000 2
b10000000000010000000000000000 ?
b10000000000010000000000000000 a
b0 =
b100000 C
b101000000100000 R
b1010 _
b10000 ^
b1010 I
b10000010100101000000100000 W
b10000010100101000000100000 #
b10000010100101000000100000 6
b10000010100101000000100000 T
b11000000111000 <
b11000000111000 Y
b11000000111000 Z
b11000000110100 ;
b11000000110100 U
b11000000110100 X
b11000000110100 [
1!
#290
0!
#300
b100 3
b100 M
b100 \
b1000 5
b1000 J
b1000 ]
b0 4
b0 >
b0 G
b0 7
b0 F
b0 S
b0 V
0%
1&
1+
b0 ,
b0 .
b0 /
b0 B
b0 C
b0 R
b1000 _
b1010 ^
b0 H
b1000 I
b1010010000000000000000000 W
b100011 -
b101 1
b101 E
b101 P
b101 `
b10001101010010000000000000000000 #
b10001101010010000000000000000000 6
b10001101010010000000000000000000 T
b11000000111100 <
b11000000111100 Y
b11000000111100 Z
b11000000111000 ;
b11000000111000 U
b11000000111000 X
b11000000111000 [
1!
#310
0!
#320
b11 3
b11 M
b11 \
b11 8
b11 L
b11 O
b10000000000010000000000000100 9
b10000000000010000000000000100 A
b10000000000010000000000000100 K
b10000000000010000000000000100 N
b100 4
b100 >
b100 G
b1001 5
b1001 J
b1001 ]
b100 7
b100 F
b100 S
b100 V
b100 C
b100 R
b1001 _
b1001 I
b1010010010000000000000100 W
b10001101010010010000000000000100 #
b10001101010010010000000000000100 6
b10001101010010010000000000000100 T
b11000001000000 <
b11000001000000 Y
b11000001000000 Z
b1 1
b1 E
b1 P
b1 `
b11000000111100 ;
b11000000111100 U
b11000000111100 X
b11000000111100 [
1!
#330
0!
#340
b1 3
b1 M
b1 \
b1011 5
b1011 J
b1011 ]
b100 8
b100 L
b100 O
b1 9
b1 A
b1 K
b1 N
b111 :
b111 @
b111 D
b101100000101010 7
b101100000101010 F
b101100000101010 S
b101100000101010 V
b11 2
b11 ?
b11 a
1%
0&
0+
b10 ,
b10 .
b10 /
b10 B
b101010 C
b101100000101010 R
b1000 _
b1001 ^
b1011 H
b1000 I
b1001010000101100000101010 W
b0 -
b100 1
b100 E
b100 P
b100 `
b1001010000101100000101010 #
b1001010000101100000101010 6
b1001010000101100000101010 T
b11000001000100 <
b11000001000100 Y
b11000001000100 Z
b11000001000000 ;
b11000001000000 U
b11000001000000 X
b11000001000000 [
1!
#350
0!
#360
b1 3
b1 M
b1 \
b0 4
b0 >
b0 G
b0 5
b0 J
b0 ]
b100 8
b100 L
b100 O
b1 9
b1 A
b1 K
b1 N
b110 :
b110 @
b110 D
b101 7
b101 F
b101 S
b101 V
b0 1
b0 E
b0 P
b0 `
b1 2
b1 ?
b1 a
0%
1*
b1 ,
b1 .
b1 /
b1 B
0$
b101 C
b101 R
b0 _
b1011 ^
b0 H
b0 I
b1011000000000000000000101 W
b100 -
b10001011000000000000000000101 #
b10001011000000000000000000101 6
b10001011000000000000000000101 T
b11000001001000 <
b11000001001000 Y
b11000001001000 Z
b11000001000100 ;
b11000001000100 U
b11000001000100 X
b11000001000100 [
1!
#370
0!
#380
b100 3
b100 M
b100 \
b1100 5
b1100 J
b1100 ]
b11 8
b11 L
b11 O
b100 9
b100 A
b100 K
b100 N
b10 :
b10 @
b10 D
b110000000100000 7
b110000000100000 F
b110000000100000 S
b110000000100000 V
b100 2
b100 ?
b100 a
1%
0*
b10 ,
b10 .
b10 /
b10 B
1$
b100000 C
b110000000100000 R
b1000 ^
b1100 H
b1000000000110000000100000 W
b0 -
b1000000000110000000100000 #
b1000000000110000000100000 6
b1000000000110000000100000 T
b11000001001100 <
b11000001001100 Y
b11000001001100 Z
b11000001001000 ;
b11000001001000 U
b11000001001000 X
b11000001001000 [
1!
#390
0!
#400
b11 3
b11 M
b11 \
b1000 5
b1000 J
b1000 ]
b100 8
b100 L
b100 O
b11 9
b11 A
b11 K
b11 N
b100000000100000 7
b100000000100000 F
b100000000100000 S
b100000000100000 V
b11 2
b11 ?
b11 a
b100000000100000 R
b1001 ^
b1000 H
b1001000000100000000100000 W
b1001000000100000000100000 #
b1001000000100000000100000 6
b1001000000100000000100000 T
b11000001010000 <
b11000001010000 Y
b11000001010000 Z
b11000001001100 ;
b11000001001100 U
b11000001001100 X
b11000001001100 [
1!
#410
0!
#420
b100 3
b100 M
b100 \
b1001 5
b1001 J
b1001 ]
b11 8
b11 L
b11 O
b100 9
b100 A
b100 K
b100 N
b100100000100000 7
b100100000100000 F
b100100000100000 S
b100100000100000 V
b100 2
b100 ?
b100 a
b100100000100000 R
b1100 ^
b1001 H
b1100000000100100000100000 W
b1100000000100100000100000 #
b1100000000100100000100000 6
b1100000000100100000100000 T
b11000001010100 <
b11000001010100 Y
b11000001010100 Z
b11000001010000 ;
b11000001010000 U
b11000001010000 X
b11000001010000 [
1!
#430
0!
#440
b10000000000010000000000000000 3
b10000000000010000000000000000 M
b10000000000010000000000000000 \
b1000 5
b1000 J
b1000 ]
b100 8
b100 L
b100 O
b10000000000010000000000000000 9
b10000000000010000000000000000 A
b10000000000010000000000000000 K
b10000000000010000000000000000 N
b0 7
b0 F
b0 S
b0 V
b11 1
b11 E
b11 P
b11 `
b10000000000010000000000000000 2
b10000000000010000000000000000 ?
b10000000000010000000000000000 a
0%
1+
b0 ,
b0 .
b0 /
b0 B
1'
0$
b0 C
b0 R
b1000 _
b1010 ^
b0 H
b1000 I
b1010010000000000000000000 W
b101011 -
b10101101010010000000000000000000 #
b10101101010010000000000000000000 6
b10101101010010000000000000000000 T
b11000001011000 <
b11000001011000 Y
b11000001011000 Z
b11000001010100 ;
b11000001010100 U
b11000001010100 X
b11000001010100 [
1!
#450
b110 Q
b11 8
b11 L
b11 O
0!
#460
b10000000000010000000000000100 3
b10000000000010000000000000100 M
b10000000000010000000000000100 \
b10000000000010000000000000100 9
b10000000000010000000000000100 A
b10000000000010000000000000100 K
b10000000000010000000000000100 N
b100 4
b100 >
b100 G
b1001 5
b1001 J
b1001 ]
b100 7
b100 F
b100 S
b100 V
b100 1
b100 E
b100 P
b100 `
b100 C
b100 R
b1001 _
b1001 I
b1010010010000000000000100 W
b10101101010010010000000000000100 #
b10101101010010010000000000000100 6
b10101101010010010000000000000100 T
b11000001011100 <
b11000001011100 Y
b11000001011100 Z
b11000001011000 ;
b11000001011000 U
b11000001011000 X
b11000001011000 [
1!
#470
b110 Q
b100 8
b100 L
b100 O
0!
#480
b11 8
b11 L
b11 O
b1 3
b1 M
b1 \
b1 4
b1 >
b1 G
b10011 5
b10011 J
b10011 ]
b1 9
b1 A
b1 K
b1 N
b1 7
b1 F
b1 S
b1 V
b0 1
b0 E
b0 P
b0 `
b0 2
b0 ?
b0 a
0'
1$
b1 C
b1 R
b10011 _
b10011 ^
b10011 I
b10011100110000000000000001 W
b1000 -
b100010011100110000000000000001 #
b100010011100110000000000000001 6
b100010011100110000000000000001 T
b11000001100000 <
b11000001100000 Y
b11000001100000 Z
b11000001011100 ;
b11000001011100 U
b11000001011100 X
b11000001011100 [
1!
#490
0!
#500
b10000000000010000000000000000 4
b10000000000010000000000000000 >
b10000000000010000000000000000 G
b10000000000010000000000000000 3
b10000000000010000000000000000 M
b10000000000010000000000000000 \
b10000 5
b10000 J
b10000 ]
b111 7
b111 F
b111 S
b111 V
0+
0$
1(
b10000000000010000000000000000 9
b10000000000010000000000000000 A
b10000000000010000000000000000 K
b10000000000010000000000000000 N
b111 C
b111 R
b10000 _
b0 ^
b10000 I
b100000000000000000111 W
b10 -
b0 2
b0 ?
b0 a
b10000000000010000000000000000 1
b10000000000010000000000000000 E
b10000000000010000000000000000 P
b10000000000010000000000000000 `
b1000000100000000000000000111 #
b1000000100000000000000000111 6
b1000000100000000000000000111 T
b10000000000000000011100 <
b10000000000000000011100 Y
b10000000000000000011100 Z
b11000001100000 ;
b11000001100000 U
b11000001100000 X
b11000001100000 [
1!
#510
0!
#520
b110 3
b110 M
b110 \
b0 4
b0 >
b0 G
b1000 5
b1000 J
b1000 ]
b100 8
b100 L
b100 O
b110 9
b110 A
b110 K
b110 N
b110 :
b110 @
b110 D
b100000000100010 7
b100000000100010 F
b100000000100010 S
b100000000100010 V
b0 1
b0 E
b0 P
b0 `
b110 2
b110 ?
b110 a
b10000000000000000100000 <
b10000000000000000100000 Y
b10000000000000000100000 Z
1%
b10 ,
b10 .
b10 /
b10 B
1$
0(
b100010 C
b100000000100010 R
b10010 _
b10001 ^
b1000 H
b10010 I
b10001100100100000000100010 W
b0 -
b10001100100100000000100010 #
b10001100100100000000100010 6
b10001100100100000000100010 T
b10000000000000000011100 ;
b10000000000000000011100 U
b10000000000000000011100 X
b10000000000000000011100 [
1!
#530
0!
#540
b1 3
b1 M
b1 \
b1 4
b1 >
b1 G
b1001 5
b1001 J
b1001 ]
00
b11 8
b11 L
b11 O
b1 9
b1 A
b1 K
b1 N
b10 :
b10 @
b10 D
b1 7
b1 F
b1 S
b1 V
b100 1
b100 E
b100 P
b100 `
b0 2
b0 ?
b0 a
0%
1+
b0 ,
b0 .
b0 /
b0 B
b1 C
b1 R
b1001 _
b0 ^
b0 H
b1001 I
b10010000000000000001 W
b1000 -
b100000000010010000000000000001 #
b100000000010010000000000000001 6
b100000000010010000000000000001 T
b10000000000000000100100 <
b10000000000000000100100 Y
b10000000000000000100100 Z
b10000000000000000100000 ;
b10000000000000000100000 U
b10000000000000000100000 X
b10000000000000000100000 [
1!
#550
0!
#560
b101 3
b101 M
b101 \
b1000 5
b1000 J
b1000 ]
b100 8
b100 L
b100 O
b101 9
b101 A
b101 K
b101 N
b110 :
b110 @
b110 D
b100000000100010 7
b100000000100010 F
b100000000100010 S
b100000000100010 V
b110 2
b110 ?
b110 a
1%
0+
b10 ,
b10 .
b10 /
b10 B
b100010 C
b100000000100010 R
b1000 ^
b1000 H
b1000010010100000000100010 W
b0 -
b1000010010100000000100010 #
b1000010010100000000100010 6
b1000010010100000000100010 T
b10000000000000000101000 <
b10000000000000000101000 Y
b10000000000000000101000 Z
b1 1
b1 E
b1 P
b1 `
b10000000000000000100100 ;
b10000000000000000100100 U
b10000000000000000100100 X
b10000000000000000100100 [
1!
#570
0!
#580
b101 4
b101 >
b101 G
b1 3
b1 M
b1 \
b1001 5
b1001 J
b1001 ]
00
b11 8
b11 L
b11 O
b111 :
b111 @
b111 D
b100100000101010 7
b100100000101010 F
b100100000101010 S
b100100000101010 V
b101 1
b101 E
b101 P
b101 `
b1 9
b1 A
b1 K
b1 N
b101010 C
b100100000101010 R
b1000 _
b10011 ^
b1001 H
b1000 I
b10011010000100100000101010 W
b1 2
b1 ?
b1 a
b10011010000100100000101010 #
b10011010000100100000101010 6
b10011010000100100000101010 T
b10000000000000000101100 <
b10000000000000000101100 Y
b10000000000000000101100 Z
b10000000000000000101000 ;
b10000000000000000101000 U
b10000000000000000101000 X
b10000000000000000101000 [
1!
#590
0!
#600
b1 3
b1 M
b1 \
b0 4
b0 >
b0 G
b0 5
b0 J
b0 ]
b11 8
b11 L
b11 O
b1 9
b1 A
b1 K
b1 N
b110 :
b110 @
b110 D
b1101 7
b1101 F
b1101 S
b1101 V
b0 1
b0 E
b0 P
b0 `
0%
1*
b1 ,
b1 .
b1 /
b1 B
0$
b1101 C
b1101 R
b0 _
b1001 ^
b0 H
b0 I
b1001000000000000000001101 W
b100 -
b10001001000000000000000001101 #
b10001001000000000000000001101 6
b10001001000000000000000001101 T
b10000000000000000110000 <
b10000000000000000110000 Y
b10000000000000000110000 Z
b10000000000000000101100 ;
b10000000000000000101100 U
b10000000000000000101100 X
b10000000000000000101100 [
1!
#610
0!
#620
b100 8
b100 L
b100 O
b100 3
b100 M
b100 \
b1 4
b1 >
b1 G
b1010 5
b1010 J
b1010 ]
00
b100 9
b100 A
b100 K
b100 N
b1000 :
b1000 @
b1000 D
b101000010000000 7
b101000010000000 F
b101000010000000 S
b101000010000000 V
b1 1
b1 E
b1 P
b1 `
b0 2
b0 ?
b0 a
1%
0*
b10 ,
b10 .
b10 /
b10 B
1$
b10 =
b0 C
b101000010000000 R
b10011 _
b0 ^
b1010 H
b10011 I
b100110101000010000000 W
b0 -
b100110101000010000000 #
b100110101000010000000 6
b100110101000010000000 T
b10000000000000000110100 <
b10000000000000000110100 Y
b10000000000000000110100 Z
b10000000000000000110000 ;
b10000000000000000110000 U
b10000000000000000110000 X
b10000000000000000110000 [
1!
#630
0!
#640
b10000000000010000000000000100 3
b10000000000010000000000000100 M
b10000000000010000000000000100 \
b100 4
b100 >
b100 G
b100 8
b100 L
b100 O
b10000000000010000000000000100 9
b10000000000010000000000000100 A
b10000000000010000000000000100 K
b10000000000010000000000000100 N
b10 :
b10 @
b10 D
b101000000100000 7
b101000000100000 F
b101000000100000 S
b101000000100000 V
b100 1
b100 E
b100 P
b100 `
b10000000000010000000000000000 2
b10000000000010000000000000000 ?
b10000000000010000000000000000 a
b0 =
b100000 C
b101000000100000 R
b1010 _
b10000 ^
b1010 I
b10000010100101000000100000 W
b10000010100101000000100000 #
b10000010100101000000100000 6
b10000010100101000000100000 T
b10000000000000000111000 <
b10000000000000000111000 Y
b10000000000000000111000 Z
b10000000000000000110100 ;
b10000000000000000110100 U
b10000000000000000110100 X
b10000000000000000110100 [
1!
#650
0!
#660
b100 3
b100 M
b100 \
b1000 5
b1000 J
b1000 ]
b0 4
b0 >
b0 G
b100 8
b100 L
b100 O
b10000000000010000000000000100 9
b10000000000010000000000000100 A
b10000000000010000000000000100 K
b10000000000010000000000000100 N
b0 7
b0 F
b0 S
b0 V
b10000000000010000000000000100 2
b10000000000010000000000000100 ?
b10000000000010000000000000100 a
0%
1&
1+
b0 ,
b0 .
b0 /
b0 B
b0 C
b0 R
b1000 _
b1010 ^
b0 H
b1000 I
b1010010000000000000000000 W
b100011 -
b101 1
b101 E
b101 P
b101 `
b10001101010010000000000000000000 #
b10001101010010000000000000000000 6
b10001101010010000000000000000000 T
b10000000000000000111100 <
b10000000000000000111100 Y
b10000000000000000111100 Z
b10000000000000000111000 ;
b10000000000000000111000 U
b10000000000000000111000 X
b10000000000000000111000 [
1!
#670
0!
#680
b1 3
b1 M
b1 \
b1 8
b1 L
b1 O
b10000000000010000000000001000 9
b10000000000010000000000001000 A
b10000000000010000000000001000 K
b10000000000010000000000001000 N
b100 4
b100 >
b100 G
b1001 5
b1001 J
b1001 ]
b100 7
b100 F
b100 S
b100 V
b100 C
b100 R
b1001 _
b1001 I
b1010010010000000000000100 W
b10001101010010010000000000000100 #
b10001101010010010000000000000100 6
b10001101010010010000000000000100 T
b10000000000000001000000 <
b10000000000000001000000 Y
b10000000000000001000000 Z
b1 1
b1 E
b1 P
b1 `
b10000000000000000111100 ;
b10000000000000000111100 U
b10000000000000000111100 X
b10000000000000000111100 [
1!
#690
0!
#700
b1 3
b1 M
b1 \
b1011 5
b1011 J
b1011 ]
b11 8
b11 L
b11 O
b1 9
b1 A
b1 K
b1 N
b111 :
b111 @
b111 D
b101100000101010 7
b101100000101010 F
b101100000101010 S
b101100000101010 V
b100 1
b100 E
b100 P
b100 `
b1 2
b1 ?
b1 a
1%
0&
0+
b10 ,
b10 .
b10 /
b10 B
b101010 C
b101100000101010 R
b1000 _
b1001 ^
b1011 H
b1000 I
b1001010000101100000101010 W
b0 -
b1001010000101100000101010 #
b1001010000101100000101010 6
b1001010000101100000101010 T
b10000000000000001000100 <
b10000000000000001000100 Y
b10000000000000001000100 Z
b10000000000000001000000 ;
b10000000000000001000000 U
b10000000000000001000000 X
b10000000000000001000000 [
1!
#710
0!
