single_cycle/wave.vcd
$date
	Thu Apr 22 22:36:25 2021
$end
$version
	Icarus Verilog
$end
$timescale
	10ns
$end
$scope module test $end
$var reg 1 ! clock $end
$var reg 1 " reset $end
$scope module MIPS $end
$var wire 1 ! clock $end
$var wire 1 " reset $end
$var wire 32 # instruction [31:0] $end
$var wire 1 $ RegWrite $end
$var wire 1 % RegDst $end
$var wire 1 & MemtoReg $end
$var wire 1 ' MemWrite $end
$var wire 1 ( Jump $end
$var wire 1 ) Ext_op $end
$var wire 1 * Branch $end
$var wire 1 + ALUSrc $end
$var wire 2 , ALUOp [1:0] $end
$scope module Controller $end
$var wire 6 - funct [5:0] $end
$var wire 6 . opcode [31:26] $end
$var reg 2 / ALUOp [1:0] $end
$var reg 1 + ALUSrc $end
$var reg 1 * Branch $end
$var reg 1 ) Ext_op $end
$var reg 1 ( Jump $end
$var reg 1 ' MemWrite $end
$var reg 1 & MemtoReg $end
$var reg 1 % RegDst $end
$var reg 1 $ RegWrite $end
$upscope $end
$scope module DataPath $end
$var wire 2 0 ALUOp [1:0] $end
$var wire 1 + ALUSrc $end
$var wire 1 * Branch $end
$var wire 1 ) Ext_op $end
$var wire 1 ( Jump $end
$var wire 1 ' MemWrite $end
$var wire 1 & MemtoReg $end
$var wire 1 % RegDst $end
$var wire 1 $ RegWrite $end
$var wire 1 ! clock $end
$var wire 1 1 jump $end
$var wire 1 " reset $end
$var wire 1 2 zero $end
$var wire 32 3 regfile_out2 [31:0] $end
$var wire 32 4 regfile_out1 [31:0] $end
$var wire 32 5 mux3_out [31:0] $end
$var wire 32 6 mux2_out [31:0] $end
$var wire 5 7 mux1_out [4:0] $end
$var wire 32 8 instruction [31:0] $end
$var wire 32 9 ext_out [31:0] $end
$var wire 32 : dm_out [31:0] $end
$var wire 32 ; alu_out [31:0] $end
$var wire 4 < alu_ctrl_out [3:0] $end
$var wire 32 = PC [31:0] $end
$var wire 32 > NPC [31:0] $end
$scope module ALU $end
$var wire 5 ? shamt [4:0] $end
$var wire 1 2 zero $end
$var wire 32 @ op_num2 [31:0] $end
$var wire 32 A op_num1 [31:0] $end
$var wire 4 B alu_ctrl_out [3:0] $end
$var reg 32 C alu_out [31:0] $end
$upscope $end
$scope module ALU_controller $end
$var wire 2 D ALUOp [1:0] $end
$var wire 6 E funct [5:0] $end
$var reg 4 F alu_ctrl_out [3:0] $end
$upscope $end
$scope module ID_EX_mux $end
$var wire 1 + ALUSrc $end
$var wire 32 G out2 [31:0] $end
$var wire 32 H Ext [31:0] $end
$var reg 32 I DstData [31:0] $end
$upscope $end
$scope module IF_ID_mux $end
$var wire 1 % RegDst $end
$var wire 5 J rd [4:0] $end
$var wire 5 K rt [4:0] $end
$var reg 5 L DstReg [4:0] $end
$upscope $end
$scope module MEM_WB_mux $end
$var wire 1 & MemtoReg $end
$var wire 32 M alu_out [31:0] $end
$var wire 32 N dm_out [31:0] $end
$var reg 32 O WriteData [31:0] $end
$upscope $end
$scope module data_memory $end
$var wire 1 ' MemWrite $end
$var wire 32 P alu_out [31:0] $end
$var wire 1 ! clock $end
$var wire 32 Q dm_out [31:0] $end
$var wire 32 R out2 [31:0] $end
$upscope $end
$scope module extension_unit $end
$var wire 1 ) Ext_op $end
$var wire 16 S input_num [15:0] $end
$var reg 32 T output_num [31:0] $end
$upscope $end
$scope module instruction_memory $end
$var wire 32 U out_instr [31:0] $end
$var wire 32 V pc [31:0] $end
$upscope $end
$scope module next_program_counter $end
$var wire 32 W Ext [31:0] $end
$var wire 1 * branch $end
$var wire 1 1 jump $end
$var wire 26 X jump_Addr [25:0] $end
$var wire 1 2 zero $end
$var wire 32 Y PC [31:0] $end
$var reg 32 Z NPC [31:0] $end
$upscope $end
$scope module program_counter $end
$var wire 32 [ NPC [31:0] $end
$var wire 1 ! clock $end
$var wire 1 " reset $end
$var reg 32 \ PC [31:0] $end
$upscope $end
$scope module register_files $end
$var wire 1 $ RegWrite $end
$var wire 1 ! clock $end
$var wire 32 ] data [31:0] $end
$var wire 5 ^ rd [4:0] $end
$var wire 1 " reset $end
$var wire 5 _ rs [4:0] $end
$var wire 5 ` rt [4:0] $end
$var wire 32 a out2 [31:0] $end
$var wire 32 b out1 [31:0] $end
$var integer 32 c i [31:0] $end
$upscope $end
$upscope $end
$upscope $end
$upscope $end
$enddefinitions $end
#0
$dumpvars
b100000 c
bx b
bx a
bx `
bx _
bx ^
bx ]
b11000000000000 \
b11000000000100 [
b11000000000100 Z
b11000000000000 Y
bx X
bx W
b11000000000000 V
bx U
bx T
bx S
bx R
bx Q
bx P
bx O
bx N
bx M
bx L
bx K
bx J
bx I
bx H
bx G
bx F
bx E
bx D
bx C
bx B
bx A
bx @
bx ?
b11000000000100 >
b11000000000000 =
bx <
bx ;
bx :
bx 9
bx 8
bx 7
bx 6
bx 5
bx 4
bx 3
x2
z1
bx 0
bx /
bx .
bx -
bx ,
x+
x*
x)
x(
x'
x&
x%
x$
bx #
1"
1!
$end
#20
0"
#40
0!
#80
b11000000001000 >
b11000000001000 Z
b11000000001000 [
b11000000000100 =
b11000000000100 V
b11000000000100 Y
b11000000000100 \
1!
#120
0!
#160
b11000000001100 >
b11000000001100 Z
b11000000001100 [
b11000000001000 =
b11000000001000 V
b11000000001000 Y
b11000000001000 \
1!
#200
0!
#240
b11000000010000 >
b11000000010000 Z
b11000000010000 [
b11000000001100 =
b11000000001100 V
b11000000001100 Y
b11000000001100 \
1!
#280
0!
#320
b11000000010100 >
b11000000010100 Z
b11000000010100 [
b11000000010000 =
b11000000010000 V
b11000000010000 Y
b11000000010000 \
1!
#360
0!
#400
b11000000011000 >
b11000000011000 Z
b11000000011000 [
b11000000010100 =
b11000000010100 V
b11000000010100 Y
b11000000010100 \
1!
#440
0!
#480
b11000000011100 >
b11000000011100 Z
b11000000011100 [
b11000000011000 =
b11000000011000 V
b11000000011000 Y
b11000000011000 \
1!
#520
0!
#560
b11000000100000 >
b11000000100000 Z
b11000000100000 [
b11000000011100 =
b11000000011100 V
b11000000011100 Y
b11000000011100 \
1!
#600
0!
#640
b11000000100100 >
b11000000100100 Z
b11000000100100 [
b11000000100000 =
b11000000100000 V
b11000000100000 Y
b11000000100000 \
1!
#680
0!
#720
b11000000101000 >
b11000000101000 Z
b11000000101000 [
b11000000100100 =
b11000000100100 V
b11000000100100 Y
b11000000100100 \
1!
#760
0!
#800
b11000000101100 >
b11000000101100 Z
b11000000101100 [
b11000000101000 =
b11000000101000 V
b11000000101000 Y
b11000000101000 \
1!
#840
0!
#880
b11000000110000 >
b11000000110000 Z
b11000000110000 [
b11000000101100 =
b11000000101100 V
b11000000101100 Y
b11000000101100 \
1!
#920
0!
#960
b11000000110100 >
b11000000110100 Z
b11000000110100 [
b11000000110000 =
b11000000110000 V
b11000000110000 Y
b11000000110000 \
1!
#1000
0!
#1040
b11000000111000 >
b11000000111000 Z
b11000000111000 [
b11000000110100 =
b11000000110100 V
b11000000110100 Y
b11000000110100 \
1!
#1080
0!
#1120
b11000000111100 >
b11000000111100 Z
b11000000111100 [
b11000000111000 =
b11000000111000 V
b11000000111000 Y
b11000000111000 \
1!
#1160
0!
#1200
b11000001000000 >
b11000001000000 Z
b11000001000000 [
b11000000111100 =
b11000000111100 V
b11000000111100 Y
b11000000111100 \
1!
#1240
0!
#1280
b11000001000100 >
b11000001000100 Z
b11000001000100 [
b11000001000000 =
b11000001000000 V
b11000001000000 Y
b11000001000000 \
1!
#1320
0!
#1360
b11000001001000 >
b11000001001000 Z
b11000001001000 [
b11000001000100 =
b11000001000100 V
b11000001000100 Y
b11000001000100 \
1!
#1400
0!
#1440
b11000001001100 >
b11000001001100 Z
b11000001001100 [
b11000001001000 =
b11000001001000 V
b11000001001000 Y
b11000001001000 \
1!
#1480
0!
#1520
b11000001010000 >
b11000001010000 Z
b11000001010000 [
b11000001001100 =
b11000001001100 V
b11000001001100 Y
b11000001001100 \
1!
#1560
0!
#1600
b11000001010100 >
b11000001010100 Z
b11000001010100 [
b11000001010000 =
b11000001010000 V
b11000001010000 Y
b11000001010000 \
1!
#1640
0!
#1680
b11000001011000 >
b11000001011000 Z
b11000001011000 [
b11000001010100 =
b11000001010100 V
b11000001010100 Y
b11000001010100 \
1!
#1720
0!
#1760
b11000001011100 >
b11000001011100 Z
b11000001011100 [
b11000001011000 =
b11000001011000 V
b11000001011000 Y
b11000001011000 \
1!
#1800
0!
#1840
b11000001100000 >
b11000001100000 Z
b11000001100000 [
b11000001011100 =
b11000001011100 V
b11000001011100 Y
b11000001011100 \
1!
#1880
0!
#1920
b11000001100100 >
b11000001100100 Z
b11000001100100 [
b11000001100000 =
b11000001100000 V
b11000001100000 Y
b11000001100000 \
1!
#1960
0!
#2000
b11000001101000 >
b11000001101000 Z
b11000001101000 [
b11000001100100 =
b11000001100100 V
b11000001100100 Y
b11000001100100 \
1!
#2040
0!
#2080
b11000001101100 >
b11000001101100 Z
b11000001101100 [
b11000001101000 =
b11000001101000 V
b11000001101000 Y
b11000001101000 \
1!
#2120
0!
#2160
b11000001110000 >
b11000001110000 Z
b11000001110000 [
b11000001101100 =
b11000001101100 V
b11000001101100 Y
b11000001101100 \
1!
#2200
0!
#2240
b11000001110100 >
b11000001110100 Z
b11000001110100 [
b11000001110000 =
b11000001110000 V
b11000001110000 Y
b11000001110000 \
1!
#2280
0!
#2320
b11000001111000 >
b11000001111000 Z
b11000001111000 [
b11000001110100 =
b11000001110100 V
b11000001110100 Y
b11000001110100 \
1!
#2360
0!
#2400
b11000001111100 >
b11000001111100 Z
b11000001111100 [
b11000001111000 =
b11000001111000 V
b11000001111000 Y
b11000001111000 \
1!
#2440
0!
#2480
b11000010000000 >
b11000010000000 Z
b11000010000000 [
b11000001111100 =
b11000001111100 V
b11000001111100 Y
b11000001111100 \
1!
#2520
0!
#2560
b11000010000100 >
b11000010000100 Z
b11000010000100 [
b11000010000000 =
b11000010000000 V
b11000010000000 Y
b11000010000000 \
1!
#2600
0!
#2640
b11000010001000 >
b11000010001000 Z
b11000010001000 [
b11000010000100 =
b11000010000100 V
b11000010000100 Y
b11000010000100 \
1!
#2680
0!
#2720
b11000010001100 >
b11000010001100 Z
b11000010001100 [
b11000010001000 =
b11000010001000 V
b11000010001000 Y
b11000010001000 \
1!
#2760
0!
#2800
b11000010010000 >
b11000010010000 Z
b11000010010000 [
b11000010001100 =
b11000010001100 V
b11000010001100 Y
b11000010001100 \
1!
#2840
0!
#2880
b11000010010100 >
b11000010010100 Z
b11000010010100 [
b11000010010000 =
b11000010010000 V
b11000010010000 Y
b11000010010000 \
1!
#2920
0!
#2960
b11000010011000 >
b11000010011000 Z
b11000010011000 [
b11000010010100 =
b11000010010100 V
b11000010010100 Y
b11000010010100 \
1!
#3000
0!
#3040
b11000010011100 >
b11000010011100 Z
b11000010011100 [
b11000010011000 =
b11000010011000 V
b11000010011000 Y
b11000010011000 \
1!
#3080
0!
#3120
b11000010100000 >
b11000010100000 Z
b11000010100000 [
b11000010011100 =
b11000010011100 V
b11000010011100 Y
b11000010011100 \
1!
#3160
0!
#3200
b11000010100100 >
b11000010100100 Z
b11000010100100 [
b11000010100000 =
b11000010100000 V
b11000010100000 Y
b11000010100000 \
1!
#3240
0!
#3280
b11000010101000 >
b11000010101000 Z
b11000010101000 [
b11000010100100 =
b11000010100100 V
b11000010100100 Y
b11000010100100 \
1!
#3320
0!
#3360
b11000010101100 >
b11000010101100 Z
b11000010101100 [
b11000010101000 =
b11000010101000 V
b11000010101000 Y
b11000010101000 \
1!
#3400
0!
#3440
b11000010110000 >
b11000010110000 Z
b11000010110000 [
b11000010101100 =
b11000010101100 V
b11000010101100 Y
b11000010101100 \
1!
#3480
0!
#3520
b11000010110100 >
b11000010110100 Z
b11000010110100 [
b11000010110000 =
b11000010110000 V
b11000010110000 Y
b11000010110000 \
1!
#3560
0!
#3600
b11000010111000 >
b11000010111000 Z
b11000010111000 [
b11000010110100 =
b11000010110100 V
b11000010110100 Y
b11000010110100 \
1!
#3640
0!
#3680
b11000010111100 >
b11000010111100 Z
b11000010111100 [
b11000010111000 =
b11000010111000 V
b11000010111000 Y
b11000010111000 \
1!
#3720
0!
#3760
b11000011000000 >
b11000011000000 Z
b11000011000000 [
b11000010111100 =
b11000010111100 V
b11000010111100 Y
b11000010111100 \
1!
#3800
0!
#3840
b11000011000100 >
b11000011000100 Z
b11000011000100 [
b11000011000000 =
b11000011000000 V
b11000011000000 Y
b11000011000000 \
1!
#3880
0!
#3920
b11000011001000 >
b11000011001000 Z
b11000011001000 [
b11000011000100 =
b11000011000100 V
b11000011000100 Y
b11000011000100 \
1!
#3960
0!
#4000
b11000011001100 >
b11000011001100 Z
b11000011001100 [
b11000011001000 =
b11000011001000 V
b11000011001000 Y
b11000011001000 \
1!
#4040
0!
#4080
b11000011010000 >
b11000011010000 Z
b11000011010000 [
b11000011001100 =
b11000011001100 V
b11000011001100 Y
b11000011001100 \
1!
#4120
0!
#4160
b11000011010100 >
b11000011010100 Z
b11000011010100 [
b11000011010000 =
b11000011010000 V
b11000011010000 Y
b11000011010000 \
1!
#4200
0!
#4240
b11000011011000 >
b11000011011000 Z
b11000011011000 [
b11000011010100 =
b11000011010100 V
b11000011010100 Y
b11000011010100 \
1!
#4280
0!
#4320
b11000011011100 >
b11000011011100 Z
b11000011011100 [
b11000011011000 =
b11000011011000 V
b11000011011000 Y
b11000011011000 \
1!
#4360
0!
#4400
b11000011100000 >
b11000011100000 Z
b11000011100000 [
b11000011011100 =
b11000011011100 V
b11000011011100 Y
b11000011011100 \
1!
#4440
0!
#4480
b11000011100100 >
b11000011100100 Z
b11000011100100 [
b11000011100000 =
b11000011100000 V
b11000011100000 Y
b11000011100000 \
1!
#4520
0!
#4560
b11000011101000 >
b11000011101000 Z
b11000011101000 [
b11000011100100 =
b11000011100100 V
b11000011100100 Y
b11000011100100 \
1!
#4600
0!
#4640
b11000011101100 >
b11000011101100 Z
b11000011101100 [
b11000011101000 =
b11000011101000 V
b11000011101000 Y
b11000011101000 \
1!
#4680
0!
#4720
b11000011110000 >
b11000011110000 Z
b11000011110000 [
b11000011101100 =
b11000011101100 V
b11000011101100 Y
b11000011101100 \
1!
#4760
0!
#4800
b11000011110100 >
b11000011110100 Z
b11000011110100 [
b11000011110000 =
b11000011110000 V
b11000011110000 Y
b11000011110000 \
1!
#4840
0!
#4880
b11000011111000 >
b11000011111000 Z
b11000011111000 [
b11000011110100 =
b11000011110100 V
b11000011110100 Y
b11000011110100 \
1!
#4920
0!
#4960
b11000011111100 >
b11000011111100 Z
b11000011111100 [
b11000011111000 =
b11000011111000 V
b11000011111000 Y
b11000011111000 \
1!
#5000
0!
#5040
b11000100000000 >
b11000100000000 Z
b11000100000000 [
b11000011111100 =
b11000011111100 V
b11000011111100 Y
b11000011111100 \
1!
#5080
0!
#5120
b11000100000100 >
b11000100000100 Z
b11000100000100 [
b11000100000000 =
b11000100000000 V
b11000100000000 Y
b11000100000000 \
1!
#5160
0!
#5200
b11000100001000 >
b11000100001000 Z
b11000100001000 [
b11000100000100 =
b11000100000100 V
b11000100000100 Y
b11000100000100 \
1!
#5240
0!
#5280
b11000100001100 >
b11000100001100 Z
b11000100001100 [
b11000100001000 =
b11000100001000 V
b11000100001000 Y
b11000100001000 \
1!
#5320
0!
#5360
b11000100010000 >
b11000100010000 Z
b11000100010000 [
b11000100001100 =
b11000100001100 V
b11000100001100 Y
b11000100001100 \
1!
#5400
0!
#5440
b11000100010100 >
b11000100010100 Z
b11000100010100 [
b11000100010000 =
b11000100010000 V
b11000100010000 Y
b11000100010000 \
1!
#5480
0!
#5520
b11000100011000 >
b11000100011000 Z
b11000100011000 [
b11000100010100 =
b11000100010100 V
b11000100010100 Y
b11000100010100 \
1!
#5560
0!
#5600
b11000100011100 >
b11000100011100 Z
b11000100011100 [
b11000100011000 =
b11000100011000 V
b11000100011000 Y
b11000100011000 \
1!
#5640
0!
#5680
b11000100100000 >
b11000100100000 Z
b11000100100000 [
b11000100011100 =
b11000100011100 V
b11000100011100 Y
b11000100011100 \
1!
#5720
0!
#5760
b11000100100100 >
b11000100100100 Z
b11000100100100 [
b11000100100000 =
b11000100100000 V
b11000100100000 Y
b11000100100000 \
1!
#5800
0!
#5840
b11000100101000 >
b11000100101000 Z
b11000100101000 [
b11000100100100 =
b11000100100100 V
b11000100100100 Y
b11000100100100 \
1!
#5880
0!
#5920
b11000100101100 >
b11000100101100 Z
b11000100101100 [
b11000100101000 =
b11000100101000 V
b11000100101000 Y
b11000100101000 \
1!
#5960
0!
#6000
b11000100110000 >
b11000100110000 Z
b11000100110000 [
b11000100101100 =
b11000100101100 V
b11000100101100 Y
b11000100101100 \
1!
#6040
0!
#6080
b11000100110100 >
b11000100110100 Z
b11000100110100 [
b11000100110000 =
b11000100110000 V
b11000100110000 Y
b11000100110000 \
1!
#6120
0!
#6160
b11000100111000 >
b11000100111000 Z
b11000100111000 [
b11000100110100 =
b11000100110100 V
b11000100110100 Y
b11000100110100 \
1!
#6200
0!
#6240
b11000100111100 >
b11000100111100 Z
b11000100111100 [
b11000100111000 =
b11000100111000 V
b11000100111000 Y
b11000100111000 \
1!
#6280
0!
#6320
b11000101000000 >
b11000101000000 Z
b11000101000000 [
b11000100111100 =
b11000100111100 V
b11000100111100 Y
b11000100111100 \
1!
#6360
0!
#6400
b11000101000100 >
b11000101000100 Z
b11000101000100 [
b11000101000000 =
b11000101000000 V
b11000101000000 Y
b11000101000000 \
1!
#6440
0!
#6480
b11000101001000 >
b11000101001000 Z
b11000101001000 [
b11000101000100 =
b11000101000100 V
b11000101000100 Y
b11000101000100 \
1!
#6520
0!
#6560
b11000101001100 >
b11000101001100 Z
b11000101001100 [
b11000101001000 =
b11000101001000 V
b11000101001000 Y
b11000101001000 \
1!
#6600
0!
#6640
b11000101010000 >
b11000101010000 Z
b11000101010000 [
b11000101001100 =
b11000101001100 V
b11000101001100 Y
b11000101001100 \
1!
#6680
0!
#6720
b11000101010100 >
b11000101010100 Z
b11000101010100 [
b11000101010000 =
b11000101010000 V
b11000101010000 Y
b11000101010000 \
1!
#6760
0!
#6800
b11000101011000 >
b11000101011000 Z
b11000101011000 [
b11000101010100 =
b11000101010100 V
b11000101010100 Y
b11000101010100 \
1!
#6840
0!
#6880
b11000101011100 >
b11000101011100 Z
b11000101011100 [
b11000101011000 =
b11000101011000 V
b11000101011000 Y
b11000101011000 \
1!
#6920
0!
#6960
b11000101100000 >
b11000101100000 Z
b11000101100000 [
b11000101011100 =
b11000101011100 V
b11000101011100 Y
b11000101011100 \
1!
#7000
0!
#7040
b11000101100100 >
b11000101100100 Z
b11000101100100 [
b11000101100000 =
b11000101100000 V
b11000101100000 Y
b11000101100000 \
1!
#7080
0!
#7120
b11000101101000 >
b11000101101000 Z
b11000101101000 [
b11000101100100 =
b11000101100100 V
b11000101100100 Y
b11000101100100 \
1!
#7160
0!
#7200
b11000101101100 >
b11000101101100 Z
b11000101101100 [
b11000101101000 =
b11000101101000 V
b11000101101000 Y
b11000101101000 \
1!
#7240
0!
#7280
b11000101110000 >
b11000101110000 Z
b11000101110000 [
b11000101101100 =
b11000101101100 V
b11000101101100 Y
b11000101101100 \
1!
#7320
0!
#7360
b11000101110100 >
b11000101110100 Z
b11000101110100 [
b11000101110000 =
b11000101110000 V
b11000101110000 Y
b11000101110000 \
1!
#7400
0!
#7440
b11000101111000 >
b11000101111000 Z
b11000101111000 [
b11000101110100 =
b11000101110100 V
b11000101110100 Y
b11000101110100 \
1!
#7480
0!
#7520
b11000101111100 >
b11000101111100 Z
b11000101111100 [
b11000101111000 =
b11000101111000 V
b11000101111000 Y
b11000101111000 \
1!
#7560
0!
#7600
b11000110000000 >
b11000110000000 Z
b11000110000000 [
b11000101111100 =
b11000101111100 V
b11000101111100 Y
b11000101111100 \
1!
#7640
0!
#7680
b11000110000100 >
b11000110000100 Z
b11000110000100 [
b11000110000000 =
b11000110000000 V
b11000110000000 Y
b11000110000000 \
1!
#7720
0!
#7760
b11000110001000 >
b11000110001000 Z
b11000110001000 [
b11000110000100 =
b11000110000100 V
b11000110000100 Y
b11000110000100 \
1!
#7800
0!
#7840
b11000110001100 >
b11000110001100 Z
b11000110001100 [
b11000110001000 =
b11000110001000 V
b11000110001000 Y
b11000110001000 \
1!
#7880
0!
#7920
b11000110010000 >
b11000110010000 Z
b11000110010000 [
b11000110001100 =
b11000110001100 V
b11000110001100 Y
b11000110001100 \
1!
#7960
0!
#8000
b11000110010100 >
b11000110010100 Z
b11000110010100 [
b11000110010000 =
b11000110010000 V
b11000110010000 Y
b11000110010000 \
1!
#8040
0!
#8080
b11000110011000 >
b11000110011000 Z
b11000110011000 [
b11000110010100 =
b11000110010100 V
b11000110010100 Y
b11000110010100 \
1!
#8120
0!
#8160
b11000110011100 >
b11000110011100 Z
b11000110011100 [
b11000110011000 =
b11000110011000 V
b11000110011000 Y
b11000110011000 \
1!
#8200
0!
#8240
b11000110100000 >
b11000110100000 Z
b11000110100000 [
b11000110011100 =
b11000110011100 V
b11000110011100 Y
b11000110011100 \
1!
#8280
0!
#8320
b11000110100100 >
b11000110100100 Z
b11000110100100 [
b11000110100000 =
b11000110100000 V
b11000110100000 Y
b11000110100000 \
1!
#8360
0!
#8400
b11000110101000 >
b11000110101000 Z
b11000110101000 [
b11000110100100 =
b11000110100100 V
b11000110100100 Y
b11000110100100 \
1!
#8440
0!
#8480
b11000110101100 >
b11000110101100 Z
b11000110101100 [
b11000110101000 =
b11000110101000 V
b11000110101000 Y
b11000110101000 \
1!
#8520
0!
#8560
b11000110110000 >
b11000110110000 Z
b11000110110000 [
b11000110101100 =
b11000110101100 V
b11000110101100 Y
b11000110101100 \
1!
#8600
0!
#8640
b11000110110100 >
b11000110110100 Z
b11000110110100 [
b11000110110000 =
b11000110110000 V
b11000110110000 Y
b11000110110000 \
1!
#8680
0!
#8720
b11000110111000 >
b11000110111000 Z
b11000110111000 [
b11000110110100 =
b11000110110100 V
b11000110110100 Y
b11000110110100 \
1!
#8760
0!
#8800
b11000110111100 >
b11000110111100 Z
b11000110111100 [
b11000110111000 =
b11000110111000 V
b11000110111000 Y
b11000110111000 \
1!
#8840
0!
#8880
b11000111000000 >
b11000111000000 Z
b11000111000000 [
b11000110111100 =
b11000110111100 V
b11000110111100 Y
b11000110111100 \
1!
#8920
0!
#8960
b11000111000100 >
b11000111000100 Z
b11000111000100 [
b11000111000000 =
b11000111000000 V
b11000111000000 Y
b11000111000000 \
1!
#9000
0!
#9040
b11000111001000 >
b11000111001000 Z
b11000111001000 [
b11000111000100 =
b11000111000100 V
b11000111000100 Y
b11000111000100 \
1!
#9080
0!
#9120
b11000111001100 >
b11000111001100 Z
b11000111001100 [
b11000111001000 =
b11000111001000 V
b11000111001000 Y
b11000111001000 \
1!
#9160
0!
#9200
b11000111010000 >
b11000111010000 Z
b11000111010000 [
b11000111001100 =
b11000111001100 V
b11000111001100 Y
b11000111001100 \
1!
#9240
0!
#9280
b11000111010100 >
b11000111010100 Z
b11000111010100 [
b11000111010000 =
b11000111010000 V
b11000111010000 Y
b11000111010000 \
1!
#9320
0!
#9360
b11000111011000 >
b11000111011000 Z
b11000111011000 [
b11000111010100 =
b11000111010100 V
b11000111010100 Y
b11000111010100 \
1!
#9400
0!
#9440
b11000111011100 >
b11000111011100 Z
b11000111011100 [
b11000111011000 =
b11000111011000 V
b11000111011000 Y
b11000111011000 \
1!
#9480
0!
#9520
b11000111100000 >
b11000111100000 Z
b11000111100000 [
b11000111011100 =
b11000111011100 V
b11000111011100 Y
b11000111011100 \
1!
#9560
0!
#9600
b11000111100100 >
b11000111100100 Z
b11000111100100 [
b11000111100000 =
b11000111100000 V
b11000111100000 Y
b11000111100000 \
1!
#9640
0!
#9680
b11000111101000 >
b11000111101000 Z
b11000111101000 [
b11000111100100 =
b11000111100100 V
b11000111100100 Y
b11000111100100 \
1!
#9720
0!
#9760
b11000111101100 >
b11000111101100 Z
b11000111101100 [
b11000111101000 =
b11000111101000 V
b11000111101000 Y
b11000111101000 \
1!
#9800
0!
#9840
b11000111110000 >
b11000111110000 Z
b11000111110000 [
b11000111101100 =
b11000111101100 V
b11000111101100 Y
b11000111101100 \
1!
#9880
0!
#9920
b11000111110100 >
b11000111110100 Z
b11000111110100 [
b11000111110000 =
b11000111110000 V
b11000111110000 Y
b11000111110000 \
1!
#9960
0!
#10000
b11000111111000 >
b11000111111000 Z
b11000111111000 [
b11000111110100 =
b11000111110100 V
b11000111110100 Y
b11000111110100 \
1!
#10040
0!
#10080
b11000111111100 >
b11000111111100 Z
b11000111111100 [
b11000111111000 =
b11000111111000 V
b11000111111000 Y
b11000111111000 \
1!
#10120
0!
#10160
b11001000000000 >
b11001000000000 Z
b11001000000000 [
b11000111111100 =
b11000111111100 V
b11000111111100 Y
b11000111111100 \
1!
#10200
0!
#10240
b11001000000100 >
b11001000000100 Z
b11001000000100 [
b11001000000000 =
b11001000000000 V
b11001000000000 Y
b11001000000000 \
1!
#10280
0!
#10320
b11001000001000 >
b11001000001000 Z
b11001000001000 [
b11001000000100 =
b11001000000100 V
b11001000000100 Y
b11001000000100 \
1!
#10360
0!
#10400
b11001000001100 >
b11001000001100 Z
b11001000001100 [
b11001000001000 =
b11001000001000 V
b11001000001000 Y
b11001000001000 \
1!
#10440
0!
#10480
b11001000010000 >
b11001000010000 Z
b11001000010000 [
b11001000001100 =
b11001000001100 V
b11001000001100 Y
b11001000001100 \
1!
#10520
0!
#10560
b11001000010100 >
b11001000010100 Z
b11001000010100 [
b11001000010000 =
b11001000010000 V
b11001000010000 Y
b11001000010000 \
1!
#10600
0!
#10640
b11001000011000 >
b11001000011000 Z
b11001000011000 [
b11001000010100 =
b11001000010100 V
b11001000010100 Y
b11001000010100 \
1!
#10680
0!
#10720
b11001000011100 >
b11001000011100 Z
b11001000011100 [
b11001000011000 =
b11001000011000 V
b11001000011000 Y
b11001000011000 \
1!
#10760
0!
#10800
b11001000100000 >
b11001000100000 Z
b11001000100000 [
b11001000011100 =
b11001000011100 V
b11001000011100 Y
b11001000011100 \
1!
#10840
0!
#10880
b11001000100100 >
b11001000100100 Z
b11001000100100 [
b11001000100000 =
b11001000100000 V
b11001000100000 Y
b11001000100000 \
1!
#10920
0!
#10960
b11001000101000 >
b11001000101000 Z
b11001000101000 [
b11001000100100 =
b11001000100100 V
b11001000100100 Y
b11001000100100 \
1!
#11000
0!
#11040
b11001000101100 >
b11001000101100 Z
b11001000101100 [
b11001000101000 =
b11001000101000 V
b11001000101000 Y
b11001000101000 \
1!
#11080
0!
#11120
b11001000110000 >
b11001000110000 Z
b11001000110000 [
b11001000101100 =
b11001000101100 V
b11001000101100 Y
b11001000101100 \
1!
#11160
0!
#11200
b11001000110100 >
b11001000110100 Z
b11001000110100 [
b11001000110000 =
b11001000110000 V
b11001000110000 Y
b11001000110000 \
1!
#11240
0!
#11280
b11001000111000 >
b11001000111000 Z
b11001000111000 [
b11001000110100 =
b11001000110100 V
b11001000110100 Y
b11001000110100 \
1!
#11320
0!
#11360
b11001000111100 >
b11001000111100 Z
b11001000111100 [
b11001000111000 =
b11001000111000 V
b11001000111000 Y
b11001000111000 \
1!
#11400
0!
#11440
b11001001000000 >
b11001001000000 Z
b11001001000000 [
b11001000111100 =
b11001000111100 V
b11001000111100 Y
b11001000111100 \
1!
#11480
0!
#11520
b11001001000100 >
b11001001000100 Z
b11001001000100 [
b11001001000000 =
b11001001000000 V
b11001001000000 Y
b11001001000000 \
1!
#11560
0!
#11600
b11001001001000 >
b11001001001000 Z
b11001001001000 [
b11001001000100 =
b11001001000100 V
b11001001000100 Y
b11001001000100 \
1!
#11640
0!
#11680
b11001001001100 >
b11001001001100 Z
b11001001001100 [
b11001001001000 =
b11001001001000 V
b11001001001000 Y
b11001001001000 \
1!
#11720
0!
#11760
b11001001010000 >
b11001001010000 Z
b11001001010000 [
b11001001001100 =
b11001001001100 V
b11001001001100 Y
b11001001001100 \
1!
#11800
0!
#11840
b11001001010100 >
b11001001010100 Z
b11001001010100 [
b11001001010000 =
b11001001010000 V
b11001001010000 Y
b11001001010000 \
1!
#11880
0!
#11920
b11001001011000 >
b11001001011000 Z
b11001001011000 [
b11001001010100 =
b11001001010100 V
b11001001010100 Y
b11001001010100 \
1!
#11960
0!
#12000
b11001001011100 >
b11001001011100 Z
b11001001011100 [
b11001001011000 =
b11001001011000 V
b11001001011000 Y
b11001001011000 \
1!
#12040
0!
#12080
b11001001100000 >
b11001001100000 Z
b11001001100000 [
b11001001011100 =
b11001001011100 V
b11001001011100 Y
b11001001011100 \
1!
#12120
0!
#12160
b11001001100100 >
b11001001100100 Z
b11001001100100 [
b11001001100000 =
b11001001100000 V
b11001001100000 Y
b11001001100000 \
1!
#12200
0!
#12240
b11001001101000 >
b11001001101000 Z
b11001001101000 [
b11001001100100 =
b11001001100100 V
b11001001100100 Y
b11001001100100 \
1!
#12280
0!
#12320
b11001001101100 >
b11001001101100 Z
b11001001101100 [
b11001001101000 =
b11001001101000 V
b11001001101000 Y
b11001001101000 \
1!
#12360
0!
#12400
b11001001110000 >
b11001001110000 Z
b11001001110000 [
b11001001101100 =
b11001001101100 V
b11001001101100 Y
b11001001101100 \
1!
#12440
0!
#12480
b11001001110100 >
b11001001110100 Z
b11001001110100 [
b11001001110000 =
b11001001110000 V
b11001001110000 Y
b11001001110000 \
1!
#12520
0!
#12560
b11001001111000 >
b11001001111000 Z
b11001001111000 [
b11001001110100 =
b11001001110100 V
b11001001110100 Y
b11001001110100 \
1!
#12600
0!
#12640
b11001001111100 >
b11001001111100 Z
b11001001111100 [
b11001001111000 =
b11001001111000 V
b11001001111000 Y
b11001001111000 \
1!
#12680
0!
