multistage_pipeline/wave.vcd
$date
	Tue May 11 21:11:01 2021
$end
$version
	Icarus Verilog
$end
$timescale
	10ns
$end
$scope module test $end
$var reg 1 ! clock $end
$var reg 1 " reset $end
$scope module MIPS $end
$var wire 32 # ID_EX_im_out [31:0] $end
$var wire 1 ! clock $end
$var wire 1 " reset $end
$var wire 1 $ RegWrite $end
$var wire 1 % RegDst $end
$var wire 1 & PctoReg $end
$var wire 1 ' MemtoReg $end
$var wire 1 ( MemWrite $end
$var wire 2 ) LS_bit [1:0] $end
$var wire 1 * Jump $end
$var wire 1 + Ext_op $end
$var wire 2 , Branch [1:0] $end
$var wire 1 - ALUSrc $end
$var wire 4 . ALUOp [3:0] $end
$scope module Controller $end
$var wire 6 / opcode [5:0] $end
$var reg 4 0 ALUOp [3:0] $end
$var reg 1 - ALUSrc $end
$var reg 2 1 Branch [1:0] $end
$var reg 1 + Ext_op $end
$var reg 1 * Jump $end
$var reg 2 2 LS_bit [1:0] $end
$var reg 1 ( MemWrite $end
$var reg 1 ' MemtoReg $end
$var reg 1 & PctoReg $end
$var reg 1 % RegDst $end
$var reg 1 $ RegWrite $end
$upscope $end
$scope module DataPath $end
$var wire 4 3 ALUOp [3:0] $end
$var wire 1 - ALUSrc $end
$var wire 2 4 Branch [1:0] $end
$var wire 1 + Ext_op $end
$var wire 32 5 ID_EX_im_out [31:0] $end
$var wire 1 * Jump $end
$var wire 2 6 LS_bit [1:0] $end
$var wire 1 ( MemWrite $end
$var wire 1 ' MemtoReg $end
$var wire 1 & PctoReg $end
$var wire 1 % RegDst $end
$var wire 1 $ RegWrite $end
$var wire 1 ! clock $end
$var wire 1 " reset $end
$var wire 1 7 zero $end
$var wire 32 8 regfile_out2 [31:0] $end
$var wire 32 9 regfile_out1 [31:0] $end
$var wire 32 : pc_add_out [31:0] $end
$var wire 32 ; mux6_out [31:0] $end
$var wire 5 < mux5_out [4:0] $end
$var wire 32 = mux4_out [31:0] $end
$var wire 32 > mux3_out [31:0] $end
$var wire 32 ? mux2_out [31:0] $end
$var wire 5 @ mux1_out [4:0] $end
$var wire 32 A instruction [31:0] $end
$var wire 32 B ext_out [31:0] $end
$var wire 32 C dm_out [31:0] $end
$var wire 32 D branch_add_out [31:0] $end
$var wire 32 E alu_out [31:0] $end
$var wire 4 F alu_ctrl_out [3:0] $end
$var wire 32 G PC [31:0] $end
$var wire 32 H NPC [31:0] $end
$var wire 32 I MEM_WB_pc_add_out [31:0] $end
$var wire 5 J MEM_WB_mux1_out [4:0] $end
$var wire 32 K MEM_WB_dm_out [31:0] $end
$var wire 32 L MEM_WB_alu_out [31:0] $end
$var wire 1 M MEM_WB_RegWrite $end
$var wire 1 N MEM_WB_PctoReg $end
$var wire 1 O MEM_WB_MemtoReg $end
$var wire 32 P IF_ID_pc_add_out [31:0] $end
$var wire 32 Q IF_ID_im_out [31:0] $end
$var wire 32 R ID_EX_regfile_out2 [31:0] $end
$var wire 32 S ID_EX_regfile_out1 [31:0] $end
$var wire 32 T ID_EX_pc_add_out [31:0] $end
$var wire 26 U ID_EX_instr26 [25:0] $end
$var wire 1 V ID_EX_RegWrite $end
$var wire 1 W ID_EX_RegDst $end
$var wire 1 X ID_EX_PctoReg $end
$var wire 1 Y ID_EX_MemtoReg $end
$var wire 1 Z ID_EX_MemWrite $end
$var wire 2 [ ID_EX_LS_bit [1:0] $end
$var wire 1 \ ID_EX_Jump $end
$var wire 1 ] ID_EX_Ext_op $end
$var wire 2 ^ ID_EX_Branch [1:0] $end
$var wire 1 _ ID_EX_ALUSrc $end
$var wire 4 ` ID_EX_ALUOp [3:0] $end
$var wire 1 a EX_MEM_zero $end
$var wire 32 b EX_MEM_regfile_out2 [31:0] $end
$var wire 32 c EX_MEM_pc_add_out [31:0] $end
$var wire 5 d EX_MEM_mux1_out [4:0] $end
$var wire 26 e EX_MEM_instr26 [25:0] $end
$var wire 32 f EX_MEM_branch_add_out [31:0] $end
$var wire 32 g EX_MEM_alu_out [31:0] $end
$var wire 1 h EX_MEM_RegWrite $end
$var wire 1 i EX_MEM_PctoReg $end
$var wire 1 j EX_MEM_MemtoReg $end
$var wire 1 k EX_MEM_MemWrite $end
$var wire 2 l EX_MEM_LS_bit [1:0] $end
$var wire 1 m EX_MEM_Jump $end
$var wire 1 n EX_MEM_Ext_op $end
$var wire 2 o EX_MEM_Branch [1:0] $end
$scope module u_EX_MEM $end
$var wire 2 p LS_bit [1:0] $end
$var wire 1 ! clock $end
$var wire 1 " reset $end
$var wire 1 7 zero $end
$var wire 5 q mux1_out [4:0] $end
$var wire 32 r branch_add_out [31:0] $end
$var wire 32 s alu_out [31:0] $end
$var wire 1 V RegWrite $end
$var wire 1 X PctoReg $end
$var wire 1 Y MemtoReg $end
$var wire 1 Z MemWrite $end
$var wire 1 \ Jump $end
$var wire 32 t ID_EX_regfile_out2 [31:0] $end
$var wire 32 u ID_EX_pc_add_out [31:0] $end
$var wire 26 v ID_EX_instr26 [25:0] $end
$var wire 1 ] Ext_op $end
$var wire 2 w Branch [1:0] $end
$var reg 2 x EX_MEM_Branch [1:0] $end
$var reg 1 n EX_MEM_Ext_op $end
$var reg 1 m EX_MEM_Jump $end
$var reg 2 y EX_MEM_LS_bit [1:0] $end
$var reg 1 k EX_MEM_MemWrite $end
$var reg 1 j EX_MEM_MemtoReg $end
$var reg 1 i EX_MEM_PctoReg $end
$var reg 1 h EX_MEM_RegWrite $end
$var reg 32 z EX_MEM_alu_out [31:0] $end
$var reg 32 { EX_MEM_branch_add_out [31:0] $end
$var reg 26 | EX_MEM_instr26 [25:0] $end
$var reg 5 } EX_MEM_mux1_out [4:0] $end
$var reg 32 ~ EX_MEM_pc_add_out [31:0] $end
$var reg 32 !" EX_MEM_regfile_out2 [31:0] $end
$var reg 1 a EX_MEM_zero $end
$upscope $end
$scope module u_Ext $end
$var wire 16 "" input_num [15:0] $end
$var wire 1 ] Ext_op $end
$var reg 32 #" output_num [31:0] $end
$upscope $end
$scope module u_ID_EX $end
$var wire 4 $" ALUOp [3:0] $end
$var wire 1 %" ALUSrc $end
$var wire 2 &" Branch [1:0] $end
$var wire 1 + Ext_op $end
$var wire 1 * Jump $end
$var wire 2 '" LS_bit [1:0] $end
$var wire 1 ( MemWrite $end
$var wire 1 ' MemtoReg $end
$var wire 1 & PctoReg $end
$var wire 1 % RegDst $end
$var wire 1 (" RegWrite $end
$var wire 1 ! clock $end
$var wire 26 )" instr26 [25:0] $end
$var wire 1 " reset $end
$var wire 32 *" regfile_out2 [31:0] $end
$var wire 32 +" regfile_out1 [31:0] $end
$var wire 32 ," IF_ID_pc_add_out [31:0] $end
$var reg 4 -" ID_EX_ALUOp [3:0] $end
$var reg 1 _ ID_EX_ALUSrc $end
$var reg 2 ." ID_EX_Branch [1:0] $end
$var reg 1 ] ID_EX_Ext_op $end
$var reg 1 \ ID_EX_Jump $end
$var reg 2 /" ID_EX_LS_bit [1:0] $end
$var reg 1 Z ID_EX_MemWrite $end
$var reg 1 Y ID_EX_MemtoReg $end
$var reg 1 X ID_EX_PctoReg $end
$var reg 1 W ID_EX_RegDst $end
$var reg 1 V ID_EX_RegWrite $end
$var reg 26 0" ID_EX_instr26 [25:0] $end
$var reg 32 1" ID_EX_pc_add_out [31:0] $end
$var reg 32 2" ID_EX_regfile_out1 [31:0] $end
$var reg 32 3" ID_EX_regfile_out2 [31:0] $end
$upscope $end
$scope module u_IF_ID $end
$var wire 1 ! clock $end
$var wire 32 4" pc_add_out [31:0] $end
$var wire 32 5" im_out [31:0] $end
$var reg 32 6" IF_ID_im_out [31:0] $end
$var reg 32 7" IF_ID_pc_add_out [31:0] $end
$upscope $end
$scope module u_MEM_WB $end
$var wire 32 8" EX_MEM_alu_out [31:0] $end
$var wire 5 9" EX_MEM_mux1_out [4:0] $end
$var wire 32 :" EX_MEM_pc_add_out [31:0] $end
$var wire 1 j MemtoReg $end
$var wire 1 i PctoReg $end
$var wire 1 h RegWrite $end
$var wire 1 ! clock $end
$var wire 1 " reset $end
$var wire 32 ;" dm_out [31:0] $end
$var reg 1 O MEM_WB_MemtoReg $end
$var reg 1 N MEM_WB_PctoReg $end
$var reg 1 M MEM_WB_RegWrite $end
$var reg 32 <" MEM_WB_alu_out [31:0] $end
$var reg 32 =" MEM_WB_dm_out [31:0] $end
$var reg 5 >" MEM_WB_mux1_out [4:0] $end
$var reg 32 ?" MEM_WB_pc_add_out [31:0] $end
$upscope $end
$scope module u_alu $end
$var wire 32 @" op_num1 [31:0] $end
$var wire 5 A" shamt [4:0] $end
$var wire 1 7 zero $end
$var wire 32 B" op_num2 [31:0] $end
$var wire 4 C" alu_ctrl_out [3:0] $end
$var reg 32 D" alu_out [31:0] $end
$upscope $end
$scope module u_alu_ctrl $end
$var wire 4 E" ALUOp [3:0] $end
$var wire 6 F" funct [5:0] $end
$var reg 4 G" alu_ctrl_out [3:0] $end
$upscope $end
$scope module u_branch_add $end
$var wire 32 H" Ext_out [31:0] $end
$var wire 32 I" ID_EX_pc_add_out [31:0] $end
$var wire 32 J" branch_add_out [31:0] $end
$upscope $end
$scope module u_dm_4k $end
$var wire 32 K" EX_MEM_alu_out [31:0] $end
$var wire 32 L" EX_MEM_regfile_out2 [31:0] $end
$var wire 1 n Ext_op $end
$var wire 2 M" LS_bit [1:0] $end
$var wire 1 k MemWrite $end
$var wire 1 ! clock $end
$var reg 32 N" dm_out [31:0] $end
$var reg 16 O" temp [15:0] $end
$upscope $end
$scope module u_im_4k $end
$var wire 32 P" out_instr [31:0] $end
$var wire 32 Q" pc [31:0] $end
$upscope $end
$scope module u_mux1 $end
$var wire 1 W RegDst $end
$var wire 5 R" rd [4:0] $end
$var wire 5 S" rt [4:0] $end
$var reg 5 T" DstReg [4:0] $end
$upscope $end
$scope module u_mux2 $end
$var wire 1 _ ALUSrc $end
$var wire 32 U" Ext [31:0] $end
$var wire 32 V" out2 [31:0] $end
$var reg 32 W" DstData [31:0] $end
$upscope $end
$scope module u_mux3 $end
$var wire 1 O MemtoReg $end
$var wire 32 X" alu_out [31:0] $end
$var wire 32 Y" dm_out [31:0] $end
$var reg 32 Z" mux3_out [31:0] $end
$upscope $end
$scope module u_mux4 $end
$var wire 32 [" MEM_WB_pc_add_out [31:0] $end
$var wire 1 N PctoReg $end
$var wire 32 \" mux3_out [31:0] $end
$var reg 32 ]" mux4_out [31:0] $end
$upscope $end
$scope module u_mux5 $end
$var wire 5 ^" MEM_WB_mux1_out [4:0] $end
$var wire 1 _" PctoReg $end
$var reg 5 `" mux5_out [4:0] $end
$upscope $end
$scope module u_mux6 $end
$var wire 32 a" ID_EX_pc_add_out [31:0] $end
$var wire 32 b" ID_EX_regfile_out1 [31:0] $end
$var wire 6 c" funct [5:0] $end
$var reg 32 d" mux6_out [31:0] $end
$upscope $end
$scope module u_npc $end
$var wire 32 e" EX_MEM_branch_add_out [31:0] $end
$var wire 26 f" EX_MEM_instr26 [25:0] $end
$var wire 32 g" EX_MEM_pc_add_out [31:0] $end
$var wire 1 m Jump $end
$var wire 2 h" branch [1:0] $end
$var wire 1 a zero $end
$var reg 32 i" NPC [31:0] $end
$var reg 32 j" PC [31:0] $end
$upscope $end
$scope module u_pc $end
$var wire 32 k" NPC [31:0] $end
$var wire 1 ! clock $end
$var wire 1 " reset $end
$var reg 32 l" PC [31:0] $end
$upscope $end
$scope module u_pc_add $end
$var wire 32 m" PC [31:0] $end
$var wire 32 n" pc_add_out [31:0] $end
$upscope $end
$scope module u_regfile $end
$var wire 1 M RegWrite $end
$var wire 1 ! clock $end
$var wire 32 o" data [31:0] $end
$var wire 5 p" rd [4:0] $end
$var wire 1 " reset $end
$var wire 5 q" rs [4:0] $end
$var wire 5 r" rt [4:0] $end
$var wire 32 s" regfile_out2 [31:0] $end
$var wire 32 t" regfile_out1 [31:0] $end
$var integer 32 u" i [31:0] $end
$upscope $end
$upscope $end
$upscope $end
$upscope $end
$enddefinitions $end
#0
$dumpvars
b100000 u"
bx t"
bx s"
bx r"
bx q"
bz p"
bx o"
b11000000000100 n"
b11000000000000 m"
b11000000000000 l"
bx k"
bx j"
bx i"
bx h"
bx g"
bx f"
bx e"
bx d"
bx c"
bx b"
bx a"
bz `"
z_"
bz ^"
bx ]"
bx \"
bx ["
bx Z"
bx Y"
bx X"
bx W"
bx V"
bx U"
bx T"
bx S"
bx R"
b11000000000000 Q"
b100000000100010000000000000001 P"
bx O"
bx N"
bx M"
bx L"
bx K"
bx J"
bx I"
bx H"
bx G"
bx F"
bx E"
bx D"
bx C"
bx B"
bx A"
bx @"
bx ?"
bx >"
bx ="
bx <"
bx ;"
bx :"
bx 9"
bx 8"
bx 7"
bx 6"
b100000000100010000000000000001 5"
b11000000000100 4"
bx 3"
bx 2"
bx 1"
bx 0"
bx /"
bx ."
bx -"
bx ,"
bx +"
bx *"
bx )"
z("
bx '"
bx &"
z%"
bx $"
bx #"
bx ""
bx !"
bx ~
bx }
bx |
bx {
bx z
bx y
bx x
bx w
bx v
bx u
bx t
bx s
bx r
bx q
bx p
bx o
xn
xm
bx l
xk
xj
xi
xh
bx g
bx f
bx e
bx d
bx c
bx b
xa
bx `
z_
bx ^
x]
x\
bx [
xZ
xY
xX
xW
zV
bx U
bx T
bx S
bx R
bx Q
bx P
xO
xN
xM
bx L
bx K
bx J
bx I
bx H
b11000000000000 G
bx F
bx E
bx D
bx C
bx B
b100000000100010000000000000001 A
bx @
bx ?
bx >
bx =
bz <
bx ;
b11000000000100 :
bx 9
bx 8
x7
bx 6
bz 5
bx 4
bx 3
bx 2
bx 1
bx 0
bz /
bx .
x-
bx ,
x+
x*
bx )
x(
x'
x&
x%
x$
bz #
1"
1!
$end
#10
0"
0!
#20
b0 8
b0 *"
b0 s"
b0 9
b0 +"
b0 t"
b100010000000000000001 )"
b10001 r"
b0 q"
bx A
bx 5"
bx P"
zh
b100000000100010000000000000001 Q
b100000000100010000000000000001 6"
b11000000000100 P
b11000000000100 ,"
b11000000000100 7"
bx :
bx 4"
bx n"
bx G
bx Q"
bx l"
bx m"
1!
#30
0!
#40
b10001 @
b10001 q
b10001 T"
b0 ?
b0 B"
b0 W"
b11000000000100 ;
b11000000000100 u
b11000000000100 d"
b11000000001000 D
b11000000001000 r
b11000000001000 J"
b0 A"
b1 F"
bx 8
bx *"
bx s"
bx 9
bx +"
bx t"
b1 B
b1 #"
b1 H"
b1 U"
bx )"
bx r"
bx q"
b1 c"
b1 ""
b0 R"
b10001 S"
bx Q
bx 6"
bx P
bx ,"
bx 7"
b100010000000000000001 U
b100010000000000000001 v
b100010000000000000001 0"
b11000000000100 T
b11000000000100 1"
b11000000000100 I"
b11000000000100 a"
b0 R
b0 t
b0 3"
b0 V"
b0 S
b0 2"
b0 @"
b0 b"
zM
1!
#50
0!
#60
bx @
bx q
bx T"
bx ?
bx B"
bx W"
bx ;
bx u
bx d"
bx A"
bx F"
b0xxxxxxxxxxxxxxxx B
b0xxxxxxxxxxxxxxxx #"
b0xxxxxxxxxxxxxxxx H"
b0xxxxxxxxxxxxxxxx U"
b11000000000100 H
b11000000000100 i"
b11000000000100 k"
bx c"
bx ""
bx R"
bx S"
b10001 d
b10001 }
b10001 9"
b0 b
b0 !"
b0 L"
b100010000000000000001 e
b100010000000000000001 |
b100010000000000000001 f"
b11000000000100 c
b11000000000100 ~
b11000000000100 :"
b11000000000100 g"
b11000000001000 f
b11000000001000 {
b11000000001000 e"
bx U
bx v
bx 0"
bx D
bx r
bx J"
bx T
bx 1"
bx I"
bx a"
bx R
bx t
bx 3"
bx V"
bx S
bx 2"
bx @"
bx b"
1!
#70
0!
#80
bx H
bx i"
bx k"
b100000000100100000000000000010 A
b100000000100100000000000000010 5"
b100000000100100000000000000010 P"
bx d
bx }
bx 9"
bx b
bx !"
bx L"
bx e
bx |
bx f"
bx c
bx ~
bx :"
bx g"
bx f
bx {
bx e"
b10001 J
b10001 >"
b11000000000100 I
b11000000000100 ?"
b11000000000100 ["
b11000000001000 :
b11000000001000 4"
b11000000001000 n"
b11000000000100 G
b11000000000100 Q"
b11000000000100 l"
b11000000000100 m"
1!
#90
0!
#100
b0 8
b0 *"
b0 s"
b0 9
b0 +"
b0 t"
b100100000000000000010 )"
b10010 r"
b0 q"
bx A
bx 5"
bx P"
bx J
bx >"
bx I
bx ?"
bx ["
b100000000100100000000000000010 Q
b100000000100100000000000000010 6"
b11000000001000 P
b11000000001000 ,"
b11000000001000 7"
bx :
bx 4"
bx n"
bx G
bx Q"
bx l"
bx m"
1!
#110
0!
#120
b10010 @
b10010 q
b10010 T"
b0 ?
b0 B"
b0 W"
b11000000001000 ;
b11000000001000 u
b11000000001000 d"
b11000000010000 D
b11000000010000 r
b11000000010000 J"
b0 A"
b10 F"
bx 8
bx *"
bx s"
bx 9
bx +"
bx t"
b10 B
b10 #"
b10 H"
b10 U"
bx )"
bx r"
bx q"
b10 c"
b10 ""
b0 R"
b10010 S"
bx Q
bx 6"
bx P
bx ,"
bx 7"
b100100000000000000010 U
b100100000000000000010 v
b100100000000000000010 0"
b11000000001000 T
b11000000001000 1"
b11000000001000 I"
b11000000001000 a"
b0 R
b0 t
b0 3"
b0 V"
b0 S
b0 2"
b0 @"
b0 b"
1!
#130
0!
#140
bx @
bx q
bx T"
bx ?
bx B"
bx W"
bx ;
bx u
bx d"
bx A"
bx F"
b0xxxxxxxxxxxxxxxx B
b0xxxxxxxxxxxxxxxx #"
b0xxxxxxxxxxxxxxxx H"
b0xxxxxxxxxxxxxxxx U"
b11000000001000 H
b11000000001000 i"
b11000000001000 k"
bx c"
bx ""
bx R"
bx S"
b10010 d
b10010 }
b10010 9"
b0 b
b0 !"
b0 L"
b100100000000000000010 e
b100100000000000000010 |
b100100000000000000010 f"
b11000000001000 c
b11000000001000 ~
b11000000001000 :"
b11000000001000 g"
b11000000010000 f
b11000000010000 {
b11000000010000 e"
bx U
bx v
bx 0"
bx D
bx r
bx J"
bx T
bx 1"
bx I"
bx a"
bx R
bx t
bx 3"
bx V"
bx S
bx 2"
bx @"
bx b"
1!
#150
0!
#160
bx H
bx i"
bx k"
b100000000100010000000000000011 A
b100000000100010000000000000011 5"
b100000000100010000000000000011 P"
bx d
bx }
bx 9"
bx b
bx !"
bx L"
bx e
bx |
bx f"
bx c
bx ~
bx :"
bx g"
bx f
bx {
bx e"
b10010 J
b10010 >"
b11000000001000 I
b11000000001000 ?"
b11000000001000 ["
b11000000001100 :
b11000000001100 4"
b11000000001100 n"
b11000000001000 G
b11000000001000 Q"
b11000000001000 l"
b11000000001000 m"
1!
#170
0!
#180
b0 8
b0 *"
b0 s"
b0 9
b0 +"
b0 t"
b100010000000000000011 )"
b10001 r"
b0 q"
bx A
bx 5"
bx P"
bx J
bx >"
bx I
bx ?"
bx ["
b100000000100010000000000000011 Q
b100000000100010000000000000011 6"
b11000000001100 P
b11000000001100 ,"
b11000000001100 7"
bx :
bx 4"
bx n"
bx G
bx Q"
bx l"
bx m"
1!
#190
0!
#200
b10001 @
b10001 q
b10001 T"
b0 ?
b0 B"
b0 W"
b11000000001100 ;
b11000000001100 u
b11000000001100 d"
b11000000011000 D
b11000000011000 r
b11000000011000 J"
b0 A"
b11 F"
bx 8
bx *"
bx s"
bx 9
bx +"
bx t"
b11 B
b11 #"
b11 H"
b11 U"
bx )"
bx r"
bx q"
b11 c"
b11 ""
b0 R"
b10001 S"
bx Q
bx 6"
bx P
bx ,"
bx 7"
b100010000000000000011 U
b100010000000000000011 v
b100010000000000000011 0"
b11000000001100 T
b11000000001100 1"
b11000000001100 I"
b11000000001100 a"
b0 R
b0 t
b0 3"
b0 V"
b0 S
b0 2"
b0 @"
b0 b"
1!
#210
0!
#220
bx @
bx q
bx T"
bx ?
bx B"
bx W"
bx ;
bx u
bx d"
bx A"
bx F"
b0xxxxxxxxxxxxxxxx B
b0xxxxxxxxxxxxxxxx #"
b0xxxxxxxxxxxxxxxx H"
b0xxxxxxxxxxxxxxxx U"
b11000000001100 H
b11000000001100 i"
b11000000001100 k"
bx c"
bx ""
bx R"
bx S"
b10001 d
b10001 }
b10001 9"
b0 b
b0 !"
b0 L"
b100010000000000000011 e
b100010000000000000011 |
b100010000000000000011 f"
b11000000001100 c
b11000000001100 ~
b11000000001100 :"
b11000000001100 g"
b11000000011000 f
b11000000011000 {
b11000000011000 e"
bx U
bx v
bx 0"
bx D
bx r
bx J"
bx T
bx 1"
bx I"
bx a"
bx R
bx t
bx 3"
bx V"
bx S
bx 2"
bx @"
bx b"
1!
#230
0!
#240
bx H
bx i"
bx k"
b100000000100100000000000000100 A
b100000000100100000000000000100 5"
b100000000100100000000000000100 P"
bx d
bx }
bx 9"
bx b
bx !"
bx L"
bx e
bx |
bx f"
bx c
bx ~
bx :"
bx g"
bx f
bx {
bx e"
b10001 J
b10001 >"
b11000000001100 I
b11000000001100 ?"
b11000000001100 ["
b11000000010000 :
b11000000010000 4"
b11000000010000 n"
b11000000001100 G
b11000000001100 Q"
b11000000001100 l"
b11000000001100 m"
1!
#250
0!
#260
b0 8
b0 *"
b0 s"
b0 9
b0 +"
b0 t"
b100100000000000000100 )"
b10010 r"
b0 q"
bx A
bx 5"
bx P"
bx J
bx >"
bx I
bx ?"
bx ["
b100000000100100000000000000100 Q
b100000000100100000000000000100 6"
b11000000010000 P
b11000000010000 ,"
b11000000010000 7"
bx :
bx 4"
bx n"
bx G
bx Q"
bx l"
bx m"
1!
#270
0!
#280
b10010 @
b10010 q
b10010 T"
b0 ?
b0 B"
b0 W"
b11000000010000 ;
b11000000010000 u
b11000000010000 d"
b11000000100000 D
b11000000100000 r
b11000000100000 J"
b0 A"
b100 F"
bx 8
bx *"
bx s"
bx 9
bx +"
bx t"
b100 B
b100 #"
b100 H"
b100 U"
bx )"
bx r"
bx q"
b100 c"
b100 ""
b0 R"
b10010 S"
bx Q
bx 6"
bx P
bx ,"
bx 7"
b100100000000000000100 U
b100100000000000000100 v
b100100000000000000100 0"
b11000000010000 T
b11000000010000 1"
b11000000010000 I"
b11000000010000 a"
b0 R
b0 t
b0 3"
b0 V"
b0 S
b0 2"
b0 @"
b0 b"
1!
#290
0!
#300
bx @
bx q
bx T"
bx ?
bx B"
bx W"
bx ;
bx u
bx d"
bx A"
bx F"
b0xxxxxxxxxxxxxxxx B
b0xxxxxxxxxxxxxxxx #"
b0xxxxxxxxxxxxxxxx H"
b0xxxxxxxxxxxxxxxx U"
b11000000010000 H
b11000000010000 i"
b11000000010000 k"
bx c"
bx ""
bx R"
bx S"
b10010 d
b10010 }
b10010 9"
b0 b
b0 !"
b0 L"
b100100000000000000100 e
b100100000000000000100 |
b100100000000000000100 f"
b11000000010000 c
b11000000010000 ~
b11000000010000 :"
b11000000010000 g"
b11000000100000 f
b11000000100000 {
b11000000100000 e"
bx U
bx v
bx 0"
bx D
bx r
bx J"
bx T
bx 1"
bx I"
bx a"
bx R
bx t
bx 3"
bx V"
bx S
bx 2"
bx @"
bx b"
1!
#310
0!
#320
bx H
bx i"
bx k"
b100100000100010000000000000101 A
b100100000100010000000000000101 5"
b100100000100010000000000000101 P"
bx d
bx }
bx 9"
bx b
bx !"
bx L"
bx e
bx |
bx f"
bx c
bx ~
bx :"
bx g"
bx f
bx {
bx e"
b10010 J
b10010 >"
b11000000010000 I
b11000000010000 ?"
b11000000010000 ["
b11000000010100 :
b11000000010100 4"
b11000000010100 n"
b11000000010000 G
b11000000010000 Q"
b11000000010000 l"
b11000000010000 m"
1!
#330
0!
#340
b0 8
b0 *"
b0 s"
b0 9
b0 +"
b0 t"
b100010000000000000101 )"
b10001 r"
b0 q"
bx A
bx 5"
bx P"
bx J
bx >"
bx I
bx ?"
bx ["
b100100000100010000000000000101 Q
b100100000100010000000000000101 6"
b11000000010100 P
b11000000010100 ,"
b11000000010100 7"
bx :
bx 4"
bx n"
bx G
bx Q"
bx l"
bx m"
1!
#350
0!
#360
b10001 @
b10001 q
b10001 T"
b0 ?
b0 B"
b0 W"
b11000000010100 ;
b11000000010100 u
b11000000010100 d"
b11000000101000 D
b11000000101000 r
b11000000101000 J"
b0 A"
b101 F"
bx 8
bx *"
bx s"
bx 9
bx +"
bx t"
b101 B
b101 #"
b101 H"
b101 U"
bx )"
bx r"
bx q"
b101 c"
b101 ""
b0 R"
b10001 S"
bx Q
bx 6"
bx P
bx ,"
bx 7"
b100010000000000000101 U
b100010000000000000101 v
b100010000000000000101 0"
b11000000010100 T
b11000000010100 1"
b11000000010100 I"
b11000000010100 a"
b0 R
b0 t
b0 3"
b0 V"
b0 S
b0 2"
b0 @"
b0 b"
1!
#370
0!
#380
bx @
bx q
bx T"
bx ?
bx B"
bx W"
bx ;
bx u
bx d"
bx A"
bx F"
b0xxxxxxxxxxxxxxxx B
b0xxxxxxxxxxxxxxxx #"
b0xxxxxxxxxxxxxxxx H"
b0xxxxxxxxxxxxxxxx U"
b11000000010100 H
b11000000010100 i"
b11000000010100 k"
bx c"
bx ""
bx R"
bx S"
b10001 d
b10001 }
b10001 9"
b0 b
b0 !"
b0 L"
b100010000000000000101 e
b100010000000000000101 |
b100010000000000000101 f"
b11000000010100 c
b11000000010100 ~
b11000000010100 :"
b11000000010100 g"
b11000000101000 f
b11000000101000 {
b11000000101000 e"
bx U
bx v
bx 0"
bx D
bx r
bx J"
bx T
bx 1"
bx I"
bx a"
bx R
bx t
bx 3"
bx V"
bx S
bx 2"
bx @"
bx b"
1!
#390
0!
#400
bx H
bx i"
bx k"
b100100000100100000000000000110 A
b100100000100100000000000000110 5"
b100100000100100000000000000110 P"
bx d
bx }
bx 9"
bx b
bx !"
bx L"
bx e
bx |
bx f"
bx c
bx ~
bx :"
bx g"
bx f
bx {
bx e"
b10001 J
b10001 >"
b11000000010100 I
b11000000010100 ?"
b11000000010100 ["
b11000000011000 :
b11000000011000 4"
b11000000011000 n"
b11000000010100 G
b11000000010100 Q"
b11000000010100 l"
b11000000010100 m"
1!
#410
0!
#420
b0 8
b0 *"
b0 s"
b0 9
b0 +"
b0 t"
b100100000000000000110 )"
b10010 r"
b0 q"
bx A
bx 5"
bx P"
bx J
bx >"
bx I
bx ?"
bx ["
b100100000100100000000000000110 Q
b100100000100100000000000000110 6"
b11000000011000 P
b11000000011000 ,"
b11000000011000 7"
bx :
bx 4"
bx n"
bx G
bx Q"
bx l"
bx m"
1!
#430
0!
#440
b10010 @
b10010 q
b10010 T"
b0 ?
b0 B"
b0 W"
b11000000011000 ;
b11000000011000 u
b11000000011000 d"
b11000000110000 D
b11000000110000 r
b11000000110000 J"
b0 A"
b110 F"
bx 8
bx *"
bx s"
bx 9
bx +"
bx t"
b110 B
b110 #"
b110 H"
b110 U"
bx )"
bx r"
bx q"
b110 c"
b110 ""
b0 R"
b10010 S"
bx Q
bx 6"
bx P
bx ,"
bx 7"
b100100000000000000110 U
b100100000000000000110 v
b100100000000000000110 0"
b11000000011000 T
b11000000011000 1"
b11000000011000 I"
b11000000011000 a"
b0 R
b0 t
b0 3"
b0 V"
b0 S
b0 2"
b0 @"
b0 b"
1!
#450
0!
#460
bx @
bx q
bx T"
bx ?
bx B"
bx W"
bx ;
bx u
bx d"
bx A"
bx F"
b0xxxxxxxxxxxxxxxx B
b0xxxxxxxxxxxxxxxx #"
b0xxxxxxxxxxxxxxxx H"
b0xxxxxxxxxxxxxxxx U"
b11000000011000 H
b11000000011000 i"
b11000000011000 k"
bx c"
bx ""
bx R"
bx S"
b10010 d
b10010 }
b10010 9"
b0 b
b0 !"
b0 L"
b100100000000000000110 e
b100100000000000000110 |
b100100000000000000110 f"
b11000000011000 c
b11000000011000 ~
b11000000011000 :"
b11000000011000 g"
b11000000110000 f
b11000000110000 {
b11000000110000 e"
bx U
bx v
bx 0"
bx D
bx r
bx J"
bx T
bx 1"
bx I"
bx a"
bx R
bx t
bx 3"
bx V"
bx S
bx 2"
bx @"
bx b"
1!
#470
0!
#480
bx H
bx i"
bx k"
b10001100101001100000100000 A
b10001100101001100000100000 5"
b10001100101001100000100000 P"
bx d
bx }
bx 9"
bx b
bx !"
bx L"
bx e
bx |
bx f"
bx c
bx ~
bx :"
bx g"
bx f
bx {
bx e"
b10010 J
b10010 >"
b11000000011000 I
b11000000011000 ?"
b11000000011000 ["
b11000000011100 :
b11000000011100 4"
b11000000011100 n"
b11000000011000 G
b11000000011000 Q"
b11000000011000 l"
b11000000011000 m"
1!
#490
0!
#500
b0 8
b0 *"
b0 s"
b0 9
b0 +"
b0 t"
b10001100101001100000100000 )"
b10010 r"
b10001 q"
bx A
bx 5"
bx P"
bx J
bx >"
bx I
bx ?"
bx ["
b10001100101001100000100000 Q
b10001100101001100000100000 6"
b11000000011100 P
b11000000011100 ,"
b11000000011100 7"
bx :
bx 4"
bx n"
bx G
bx Q"
bx l"
bx m"
1!
#510
0!
#520
b10010 @
b10010 q
b10010 T"
b0 ?
b0 B"
b0 W"
b11000000011100 ;
b11000000011100 u
b11000000011100 d"
b101001000010011100 D
b101001000010011100 r
b101001000010011100 J"
b0 A"
b100000 F"
bx 8
bx *"
bx s"
bx 9
bx +"
bx t"
b1001100000100000 B
b1001100000100000 #"
b1001100000100000 H"
b1001100000100000 U"
bx )"
bx r"
bx q"
b100000 c"
b1001100000100000 ""
b10011 R"
b10010 S"
bx Q
bx 6"
bx P
bx ,"
bx 7"
b10001100101001100000100000 U
b10001100101001100000100000 v
b10001100101001100000100000 0"
b11000000011100 T
b11000000011100 1"
b11000000011100 I"
b11000000011100 a"
b0 R
b0 t
b0 3"
b0 V"
b0 S
b0 2"
b0 @"
b0 b"
1!
#530
0!
