multistage_pipeline/wave.vcd
$date
	Wed May 12 21:19:03 2021
$end
$version
	Icarus Verilog
$end
$timescale
	10ns
$end
$scope module test $end
$var reg 1 ! clock $end
$var reg 1 " reset $end
$scope module MIPS $end
$var wire 1 ! clock $end
$var wire 1 " reset $end
$var wire 1 # RegWrite $end
$var wire 1 $ RegDst $end
$var wire 1 % PctoReg $end
$var wire 1 & MemtoReg $end
$var wire 1 ' MemWrite $end
$var wire 2 ( LS_bit [1:0] $end
$var wire 1 ) Jump $end
$var wire 32 * IF_ID_im_out [31:0] $end
$var wire 1 + Ext_op $end
$var wire 2 , Branch [1:0] $end
$var wire 1 - ALUSrc $end
$var wire 4 . ALUOp [3:0] $end
$scope module Controller $end
$var wire 6 / opcode [5:0] $end
$var reg 4 0 ALUOp [3:0] $end
$var reg 1 - ALUSrc $end
$var reg 2 1 Branch [1:0] $end
$var reg 1 + Ext_op $end
$var reg 1 ) Jump $end
$var reg 2 2 LS_bit [1:0] $end
$var reg 1 ' MemWrite $end
$var reg 1 & MemtoReg $end
$var reg 1 % PctoReg $end
$var reg 1 $ RegDst $end
$var reg 1 # RegWrite $end
$upscope $end
$scope module DataPath $end
$var wire 4 3 ALUOp [3:0] $end
$var wire 1 - ALUSrc $end
$var wire 2 4 Branch [1:0] $end
$var wire 1 + Ext_op $end
$var wire 1 ) Jump $end
$var wire 2 5 LS_bit [1:0] $end
$var wire 1 ' MemWrite $end
$var wire 1 & MemtoReg $end
$var wire 1 % PctoReg $end
$var wire 1 $ RegDst $end
$var wire 1 # RegWrite $end
$var wire 1 ! clock $end
$var wire 1 " reset $end
$var wire 1 6 zero $end
$var wire 32 7 regfile_out2 [31:0] $end
$var wire 32 8 regfile_out1 [31:0] $end
$var wire 32 9 pc_add_out [31:0] $end
$var wire 32 : mux6_out [31:0] $end
$var wire 5 ; mux5_out [4:0] $end
$var wire 32 < mux4_out [31:0] $end
$var wire 32 = mux3_out [31:0] $end
$var wire 32 > mux2_out [31:0] $end
$var wire 5 ? mux1_out [4:0] $end
$var wire 32 @ instruction [31:0] $end
$var wire 32 A ext_out [31:0] $end
$var wire 32 B dm_out [31:0] $end
$var wire 32 C branch_add_out [31:0] $end
$var wire 32 D alu_out [31:0] $end
$var wire 4 E alu_ctrl_out [3:0] $end
$var wire 32 F PC [31:0] $end
$var wire 32 G NPC [31:0] $end
$var wire 32 H MEM_WB_pc_add_out [31:0] $end
$var wire 5 I MEM_WB_mux1_out [4:0] $end
$var wire 32 J MEM_WB_dm_out [31:0] $end
$var wire 32 K MEM_WB_alu_out [31:0] $end
$var wire 1 L MEM_WB_RegWrite $end
$var wire 1 M MEM_WB_PctoReg $end
$var wire 1 N MEM_WB_MemtoReg $end
$var wire 32 O IF_ID_pc_add_out [31:0] $end
$var wire 32 P IF_ID_im_out [31:0] $end
$var wire 32 Q ID_EX_regfile_out2 [31:0] $end
$var wire 32 R ID_EX_regfile_out1 [31:0] $end
$var wire 32 S ID_EX_pc_add_out [31:0] $end
$var wire 26 T ID_EX_instr26 [25:0] $end
$var wire 1 U ID_EX_RegWrite $end
$var wire 1 V ID_EX_RegDst $end
$var wire 1 W ID_EX_PctoReg $end
$var wire 1 X ID_EX_MemtoReg $end
$var wire 1 Y ID_EX_MemWrite $end
$var wire 2 Z ID_EX_LS_bit [1:0] $end
$var wire 1 [ ID_EX_Jump $end
$var wire 1 \ ID_EX_Ext_op $end
$var wire 2 ] ID_EX_Branch [1:0] $end
$var wire 1 ^ ID_EX_ALUSrc $end
$var wire 4 _ ID_EX_ALUOp [3:0] $end
$var wire 1 ` EX_MEM_zero $end
$var wire 32 a EX_MEM_regfile_out2 [31:0] $end
$var wire 32 b EX_MEM_pc_add_out [31:0] $end
$var wire 5 c EX_MEM_mux1_out [4:0] $end
$var wire 26 d EX_MEM_instr26 [25:0] $end
$var wire 32 e EX_MEM_branch_add_out [31:0] $end
$var wire 32 f EX_MEM_alu_out [31:0] $end
$var wire 1 g EX_MEM_RegWrite $end
$var wire 1 h EX_MEM_PctoReg $end
$var wire 1 i EX_MEM_MemtoReg $end
$var wire 1 j EX_MEM_MemWrite $end
$var wire 2 k EX_MEM_LS_bit [1:0] $end
$var wire 1 l EX_MEM_Jump $end
$var wire 1 m EX_MEM_Ext_op $end
$var wire 2 n EX_MEM_Branch [1:0] $end
$scope module u_EX_MEM $end
$var wire 2 o LS_bit [1:0] $end
$var wire 1 ! clock $end
$var wire 1 " reset $end
$var wire 1 6 zero $end
$var wire 5 p mux1_out [4:0] $end
$var wire 32 q branch_add_out [31:0] $end
$var wire 32 r alu_out [31:0] $end
$var wire 1 U RegWrite $end
$var wire 1 W PctoReg $end
$var wire 1 X MemtoReg $end
$var wire 1 Y MemWrite $end
$var wire 1 [ Jump $end
$var wire 32 s ID_EX_regfile_out2 [31:0] $end
$var wire 32 t ID_EX_pc_add_out [31:0] $end
$var wire 26 u ID_EX_instr26 [25:0] $end
$var wire 1 \ Ext_op $end
$var wire 2 v Branch [1:0] $end
$var reg 2 w EX_MEM_Branch [1:0] $end
$var reg 1 m EX_MEM_Ext_op $end
$var reg 1 l EX_MEM_Jump $end
$var reg 2 x EX_MEM_LS_bit [1:0] $end
$var reg 1 j EX_MEM_MemWrite $end
$var reg 1 i EX_MEM_MemtoReg $end
$var reg 1 h EX_MEM_PctoReg $end
$var reg 1 g EX_MEM_RegWrite $end
$var reg 32 y EX_MEM_alu_out [31:0] $end
$var reg 32 z EX_MEM_branch_add_out [31:0] $end
$var reg 26 { EX_MEM_instr26 [25:0] $end
$var reg 5 | EX_MEM_mux1_out [4:0] $end
$var reg 32 } EX_MEM_pc_add_out [31:0] $end
$var reg 32 ~ EX_MEM_regfile_out2 [31:0] $end
$var reg 1 ` EX_MEM_zero $end
$upscope $end
$scope module u_Ext $end
$var wire 16 !" input_num [15:0] $end
$var wire 1 \ Ext_op $end
$var reg 32 "" output_num [31:0] $end
$upscope $end
$scope module u_ID_EX $end
$var wire 4 #" ALUOp [3:0] $end
$var wire 1 - ALUSrc $end
$var wire 2 $" Branch [1:0] $end
$var wire 1 + Ext_op $end
$var wire 1 ) Jump $end
$var wire 2 %" LS_bit [1:0] $end
$var wire 1 ' MemWrite $end
$var wire 1 & MemtoReg $end
$var wire 1 % PctoReg $end
$var wire 1 $ RegDst $end
$var wire 1 # RegWrite $end
$var wire 1 ! clock $end
$var wire 26 &" instr26 [25:0] $end
$var wire 1 " reset $end
$var wire 32 '" regfile_out2 [31:0] $end
$var wire 32 (" regfile_out1 [31:0] $end
$var wire 32 )" IF_ID_pc_add_out [31:0] $end
$var reg 4 *" ID_EX_ALUOp [3:0] $end
$var reg 1 ^ ID_EX_ALUSrc $end
$var reg 2 +" ID_EX_Branch [1:0] $end
$var reg 1 \ ID_EX_Ext_op $end
$var reg 1 [ ID_EX_Jump $end
$var reg 2 ," ID_EX_LS_bit [1:0] $end
$var reg 1 Y ID_EX_MemWrite $end
$var reg 1 X ID_EX_MemtoReg $end
$var reg 1 W ID_EX_PctoReg $end
$var reg 1 V ID_EX_RegDst $end
$var reg 1 U ID_EX_RegWrite $end
$var reg 26 -" ID_EX_instr26 [25:0] $end
$var reg 32 ." ID_EX_pc_add_out [31:0] $end
$var reg 32 /" ID_EX_regfile_out1 [31:0] $end
$var reg 32 0" ID_EX_regfile_out2 [31:0] $end
$upscope $end
$scope module u_IF_ID $end
$var wire 1 ! clock $end
$var wire 32 1" pc_add_out [31:0] $end
$var wire 32 2" im_out [31:0] $end
$var reg 32 3" IF_ID_im_out [31:0] $end
$var reg 32 4" IF_ID_pc_add_out [31:0] $end
$upscope $end
$scope module u_MEM_WB $end
$var wire 32 5" EX_MEM_alu_out [31:0] $end
$var wire 5 6" EX_MEM_mux1_out [4:0] $end
$var wire 32 7" EX_MEM_pc_add_out [31:0] $end
$var wire 1 i MemtoReg $end
$var wire 1 h PctoReg $end
$var wire 1 g RegWrite $end
$var wire 1 ! clock $end
$var wire 1 " reset $end
$var wire 32 8" dm_out [31:0] $end
$var reg 1 N MEM_WB_MemtoReg $end
$var reg 1 M MEM_WB_PctoReg $end
$var reg 1 L MEM_WB_RegWrite $end
$var reg 32 9" MEM_WB_alu_out [31:0] $end
$var reg 32 :" MEM_WB_dm_out [31:0] $end
$var reg 5 ;" MEM_WB_mux1_out [4:0] $end
$var reg 32 <" MEM_WB_pc_add_out [31:0] $end
$upscope $end
$scope module u_alu $end
$var wire 32 =" op_num1 [31:0] $end
$var wire 5 >" shamt [4:0] $end
$var wire 1 6 zero $end
$var wire 32 ?" op_num2 [31:0] $end
$var wire 4 @" alu_ctrl_out [3:0] $end
$var reg 32 A" alu_out [31:0] $end
$upscope $end
$scope module u_alu_ctrl $end
$var wire 4 B" ALUOp [3:0] $end
$var wire 6 C" funct [5:0] $end
$var reg 4 D" alu_ctrl_out [3:0] $end
$upscope $end
$scope module u_branch_add $end
$var wire 32 E" Ext_out [31:0] $end
$var wire 32 F" ID_EX_pc_add_out [31:0] $end
$var wire 32 G" branch_add_out [31:0] $end
$upscope $end
$scope module u_dm_4k $end
$var wire 32 H" EX_MEM_alu_out [31:0] $end
$var wire 32 I" EX_MEM_regfile_out2 [31:0] $end
$var wire 1 m Ext_op $end
$var wire 2 J" LS_bit [1:0] $end
$var wire 1 j MemWrite $end
$var wire 1 ! clock $end
$var reg 32 K" dm_out [31:0] $end
$var reg 16 L" temp [15:0] $end
$upscope $end
$scope module u_im_4k $end
$var wire 32 M" out_instr [31:0] $end
$var wire 32 N" pc [31:0] $end
$upscope $end
$scope module u_mux1 $end
$var wire 1 V RegDst $end
$var wire 5 O" rd [4:0] $end
$var wire 5 P" rt [4:0] $end
$var reg 5 Q" DstReg [4:0] $end
$upscope $end
$scope module u_mux2 $end
$var wire 1 ^ ALUSrc $end
$var wire 32 R" Ext [31:0] $end
$var wire 32 S" out2 [31:0] $end
$var reg 32 T" DstData [31:0] $end
$upscope $end
$scope module u_mux3 $end
$var wire 1 N MemtoReg $end
$var wire 32 U" alu_out [31:0] $end
$var wire 32 V" dm_out [31:0] $end
$var reg 32 W" mux3_out [31:0] $end
$upscope $end
$scope module u_mux4 $end
$var wire 32 X" MEM_WB_pc_add_out [31:0] $end
$var wire 1 M PctoReg $end
$var wire 32 Y" mux3_out [31:0] $end
$var reg 32 Z" mux4_out [31:0] $end
$upscope $end
$scope module u_mux5 $end
$var wire 5 [" MEM_WB_mux1_out [4:0] $end
$var wire 1 % PctoReg $end
$var reg 5 \" mux5_out [4:0] $end
$upscope $end
$scope module u_mux6 $end
$var wire 32 ]" ID_EX_pc_add_out [31:0] $end
$var wire 32 ^" ID_EX_regfile_out1 [31:0] $end
$var wire 6 _" funct [5:0] $end
$var reg 32 `" mux6_out [31:0] $end
$upscope $end
$scope module u_npc $end
$var wire 32 a" EX_MEM_branch_add_out [31:0] $end
$var wire 26 b" EX_MEM_instr26 [25:0] $end
$var wire 1 l Jump $end
$var wire 2 c" branch [1:0] $end
$var wire 1 ` zero $end
$var wire 32 d" EX_MEM_pc_add_out [31:0] $end
$var reg 32 e" NPC [31:0] $end
$var reg 32 f" PC [31:0] $end
$upscope $end
$scope module u_pc $end
$var wire 32 g" NPC [31:0] $end
$var wire 1 ! clock $end
$var wire 1 " reset $end
$var reg 32 h" PC [31:0] $end
$upscope $end
$scope module u_pc_add $end
$var wire 32 i" PC [31:0] $end
$var wire 32 j" pc_add_out [31:0] $end
$upscope $end
$scope module u_regfile $end
$var wire 1 L RegWrite $end
$var wire 1 ! clock $end
$var wire 32 k" data [31:0] $end
$var wire 5 l" rd [4:0] $end
$var wire 1 " reset $end
$var wire 5 m" rs [4:0] $end
$var wire 5 n" rt [4:0] $end
$var wire 32 o" regfile_out2 [31:0] $end
$var wire 32 p" regfile_out1 [31:0] $end
$var integer 32 q" i [31:0] $end
$upscope $end
$upscope $end
$upscope $end
$upscope $end
$enddefinitions $end
#0
$dumpvars
b100000 q"
bx p"
bx o"
bx n"
bx m"
bx l"
bx k"
b11000000000100 j"
b11000000000000 i"
b11000000000000 h"
b11000000000100 g"
bx f"
b11000000000100 e"
b11000000000100 d"
bx c"
bx b"
bx a"
bx `"
bx _"
bx ^"
bx ]"
bx \"
bx ["
bx Z"
bx Y"
bx X"
bx W"
bx V"
bx U"
bx T"
bx S"
bx R"
bx Q"
bx P"
bx O"
b11000000000000 N"
b100000000100010000000000000001 M"
bx L"
bx K"
bx J"
bx I"
bx H"
bx G"
bx F"
bx E"
bx D"
bx C"
bx B"
bx A"
bx @"
bx ?"
bx >"
bx ="
bx <"
bx ;"
bx :"
bx 9"
bx 8"
bx 7"
bx 6"
bx 5"
bx 4"
bx 3"
b100000000100010000000000000001 2"
b11000000000100 1"
bx 0"
bx /"
bx ."
bx -"
bx ,"
bx +"
bx *"
bx )"
bx ("
bx '"
bx &"
bx %"
bx $"
bx #"
bx ""
bx !"
bx ~
bx }
bx |
bx {
bx z
bx y
bx x
bx w
bx v
bx u
bx t
bx s
bx r
bx q
bx p
bx o
bx n
xm
xl
bx k
xj
xi
xh
xg
bx f
bx e
bx d
bx c
bx b
bx a
x`
bx _
x^
bx ]
x\
x[
bx Z
xY
xX
xW
xV
xU
bx T
bx S
bx R
bx Q
bx P
bx O
xN
xM
xL
bx K
bx J
bx I
bx H
b11000000000100 G
b11000000000000 F
bx E
bx D
bx C
bx B
bx A
b100000000100010000000000000001 @
bx ?
bx >
bx =
bx <
bx ;
bx :
b11000000000100 9
bx 8
bx 7
x6
bx 5
bx 4
bx 3
bx 2
bx 1
bx 0
bx /
bx .
x-
bx ,
x+
bx *
x)
bx (
x'
x&
x%
x$
x#
1"
1!
$end
#10
0"
0!
#20
b0 7
b0 '"
b0 o"
b0 8
b0 ("
b0 p"
b0 (
b0 2
b0 5
b0 o
b0 %"
0$
b0 ,
b0 1
b0 4
b0 $"
0&
1-
b0 .
b0 0
b0 3
b0 #"
0'
1#
0)
0+
0%
b100010000000000000001 &"
b10001 n"
b0 m"
b1000 /
b11000000001000 G
b11000000001000 e"
b11000000001000 g"
b100000000100100000000000000010 @
b100000000100100000000000000010 2"
b100000000100100000000000000010 M"
b100000000100010000000000000001 *
b100000000100010000000000000001 P
b100000000100010000000000000001 3"
b11000000000100 O
b11000000000100 )"
b11000000000100 4"
b11000000001000 9
b11000000001000 1"
b11000000001000 d"
b11000000001000 j"
b11000000000100 F
b11000000000100 N"
b11000000000100 h"
b11000000000100 i"
1!
#30
0!
#40
06
b1 D
b1 r
b1 A"
b10001 ?
b10001 p
b10001 Q"
b1 >
b1 ?"
b1 T"
b11000000000100 :
b11000000000100 t
b11000000000100 `"
b11000000001000 C
b11000000001000 q
b11000000001000 G"
b0 >"
b1 C"
b100100000000000000010 &"
b10010 n"
b1 _"
b1 !"
b0 O"
b10001 P"
b1 A
b1 ""
b1 E"
b1 R"
b10 E
b10 @"
b10 D"
b11000000001100 G
b11000000001100 e"
b11000000001100 g"
b100000000100010000000000000011 @
b100000000100010000000000000011 2"
b100000000100010000000000000011 M"
b100000000100100000000000000010 *
b100000000100100000000000000010 P
b100000000100100000000000000010 3"
b11000000001000 O
b11000000001000 )"
b11000000001000 4"
b100010000000000000001 T
b100010000000000000001 u
b100010000000000000001 -"
b11000000000100 S
b11000000000100 ."
b11000000000100 F"
b11000000000100 ]"
b0 Q
b0 s
b0 0"
b0 S"
b0 R
b0 /"
b0 ="
b0 ^"
0W
0\
0[
1U
1^
0Y
b0 _
b0 *"
b0 B"
0X
b0 ]
b0 v
b0 +"
0V
b0 Z
b0 ,"
b0 k
b0 x
b0 J"
b11000000001100 9
b11000000001100 1"
b11000000001100 d"
b11000000001100 j"
b11000000001000 F
b11000000001000 N"
b11000000001000 h"
b11000000001000 i"
1!
#50
0!
#60
b10 D
b10 r
b10 A"
b10 >
b10 ?"
b10 T"
b10010 ?
b10010 p
b10010 Q"
b11000000001000 :
b11000000001000 t
b11000000001000 `"
b10 C"
b10 A
b10 ""
b10 E"
b10 R"
b100 B
b100 8"
b100 K"
b10 _"
b10 !"
b10010 P"
b100010000000000000011 &"
b10001 n"
b11000000010000 G
b11000000010000 e"
b11000000010000 g"
b100000000100100000000000000100 @
b100000000100100000000000000100 2"
b100000000100100000000000000100 M"
b10001 c
b10001 |
b10001 6"
b0 a
b0 ~
b0 I"
b1 f
b1 y
b1 5"
b1 H"
b100010000000000000001 d
b100010000000000000001 {
b100010000000000000001 b"
b11000000000100 b
b11000000000100 }
b11000000000100 7"
0`
b11000000001000 e
b11000000001000 z
b11000000001000 a"
0h
0m
0l
1g
0j
0i
b0 n
b0 w
b0 c"
b100100000000000000010 T
b100100000000000000010 u
b100100000000000000010 -"
b11000000010000 C
b11000000010000 q
b11000000010000 G"
b11000000001000 S
b11000000001000 ."
b11000000001000 F"
b11000000001000 ]"
b100000000100010000000000000011 *
b100000000100010000000000000011 P
b100000000100010000000000000011 3"
b11000000001100 O
b11000000001100 )"
b11000000001100 4"
b11000000010000 9
b11000000010000 1"
b11000000010000 d"
b11000000010000 j"
b11000000001100 F
b11000000001100 N"
b11000000001100 h"
b11000000001100 i"
1!
#70
0!
#80
b1 <
b1 Z"
b1 k"
b11 D
b11 r
b11 A"
b11 >
b11 ?"
b11 T"
b10001 ?
b10001 p
b10001 Q"
b11000000001100 :
b11000000001100 t
b11000000001100 `"
b10001 ;
b10001 \"
b10001 l"
b1 =
b1 W"
b1 Y"
b11 C"
b11 A
b11 ""
b11 E"
b11 R"
b100100000000000000100 &"
b10010 n"
b11 _"
b11 !"
b10001 P"
b11000000010100 G
b11000000010100 e"
b11000000010100 g"
b100100000100010000000000000101 @
b100100000100010000000000000101 2"
b100100000100010000000000000101 M"
b100000000100100000000000000100 *
b100000000100100000000000000100 P
b100000000100100000000000000100 3"
b11000000010000 O
b11000000010000 )"
b11000000010000 4"
b100010000000000000011 T
b100010000000000000011 u
b100010000000000000011 -"
b11000000011000 C
b11000000011000 q
b11000000011000 G"
b11000000001100 S
b11000000001100 ."
b11000000001100 F"
b11000000001100 ]"
b10010 c
b10010 |
b10010 6"
b10 f
b10 y
b10 5"
b10 H"
b100100000000000000010 d
b100100000000000000010 {
b100100000000000000010 b"
b11000000001000 b
b11000000001000 }
b11000000001000 7"
b11000000010000 e
b11000000010000 z
b11000000010000 a"
b10001 I
b10001 ;"
b10001 ["
b1 K
b1 9"
b1 U"
b100 J
b100 :"
b100 V"
b11000000000100 H
b11000000000100 <"
b11000000000100 X"
0M
0N
1L
b11000000010100 9
b11000000010100 1"
b11000000010100 d"
b11000000010100 j"
b11000000010000 F
b11000000010000 N"
b11000000010000 h"
b11000000010000 i"
1!
#90
0!
#100
b10 <
b10 Z"
b10 k"
b100 D
b100 r
b100 A"
b100 >
b100 ?"
b100 T"
b10010 ?
b10010 p
b10010 Q"
b10010 ;
b10010 \"
b10010 l"
b10 =
b10 W"
b10 Y"
b11000000010000 :
b11000000010000 t
b11000000010000 `"
b100 C"
b100 A
b100 ""
b100 E"
b100 R"
b1 7
b1 '"
b1 o"
1+
b100 _"
b100 !"
b10010 P"
b100010000000000000101 &"
b10001 n"
b1001 /
b11000000011000 G
b11000000011000 e"
b11000000011000 g"
b100100000100100000000000000110 @
b100100000100100000000000000110 2"
b100100000100100000000000000110 M"
b10010 I
b10010 ;"
b10010 ["
b10 K
b10 9"
b10 U"
b11000000001000 H
b11000000001000 <"
b11000000001000 X"
b10001 c
b10001 |
b10001 6"
b11 f
b11 y
b11 5"
b11 H"
b100010000000000000011 d
b100010000000000000011 {
b100010000000000000011 b"
b11000000001100 b
b11000000001100 }
b11000000001100 7"
b11000000011000 e
b11000000011000 z
b11000000011000 a"
b100100000000000000100 T
b100100000000000000100 u
b100100000000000000100 -"
b11000000100000 C
b11000000100000 q
b11000000100000 G"
b11000000010000 S
b11000000010000 ."
b11000000010000 F"
b11000000010000 ]"
b100100000100010000000000000101 *
b100100000100010000000000000101 P
b100100000100010000000000000101 3"
b11000000010100 O
b11000000010100 )"
b11000000010100 4"
b11000000011000 9
b11000000011000 1"
b11000000011000 d"
b11000000011000 j"
b11000000010100 F
b11000000010100 N"
b11000000010100 h"
b11000000010100 i"
1!
#110
0!
#120
b11 <
b11 Z"
b11 k"
b101 D
b101 r
b101 A"
b101 >
b101 ?"
b101 T"
b10001 ?
b10001 p
b10001 Q"
b11000000010100 :
b11000000010100 t
b11000000010100 `"
b10001 ;
b10001 \"
b10001 l"
b11 =
b11 W"
b11 Y"
b101 C"
b10 7
b10 '"
b10 o"
b101 A
b101 ""
b101 E"
b101 R"
b100100000000000000110 &"
b10010 n"
b101 _"
b101 !"
b10001 P"
b11 B
b11 8"
b11 K"
b11000000011100 G
b11000000011100 e"
b11000000011100 g"
b100100000100110000000000000001 @
b100100000100110000000000000001 2"
b100100000100110000000000000001 M"
b100100000100100000000000000110 *
b100100000100100000000000000110 P
b100100000100100000000000000110 3"
b11000000011000 O
b11000000011000 )"
b11000000011000 4"
b100010000000000000101 T
b100010000000000000101 u
b100010000000000000101 -"
b11000000101000 C
b11000000101000 q
b11000000101000 G"
b11000000010100 S
b11000000010100 ."
b11000000010100 F"
b11000000010100 ]"
b1 Q
b1 s
b1 0"
b1 S"
1\
b10010 c
b10010 |
b10010 6"
b100 f
b100 y
b100 5"
b100 H"
b100100000000000000100 d
b100100000000000000100 {
b100100000000000000100 b"
b11000000010000 b
b11000000010000 }
b11000000010000 7"
b11000000100000 e
b11000000100000 z
b11000000100000 a"
b10001 I
b10001 ;"
b10001 ["
b11 K
b11 9"
b11 U"
b11000000001100 H
b11000000001100 <"
b11000000001100 X"
b11000000011100 9
b11000000011100 1"
b11000000011100 d"
b11000000011100 j"
b11000000011000 F
b11000000011000 N"
b11000000011000 h"
b11000000011000 i"
1!
#130
0!
#140
b100 <
b100 Z"
b100 k"
b110 D
b110 r
b110 A"
b110 >
b110 ?"
b110 T"
b10010 ?
b10010 p
b10010 Q"
b10010 ;
b10010 \"
b10010 l"
b100 =
b100 W"
b100 Y"
b11000000011000 :
b11000000011000 t
b11000000011000 `"
b110 C"
b110 A
b110 ""
b110 E"
b110 R"
b0 7
b0 '"
b0 o"
b110 _"
b110 !"
b10010 P"
b100110000000000000001 &"
b10011 n"
b11000000100000 G
b11000000100000 e"
b11000000100000 g"
b10010 I
b10010 ;"
b10010 ["
b100 K
b100 9"
b100 U"
b11 J
b11 :"
b11 V"
b11000000010000 H
b11000000010000 <"
b11000000010000 X"
b10001 c
b10001 |
b10001 6"
b1 a
b1 ~
b1 I"
b101 f
b101 y
b101 5"
b101 H"
b100010000000000000101 d
b100010000000000000101 {
b100010000000000000101 b"
b11000000010100 b
b11000000010100 }
b11000000010100 7"
b11000000101000 e
b11000000101000 z
b11000000101000 a"
1m
b100100000000000000110 T
b100100000000000000110 u
b100100000000000000110 -"
b11000000110000 C
b11000000110000 q
b11000000110000 G"
b11000000011000 S
b11000000011000 ."
b11000000011000 F"
b11000000011000 ]"
b10 Q
b10 s
b10 0"
b10 S"
b100100000100110000000000000001 *
b100100000100110000000000000001 P
b100100000100110000000000000001 3"
b11000000011100 O
b11000000011100 )"
b11000000011100 4"
b11000000100000 9
b11000000100000 1"
b11000000100000 d"
b11000000100000 j"
b11000000011100 F
b11000000011100 N"
b11000000011100 h"
b11000000011100 i"
1!
#150
0!
#160
b101 <
b101 Z"
b101 k"
b1 D
b1 r
b1 A"
b1 >
b1 ?"
b1 T"
b10011 ?
b10011 p
b10011 Q"
b11000000011100 :
b11000000011100 t
b11000000011100 `"
b10001 ;
b10001 \"
b10001 l"
b101 =
b101 W"
b101 Y"
b1 C"
b1 A
b1 ""
b1 E"
b1 R"
b1 _"
b1 !"
b10011 P"
b11000000100100 G
b11000000100100 e"
b11000000100100 g"
b10001100101001100000100000 @
b10001100101001100000100000 2"
b10001100101001100000100000 M"
b11000000100000 O
b11000000100000 )"
b11000000100000 4"
b100110000000000000001 T
b100110000000000000001 u
b100110000000000000001 -"
b11000000100000 C
b11000000100000 q
b11000000100000 G"
b11000000011100 S
b11000000011100 ."
b11000000011100 F"
b11000000011100 ]"
b0 Q
b0 s
b0 0"
b0 S"
b10010 c
b10010 |
b10010 6"
b10 a
b10 ~
b10 I"
b110 f
b110 y
b110 5"
b110 H"
b100100000000000000110 d
b100100000000000000110 {
b100100000000000000110 b"
b11000000011000 b
b11000000011000 }
b11000000011000 7"
b11000000110000 e
b11000000110000 z
b11000000110000 a"
b10001 I
b10001 ;"
b10001 ["
b101 K
b101 9"
b101 U"
b11000000010100 H
b11000000010100 <"
b11000000010100 X"
b11000000100100 9
b11000000100100 1"
b11000000100100 d"
b11000000100100 j"
b11000000100000 F
b11000000100000 N"
b11000000100000 h"
b11000000100000 i"
1!
#170
0!
#180
b110 <
b110 Z"
b110 k"
b10010 ;
b10010 \"
b10010 l"
b110 =
b110 W"
b110 Y"
b11000000100000 :
b11000000100000 t
b11000000100000 `"
b100 7
b100 '"
b100 o"
b101 8
b101 ("
b101 p"
1$
0-
b10 .
b10 0
b10 3
b10 #"
0+
b100 B
b100 8"
b100 K"
b10001100101001100000100000 &"
b10010 n"
b10001 m"
b0 /
b11000000101000 G
b11000000101000 e"
b11000000101000 g"
b10001100101001100000100001 @
b10001100101001100000100001 2"
b10001100101001100000100001 M"
b10010 I
b10010 ;"
b10010 ["
b110 K
b110 9"
b110 U"
b11000000011000 H
b11000000011000 <"
b11000000011000 X"
b10011 c
b10011 |
b10011 6"
b0 a
b0 ~
b0 I"
b1 f
b1 y
b1 5"
b1 H"
b100110000000000000001 d
b100110000000000000001 {
b100110000000000000001 b"
b11000000011100 b
b11000000011100 }
b11000000011100 7"
b11000000100000 e
b11000000100000 z
b11000000100000 a"
b11000000100100 C
b11000000100100 q
b11000000100100 G"
b11000000100000 S
b11000000100000 ."
b11000000100000 F"
b11000000100000 ]"
b10001100101001100000100000 *
b10001100101001100000100000 P
b10001100101001100000100000 3"
b11000000100100 O
b11000000100100 )"
b11000000100100 4"
b11000000101000 9
b11000000101000 1"
b11000000101000 d"
b11000000101000 j"
b11000000100100 F
b11000000100100 N"
b11000000100100 h"
b11000000100100 i"
1!
#190
0!
#200
b1 <
b1 Z"
b1 k"
b11000000100100 :
b11000000100100 t
b11000000100100 `"
b100 >
b100 ?"
b100 T"
b10011 ?
b10011 p
b10011 Q"
b10011 ;
b10011 \"
b10011 l"
b1 =
b1 W"
b1 Y"
b100000 C"
b1001100000100000 A
b1001100000100000 ""
b1001100000100000 E"
b1001100000100000 R"
b10001100101001100000100001 &"
b100000 _"
b1001100000100000 !"
b10011 O"
b10010 P"
b1001 D
b1001 r
b1001 A"
b11000000101100 G
b11000000101100 e"
b11000000101100 g"
b10010100011001100000100010 @
b10010100011001100000100010 2"
b10010100011001100000100010 M"
b110 7
b110 '"
b110 o"
b10001100101001100000100001 *
b10001100101001100000100001 P
b10001100101001100000100001 3"
b11000000101000 O
b11000000101000 )"
b11000000101000 4"
b10001100101001100000100000 T
b10001100101001100000100000 u
b10001100101001100000100000 -"
b101001000010100100 C
b101001000010100100 q
b101001000010100100 G"
b11000000100100 S
b11000000100100 ."
b11000000100100 F"
b11000000100100 ]"
b100 Q
b100 s
b100 0"
b100 S"
b101 R
b101 /"
b101 ="
b101 ^"
0\
0^
b10 _
b10 *"
b10 B"
1V
b11000000100000 b
b11000000100000 }
b11000000100000 7"
b11000000100100 e
b11000000100100 z
b11000000100100 a"
b10011 I
b10011 ;"
b10011 ["
b1 K
b1 9"
b1 U"
b100 J
b100 :"
b100 V"
b11000000011100 H
b11000000011100 <"
b11000000011100 X"
b11000000101100 9
b11000000101100 1"
b11000000101100 d"
b11000000101100 j"
b11000000101000 F
b11000000101000 N"
b11000000101000 h"
b11000000101000 i"
1!
#210
0!
#220
b1011 D
b1011 r
b1011 A"
b11000000101000 :
b11000000101000 t
b11000000101000 `"
b110 >
b110 ?"
b110 T"
b100001 C"
b1001100000100001 A
b1001100000100001 ""
b1001100000100001 E"
b1001100000100001 R"
b101 7
b101 '"
b101 o"
b110 8
b110 ("
b110 p"
b1 B
b1 8"
b1 K"
b100001 _"
b1001100000100001 !"
b10010100011001100000100010 &"
b10001 n"
b10010 m"
b11000000110000 G
b11000000110000 e"
b11000000110000 g"
b10010100011001100000100011 @
b10010100011001100000100011 2"
b10010100011001100000100011 M"
b11000000100000 H
b11000000100000 <"
b11000000100000 X"
b100 a
b100 ~
b100 I"
b1001 f
b1001 y
b1001 5"
b1001 H"
b10001100101001100000100000 d
b10001100101001100000100000 {
b10001100101001100000100000 b"
b11000000100100 b
b11000000100100 }
b11000000100100 7"
b101001000010100100 e
b101001000010100100 z
b101001000010100100 a"
0m
b10001100101001100000100001 T
b10001100101001100000100001 u
b10001100101001100000100001 -"
b101001000010101100 C
b101001000010101100 q
b101001000010101100 G"
b11000000101000 S
b11000000101000 ."
b11000000101000 F"
b11000000101000 ]"
b110 Q
b110 s
b110 0"
b110 S"
b10010100011001100000100010 *
b10010100011001100000100010 P
b10010100011001100000100010 3"
b11000000101100 O
b11000000101100 )"
b11000000101100 4"
b11000000110000 9
b11000000110000 1"
b11000000110000 d"
b11000000110000 j"
b11000000101100 F
b11000000101100 N"
b11000000101100 h"
b11000000101100 i"
1!
#230
0!
