multistage_pipeline/wave.vcd
$date
	Thu May 13 16:47:29 2021
$end
$version
	Icarus Verilog
$end
$timescale
	10ns
$end
$scope module test $end
$var reg 1 ! clock $end
$var reg 1 " reset $end
$scope module MIPS $end
$var wire 1 ! clock $end
$var wire 1 " reset $end
$var wire 1 # RegWrite $end
$var wire 1 $ RegDst $end
$var wire 1 % PctoReg $end
$var wire 1 & MemtoReg $end
$var wire 1 ' MemWrite $end
$var wire 2 ( LS_bit [1:0] $end
$var wire 1 ) Jump $end
$var wire 1 * JR $end
$var wire 32 + IF_ID_im_out [31:0] $end
$var wire 1 , Ext_op $end
$var wire 2 - Branch [1:0] $end
$var wire 1 . ALUSrc $end
$var wire 4 / ALUOp [3:0] $end
$scope module Controller $end
$var wire 6 0 funct [5:0] $end
$var wire 6 1 opcode [5:0] $end
$var reg 4 2 ALUOp [3:0] $end
$var reg 1 . ALUSrc $end
$var reg 2 3 Branch [1:0] $end
$var reg 1 , Ext_op $end
$var reg 1 * JR $end
$var reg 1 ) Jump $end
$var reg 2 4 LS_bit [1:0] $end
$var reg 1 ' MemWrite $end
$var reg 1 & MemtoReg $end
$var reg 1 % PctoReg $end
$var reg 1 $ RegDst $end
$var reg 1 # RegWrite $end
$upscope $end
$scope module DataPath $end
$var wire 4 5 ALUOp [3:0] $end
$var wire 1 . ALUSrc $end
$var wire 2 6 Branch [1:0] $end
$var wire 1 , Ext_op $end
$var wire 1 * JR $end
$var wire 1 ) Jump $end
$var wire 2 7 LS_bit [1:0] $end
$var wire 1 ' MemWrite $end
$var wire 1 & MemtoReg $end
$var wire 1 % PctoReg $end
$var wire 1 $ RegDst $end
$var wire 1 # RegWrite $end
$var wire 1 ! clock $end
$var wire 1 " reset $end
$var wire 1 8 zero $end
$var wire 32 9 regfile_out2 [31:0] $end
$var wire 32 : regfile_out1 [31:0] $end
$var wire 32 ; pc_add_out [31:0] $end
$var wire 5 < mux5_out [4:0] $end
$var wire 32 = mux4_out [31:0] $end
$var wire 32 > mux3_out [31:0] $end
$var wire 32 ? mux2_out [31:0] $end
$var wire 5 @ mux1_out [4:0] $end
$var wire 32 A instruction [31:0] $end
$var wire 32 B ext_out [31:0] $end
$var wire 32 C dm_out [31:0] $end
$var wire 32 D branch_add_out [31:0] $end
$var wire 32 E alu_out [31:0] $end
$var wire 4 F alu_ctrl_out [3:0] $end
$var wire 32 G PC [31:0] $end
$var wire 32 H NPC [31:0] $end
$var wire 32 I MEM_WB_pc_add_out [31:0] $end
$var wire 5 J MEM_WB_mux1_out [4:0] $end
$var wire 32 K MEM_WB_dm_out [31:0] $end
$var wire 32 L MEM_WB_alu_out [31:0] $end
$var wire 1 M MEM_WB_RegWrite $end
$var wire 1 N MEM_WB_PctoReg $end
$var wire 1 O MEM_WB_MemtoReg $end
$var wire 32 P IF_ID_pc_add_out [31:0] $end
$var wire 32 Q IF_ID_im_out [31:0] $end
$var wire 32 R ID_EX_regfile_out2 [31:0] $end
$var wire 32 S ID_EX_regfile_out1 [31:0] $end
$var wire 32 T ID_EX_pc_add_out [31:0] $end
$var wire 26 U ID_EX_instr26 [25:0] $end
$var wire 1 V ID_EX_RegWrite $end
$var wire 1 W ID_EX_RegDst $end
$var wire 1 X ID_EX_PctoReg $end
$var wire 1 Y ID_EX_MemtoReg $end
$var wire 1 Z ID_EX_MemWrite $end
$var wire 2 [ ID_EX_LS_bit [1:0] $end
$var wire 1 \ ID_EX_Jump $end
$var wire 1 ] ID_EX_JR $end
$var wire 1 ^ ID_EX_Ext_op $end
$var wire 2 _ ID_EX_Branch [1:0] $end
$var wire 1 ` ID_EX_ALUSrc $end
$var wire 4 a ID_EX_ALUOp [3:0] $end
$var wire 1 b EX_MEM_zero $end
$var wire 32 c EX_MEM_regfile_out2 [31:0] $end
$var wire 32 d EX_MEM_regfile_out1 [31:0] $end
$var wire 32 e EX_MEM_pc_add_out [31:0] $end
$var wire 5 f EX_MEM_mux1_out [4:0] $end
$var wire 26 g EX_MEM_instr26 [25:0] $end
$var wire 32 h EX_MEM_branch_add_out [31:0] $end
$var wire 32 i EX_MEM_alu_out [31:0] $end
$var wire 1 j EX_MEM_RegWrite $end
$var wire 1 k EX_MEM_PctoReg $end
$var wire 1 l EX_MEM_MemtoReg $end
$var wire 1 m EX_MEM_MemWrite $end
$var wire 2 n EX_MEM_LS_bit [1:0] $end
$var wire 1 o EX_MEM_Jump $end
$var wire 1 p EX_MEM_JR $end
$var wire 1 q EX_MEM_Ext_op $end
$var wire 2 r EX_MEM_Branch [1:0] $end
$scope module u_EX_MEM $end
$var wire 2 s LS_bit [1:0] $end
$var wire 1 ! clock $end
$var wire 1 " reset $end
$var wire 1 8 zero $end
$var wire 5 t mux1_out [4:0] $end
$var wire 32 u branch_add_out [31:0] $end
$var wire 32 v alu_out [31:0] $end
$var wire 1 V RegWrite $end
$var wire 1 X PctoReg $end
$var wire 1 Y MemtoReg $end
$var wire 1 Z MemWrite $end
$var wire 1 \ Jump $end
$var wire 1 ] JR $end
$var wire 32 w ID_EX_regfile_out2 [31:0] $end
$var wire 32 x ID_EX_regfile_out1 [31:0] $end
$var wire 32 y ID_EX_pc_add_out [31:0] $end
$var wire 26 z ID_EX_instr26 [25:0] $end
$var wire 1 ^ Ext_op $end
$var wire 2 { Branch [1:0] $end
$var reg 2 | EX_MEM_Branch [1:0] $end
$var reg 1 q EX_MEM_Ext_op $end
$var reg 1 p EX_MEM_JR $end
$var reg 1 o EX_MEM_Jump $end
$var reg 2 } EX_MEM_LS_bit [1:0] $end
$var reg 1 m EX_MEM_MemWrite $end
$var reg 1 l EX_MEM_MemtoReg $end
$var reg 1 k EX_MEM_PctoReg $end
$var reg 1 j EX_MEM_RegWrite $end
$var reg 32 ~ EX_MEM_alu_out [31:0] $end
$var reg 32 !" EX_MEM_branch_add_out [31:0] $end
$var reg 26 "" EX_MEM_instr26 [25:0] $end
$var reg 5 #" EX_MEM_mux1_out [4:0] $end
$var reg 32 $" EX_MEM_pc_add_out [31:0] $end
$var reg 32 %" EX_MEM_regfile_out1 [31:0] $end
$var reg 32 &" EX_MEM_regfile_out2 [31:0] $end
$var reg 1 b EX_MEM_zero $end
$upscope $end
$scope module u_Ext $end
$var wire 16 '" input_num [15:0] $end
$var wire 1 ^ Ext_op $end
$var reg 32 (" output_num [31:0] $end
$upscope $end
$scope module u_ID_EX $end
$var wire 4 )" ALUOp [3:0] $end
$var wire 1 . ALUSrc $end
$var wire 2 *" Branch [1:0] $end
$var wire 1 , Ext_op $end
$var wire 1 * JR $end
$var wire 1 ) Jump $end
$var wire 2 +" LS_bit [1:0] $end
$var wire 1 ' MemWrite $end
$var wire 1 & MemtoReg $end
$var wire 1 % PctoReg $end
$var wire 1 $ RegDst $end
$var wire 1 # RegWrite $end
$var wire 1 ! clock $end
$var wire 26 ," instr26 [25:0] $end
$var wire 1 " reset $end
$var wire 32 -" regfile_out2 [31:0] $end
$var wire 32 ." regfile_out1 [31:0] $end
$var wire 32 /" IF_ID_pc_add_out [31:0] $end
$var reg 4 0" ID_EX_ALUOp [3:0] $end
$var reg 1 ` ID_EX_ALUSrc $end
$var reg 2 1" ID_EX_Branch [1:0] $end
$var reg 1 ^ ID_EX_Ext_op $end
$var reg 1 ] ID_EX_JR $end
$var reg 1 \ ID_EX_Jump $end
$var reg 2 2" ID_EX_LS_bit [1:0] $end
$var reg 1 Z ID_EX_MemWrite $end
$var reg 1 Y ID_EX_MemtoReg $end
$var reg 1 X ID_EX_PctoReg $end
$var reg 1 W ID_EX_RegDst $end
$var reg 1 V ID_EX_RegWrite $end
$var reg 26 3" ID_EX_instr26 [25:0] $end
$var reg 32 4" ID_EX_pc_add_out [31:0] $end
$var reg 32 5" ID_EX_regfile_out1 [31:0] $end
$var reg 32 6" ID_EX_regfile_out2 [31:0] $end
$upscope $end
$scope module u_IF_ID $end
$var wire 1 ! clock $end
$var wire 32 7" pc_add_out [31:0] $end
$var wire 32 8" im_out [31:0] $end
$var reg 32 9" IF_ID_im_out [31:0] $end
$var reg 32 :" IF_ID_pc_add_out [31:0] $end
$upscope $end
$scope module u_MEM_WB $end
$var wire 32 ;" EX_MEM_alu_out [31:0] $end
$var wire 5 <" EX_MEM_mux1_out [4:0] $end
$var wire 32 =" EX_MEM_pc_add_out [31:0] $end
$var wire 1 l MemtoReg $end
$var wire 1 k PctoReg $end
$var wire 1 j RegWrite $end
$var wire 1 ! clock $end
$var wire 1 " reset $end
$var wire 32 >" dm_out [31:0] $end
$var reg 1 O MEM_WB_MemtoReg $end
$var reg 1 N MEM_WB_PctoReg $end
$var reg 1 M MEM_WB_RegWrite $end
$var reg 32 ?" MEM_WB_alu_out [31:0] $end
$var reg 32 @" MEM_WB_dm_out [31:0] $end
$var reg 5 A" MEM_WB_mux1_out [4:0] $end
$var reg 32 B" MEM_WB_pc_add_out [31:0] $end
$upscope $end
$scope module u_alu $end
$var wire 32 C" op_num1 [31:0] $end
$var wire 5 D" shamt [4:0] $end
$var wire 1 8 zero $end
$var wire 32 E" op_num2 [31:0] $end
$var wire 4 F" alu_ctrl_out [3:0] $end
$var reg 32 G" alu_out [31:0] $end
$upscope $end
$scope module u_alu_ctrl $end
$var wire 4 H" ALUOp [3:0] $end
$var wire 6 I" funct [5:0] $end
$var reg 4 J" alu_ctrl_out [3:0] $end
$upscope $end
$scope module u_branch_add $end
$var wire 32 K" Ext_out [31:0] $end
$var wire 32 L" ID_EX_pc_add_out [31:0] $end
$var wire 32 M" branch_add_out [31:0] $end
$upscope $end
$scope module u_dm_4k $end
$var wire 32 N" EX_MEM_alu_out [31:0] $end
$var wire 32 O" EX_MEM_regfile_out2 [31:0] $end
$var wire 1 q Ext_op $end
$var wire 2 P" LS_bit [1:0] $end
$var wire 1 m MemWrite $end
$var wire 1 ! clock $end
$var reg 32 Q" dm_out [31:0] $end
$var reg 16 R" temp [15:0] $end
$upscope $end
$scope module u_im_4k $end
$var wire 32 S" out_instr [31:0] $end
$var wire 32 T" pc [31:0] $end
$upscope $end
$scope module u_mux1 $end
$var wire 1 W RegDst $end
$var wire 5 U" rd [4:0] $end
$var wire 5 V" rt [4:0] $end
$var reg 5 W" DstReg [4:0] $end
$upscope $end
$scope module u_mux2 $end
$var wire 1 ` ALUSrc $end
$var wire 32 X" Ext [31:0] $end
$var wire 32 Y" out2 [31:0] $end
$var reg 32 Z" DstData [31:0] $end
$upscope $end
$scope module u_mux3 $end
$var wire 1 O MemtoReg $end
$var wire 32 [" alu_out [31:0] $end
$var wire 32 \" dm_out [31:0] $end
$var reg 32 ]" mux3_out [31:0] $end
$upscope $end
$scope module u_mux4 $end
$var wire 32 ^" MEM_WB_pc_add_out [31:0] $end
$var wire 1 N PctoReg $end
$var wire 32 _" mux3_out [31:0] $end
$var reg 32 `" mux4_out [31:0] $end
$upscope $end
$scope module u_mux5 $end
$var wire 5 a" MEM_WB_mux1_out [4:0] $end
$var wire 1 N PctoReg $end
$var reg 5 b" mux5_out [4:0] $end
$upscope $end
$scope module u_npc $end
$var wire 32 c" EX_MEM_branch_add_out [31:0] $end
$var wire 26 d" EX_MEM_instr26 [25:0] $end
$var wire 32 e" EX_MEM_regfile_out1 [31:0] $end
$var wire 1 p JR $end
$var wire 1 o Jump $end
$var wire 2 f" branch [1:0] $end
$var wire 1 b zero $end
$var wire 32 g" pc_add_out [31:0] $end
$var reg 32 h" NPC [31:0] $end
$var reg 32 i" PC [31:0] $end
$upscope $end
$scope module u_pc $end
$var wire 32 j" NPC [31:0] $end
$var wire 1 ! clock $end
$var wire 1 " reset $end
$var reg 32 k" PC [31:0] $end
$upscope $end
$scope module u_pc_add $end
$var wire 32 l" PC [31:0] $end
$var wire 32 m" pc_add_out [31:0] $end
$upscope $end
$scope module u_regfile $end
$var wire 1 M RegWrite $end
$var wire 1 ! clock $end
$var wire 32 n" data [31:0] $end
$var wire 5 o" rd [4:0] $end
$var wire 1 " reset $end
$var wire 5 p" rs [4:0] $end
$var wire 5 q" rt [4:0] $end
$var wire 32 r" regfile_out2 [31:0] $end
$var wire 32 s" regfile_out1 [31:0] $end
$var integer 32 t" i [31:0] $end
$upscope $end
$upscope $end
$upscope $end
$upscope $end
$enddefinitions $end
#0
$dumpvars
b100000 t"
bx s"
bx r"
bx q"
bx p"
bx o"
bx n"
b11000000000100 m"
b11000000000000 l"
b11000000000000 k"
b11000000000100 j"
bx i"
b11000000000100 h"
b11000000000100 g"
bx f"
bx e"
bx d"
bx c"
bx b"
bx a"
bx `"
bx _"
bx ^"
bx ]"
bx \"
bx ["
bx Z"
bx Y"
bx X"
bx W"
bx V"
bx U"
b11000000000000 T"
b100000000100010000000000000001 S"
bx R"
bx Q"
bx P"
bx O"
bx N"
bx M"
bx L"
bx K"
bx J"
bx I"
bx H"
bx G"
bx F"
bx E"
bx D"
bx C"
bx B"
bx A"
bx @"
bx ?"
bx >"
bx ="
bx <"
bx ;"
bx :"
bx 9"
b100000000100010000000000000001 8"
b11000000000100 7"
bx 6"
bx 5"
bx 4"
bx 3"
bx 2"
bx 1"
bx 0"
bx /"
bx ."
bx -"
bx ,"
bx +"
bx *"
bx )"
bx ("
bx '"
bx &"
bx %"
bx $"
bx #"
bx ""
bx !"
bx ~
bx }
bx |
bx {
bx z
bx y
bx x
bx w
bx v
bx u
bx t
bx s
bx r
xq
xp
xo
bx n
xm
xl
xk
xj
bx i
bx h
bx g
bx f
bx e
bx d
bx c
xb
bx a
x`
bx _
x^
x]
x\
bx [
xZ
xY
xX
xW
xV
bx U
bx T
bx S
bx R
bx Q
bx P
xO
xN
xM
bx L
bx K
bx J
bx I
b11000000000100 H
b11000000000000 G
bx F
bx E
bx D
bx C
bx B
b100000000100010000000000000001 A
bx @
bx ?
bx >
bx =
bx <
b11000000000100 ;
bx :
bx 9
x8
bx 7
bx 6
bx 5
bx 4
bx 3
bx 2
bx 1
bx 0
bx /
x.
bx -
x,
bx +
x*
x)
bx (
x'
x&
x%
x$
x#
1"
1!
$end
#10
0"
0!
#20
b0 9
b0 -"
b0 r"
b0 :
b0 ."
b0 s"
b0 (
b0 4
b0 7
b0 s
b0 +"
0$
b0 -
b0 3
b0 6
b0 *"
0&
1.
b0 /
b0 2
b0 5
b0 )"
0'
1#
0)
0,
0%
0*
b100010000000000000001 ,"
b10001 q"
b0 p"
b1 0
b1000 1
b11000000001000 H
b11000000001000 h"
b11000000001000 j"
b100000000100100000000000000010 A
b100000000100100000000000000010 8"
b100000000100100000000000000010 S"
b100000000100010000000000000001 +
b100000000100010000000000000001 Q
b100000000100010000000000000001 9"
b11000000000100 P
b11000000000100 /"
b11000000000100 :"
b11000000001000 ;
b11000000001000 7"
b11000000001000 g"
b11000000001000 m"
b11000000000100 G
b11000000000100 T"
b11000000000100 k"
b11000000000100 l"
1!
#30
0!
#40
08
b1 E
b1 v
b1 G"
b10001 @
b10001 t
b10001 W"
b1 ?
b1 E"
b1 Z"
b11000000001000 D
b11000000001000 u
b11000000001000 M"
b0 D"
b1 I"
b100100000000000000010 ,"
b10010 q"
b10 0
b1 '"
b0 U"
b10001 V"
b1 B
b1 ("
b1 K"
b1 X"
b10 F
b10 F"
b10 J"
b11000000001100 H
b11000000001100 h"
b11000000001100 j"
b100000000100010000000000000011 A
b100000000100010000000000000011 8"
b100000000100010000000000000011 S"
b100000000100100000000000000010 +
b100000000100100000000000000010 Q
b100000000100100000000000000010 9"
b11000000001000 P
b11000000001000 /"
b11000000001000 :"
b100010000000000000001 U
b100010000000000000001 z
b100010000000000000001 3"
b11000000000100 T
b11000000000100 y
b11000000000100 4"
b11000000000100 L"
b0 R
b0 w
b0 6"
b0 Y"
b0 S
b0 x
b0 5"
b0 C"
0]
0X
0^
0\
1V
1`
0Z
b0 a
b0 0"
b0 H"
0Y
b0 _
b0 {
b0 1"
0W
b0 [
b0 2"
b0 n
b0 }
b0 P"
b11000000001100 ;
b11000000001100 7"
b11000000001100 g"
b11000000001100 m"
b11000000001000 G
b11000000001000 T"
b11000000001000 k"
b11000000001000 l"
1!
#50
0!
#60
b10 E
b10 v
b10 G"
b10 ?
b10 E"
b10 Z"
b10010 @
b10010 t
b10010 W"
b10 I"
b10 B
b10 ("
b10 K"
b10 X"
b100 C
b100 >"
b100 Q"
b10 '"
b10010 V"
b100010000000000000011 ,"
b10001 q"
b11 0
b11000000010000 H
b11000000010000 h"
b11000000010000 j"
b100000000100100000000000000100 A
b100000000100100000000000000100 8"
b100000000100100000000000000100 S"
b10001 f
b10001 #"
b10001 <"
b0 c
b0 &"
b0 O"
b0 d
b0 %"
b0 e"
b1 i
b1 ~
b1 ;"
b1 N"
b100010000000000000001 g
b100010000000000000001 ""
b100010000000000000001 d"
b11000000000100 e
b11000000000100 $"
b11000000000100 ="
0b
b11000000001000 h
b11000000001000 !"
b11000000001000 c"
0p
0k
0q
0o
1j
0m
0l
b0 r
b0 |
b0 f"
b100100000000000000010 U
b100100000000000000010 z
b100100000000000000010 3"
b11000000010000 D
b11000000010000 u
b11000000010000 M"
b11000000001000 T
b11000000001000 y
b11000000001000 4"
b11000000001000 L"
b100000000100010000000000000011 +
b100000000100010000000000000011 Q
b100000000100010000000000000011 9"
b11000000001100 P
b11000000001100 /"
b11000000001100 :"
b11000000010000 ;
b11000000010000 7"
b11000000010000 g"
b11000000010000 m"
b11000000001100 G
b11000000001100 T"
b11000000001100 k"
b11000000001100 l"
1!
#70
0!
#80
b1 =
b1 `"
b1 n"
b11 E
b11 v
b11 G"
b11 ?
b11 E"
b11 Z"
b10001 @
b10001 t
b10001 W"
b10001 <
b10001 b"
b10001 o"
b1 >
b1 ]"
b1 _"
b11 I"
b11 B
b11 ("
b11 K"
b11 X"
b100100000000000000100 ,"
b10010 q"
b100 0
b11 '"
b10001 V"
b11000000010100 H
b11000000010100 h"
b11000000010100 j"
b100100000100010000000000000101 A
b100100000100010000000000000101 8"
b100100000100010000000000000101 S"
b100000000100100000000000000100 +
b100000000100100000000000000100 Q
b100000000100100000000000000100 9"
b11000000010000 P
b11000000010000 /"
b11000000010000 :"
b100010000000000000011 U
b100010000000000000011 z
b100010000000000000011 3"
b11000000011000 D
b11000000011000 u
b11000000011000 M"
b11000000001100 T
b11000000001100 y
b11000000001100 4"
b11000000001100 L"
b10010 f
b10010 #"
b10010 <"
b10 i
b10 ~
b10 ;"
b10 N"
b100100000000000000010 g
b100100000000000000010 ""
b100100000000000000010 d"
b11000000001000 e
b11000000001000 $"
b11000000001000 ="
b11000000010000 h
b11000000010000 !"
b11000000010000 c"
b10001 J
b10001 A"
b10001 a"
b1 L
b1 ?"
b1 ["
b100 K
b100 @"
b100 \"
b11000000000100 I
b11000000000100 B"
b11000000000100 ^"
0N
0O
1M
b11000000010100 ;
b11000000010100 7"
b11000000010100 g"
b11000000010100 m"
b11000000010000 G
b11000000010000 T"
b11000000010000 k"
b11000000010000 l"
1!
#90
0!
#100
b10 =
b10 `"
b10 n"
b100 E
b100 v
b100 G"
b100 ?
b100 E"
b100 Z"
b10010 @
b10010 t
b10010 W"
b10010 <
b10010 b"
b10010 o"
b10 >
b10 ]"
b10 _"
b100 I"
b100 B
b100 ("
b100 K"
b100 X"
b1 9
b1 -"
b1 r"
1,
b100 '"
b10010 V"
b100010000000000000101 ,"
b10001 q"
b101 0
b1001 1
b11000000011000 H
b11000000011000 h"
b11000000011000 j"
b100100000100100000000000000110 A
b100100000100100000000000000110 8"
b100100000100100000000000000110 S"
b10010 J
b10010 A"
b10010 a"
b10 L
b10 ?"
b10 ["
b11000000001000 I
b11000000001000 B"
b11000000001000 ^"
b10001 f
b10001 #"
b10001 <"
b11 i
b11 ~
b11 ;"
b11 N"
b100010000000000000011 g
b100010000000000000011 ""
b100010000000000000011 d"
b11000000001100 e
b11000000001100 $"
b11000000001100 ="
b11000000011000 h
b11000000011000 !"
b11000000011000 c"
b100100000000000000100 U
b100100000000000000100 z
b100100000000000000100 3"
b11000000100000 D
b11000000100000 u
b11000000100000 M"
b11000000010000 T
b11000000010000 y
b11000000010000 4"
b11000000010000 L"
b100100000100010000000000000101 +
b100100000100010000000000000101 Q
b100100000100010000000000000101 9"
b11000000010100 P
b11000000010100 /"
b11000000010100 :"
b11000000011000 ;
b11000000011000 7"
b11000000011000 g"
b11000000011000 m"
b11000000010100 G
b11000000010100 T"
b11000000010100 k"
b11000000010100 l"
1!
#110
0!
#120
b11 =
b11 `"
b11 n"
b101 E
b101 v
b101 G"
b101 ?
b101 E"
b101 Z"
b10001 @
b10001 t
b10001 W"
b10001 <
b10001 b"
b10001 o"
b11 >
b11 ]"
b11 _"
b101 I"
b10 9
b10 -"
b10 r"
b101 B
b101 ("
b101 K"
b101 X"
b100100000000000000110 ,"
b10010 q"
b110 0
b101 '"
b10001 V"
b11 C
b11 >"
b11 Q"
b11000000011100 H
b11000000011100 h"
b11000000011100 j"
b100100000100110000000000000001 A
b100100000100110000000000000001 8"
b100100000100110000000000000001 S"
b100100000100100000000000000110 +
b100100000100100000000000000110 Q
b100100000100100000000000000110 9"
b11000000011000 P
b11000000011000 /"
b11000000011000 :"
b100010000000000000101 U
b100010000000000000101 z
b100010000000000000101 3"
b11000000101000 D
b11000000101000 u
b11000000101000 M"
b11000000010100 T
b11000000010100 y
b11000000010100 4"
b11000000010100 L"
b1 R
b1 w
b1 6"
b1 Y"
1^
b10010 f
b10010 #"
b10010 <"
b100 i
b100 ~
b100 ;"
b100 N"
b100100000000000000100 g
b100100000000000000100 ""
b100100000000000000100 d"
b11000000010000 e
b11000000010000 $"
b11000000010000 ="
b11000000100000 h
b11000000100000 !"
b11000000100000 c"
b10001 J
b10001 A"
b10001 a"
b11 L
b11 ?"
b11 ["
b11000000001100 I
b11000000001100 B"
b11000000001100 ^"
b11000000011100 ;
b11000000011100 7"
b11000000011100 g"
b11000000011100 m"
b11000000011000 G
b11000000011000 T"
b11000000011000 k"
b11000000011000 l"
1!
#130
0!
#140
b100 =
b100 `"
b100 n"
b110 E
b110 v
b110 G"
b110 ?
b110 E"
b110 Z"
b10010 @
b10010 t
b10010 W"
b10010 <
b10010 b"
b10010 o"
b100 >
b100 ]"
b100 _"
b110 I"
b110 B
b110 ("
b110 K"
b110 X"
b0 9
b0 -"
b0 r"
b110 '"
b10010 V"
b100110000000000000001 ,"
b10011 q"
b1 0
b11000000100000 H
b11000000100000 h"
b11000000100000 j"
b10010 J
b10010 A"
b10010 a"
b100 L
b100 ?"
b100 ["
b11 K
b11 @"
b11 \"
b11000000010000 I
b11000000010000 B"
b11000000010000 ^"
b10001 f
b10001 #"
b10001 <"
b1 c
b1 &"
b1 O"
b101 i
b101 ~
b101 ;"
b101 N"
b100010000000000000101 g
b100010000000000000101 ""
b100010000000000000101 d"
b11000000010100 e
b11000000010100 $"
b11000000010100 ="
b11000000101000 h
b11000000101000 !"
b11000000101000 c"
1q
b100100000000000000110 U
b100100000000000000110 z
b100100000000000000110 3"
b11000000110000 D
b11000000110000 u
b11000000110000 M"
b11000000011000 T
b11000000011000 y
b11000000011000 4"
b11000000011000 L"
b10 R
b10 w
b10 6"
b10 Y"
b100100000100110000000000000001 +
b100100000100110000000000000001 Q
b100100000100110000000000000001 9"
b11000000011100 P
b11000000011100 /"
b11000000011100 :"
b11000000100000 ;
b11000000100000 7"
b11000000100000 g"
b11000000100000 m"
b11000000011100 G
b11000000011100 T"
b11000000011100 k"
b11000000011100 l"
1!
#150
0!
#160
b101 =
b101 `"
b101 n"
b1 E
b1 v
b1 G"
b1 ?
b1 E"
b1 Z"
b10011 @
b10011 t
b10011 W"
b10001 <
b10001 b"
b10001 o"
b101 >
b101 ]"
b101 _"
b1 I"
b1 B
b1 ("
b1 K"
b1 X"
b1 '"
b10011 V"
b11000000100100 H
b11000000100100 h"
b11000000100100 j"
b11000000100000 P
b11000000100000 /"
b11000000100000 :"
b100110000000000000001 U
b100110000000000000001 z
b100110000000000000001 3"
b11000000100000 D
b11000000100000 u
b11000000100000 M"
b11000000011100 T
b11000000011100 y
b11000000011100 4"
b11000000011100 L"
b0 R
b0 w
b0 6"
b0 Y"
b10010 f
b10010 #"
b10010 <"
b10 c
b10 &"
b10 O"
b110 i
b110 ~
b110 ;"
b110 N"
b100100000000000000110 g
b100100000000000000110 ""
b100100000000000000110 d"
b11000000011000 e
b11000000011000 $"
b11000000011000 ="
b11000000110000 h
b11000000110000 !"
b11000000110000 c"
b10001 J
b10001 A"
b10001 a"
b101 L
b101 ?"
b101 ["
b11000000010100 I
b11000000010100 B"
b11000000010100 ^"
b11000000100100 ;
b11000000100100 7"
b11000000100100 g"
b11000000100100 m"
b11000000100000 G
b11000000100000 T"
b11000000100000 k"
b11000000100000 l"
1!
#170
0!
#180
b110 =
b110 `"
b110 n"
b10010 <
b10010 b"
b10010 o"
b110 >
b110 ]"
b110 _"
b100 C
b100 >"
b100 Q"
b11000000101000 H
b11000000101000 h"
b11000000101000 j"
b10001100101001100000100000 A
b10001100101001100000100000 8"
b10001100101001100000100000 S"
b10010 J
b10010 A"
b10010 a"
b110 L
b110 ?"
b110 ["
b11000000011000 I
b11000000011000 B"
b11000000011000 ^"
b10011 f
b10011 #"
b10011 <"
b0 c
b0 &"
b0 O"
b1 i
b1 ~
b1 ;"
b1 N"
b100110000000000000001 g
b100110000000000000001 ""
b100110000000000000001 d"
b11000000011100 e
b11000000011100 $"
b11000000011100 ="
b11000000100000 h
b11000000100000 !"
b11000000100000 c"
b11000000100100 D
b11000000100100 u
b11000000100100 M"
b11000000100000 T
b11000000100000 y
b11000000100000 4"
b11000000100000 L"
b11000000100100 P
b11000000100100 /"
b11000000100100 :"
b11000000101000 ;
b11000000101000 7"
b11000000101000 g"
b11000000101000 m"
b11000000100100 G
b11000000100100 T"
b11000000100100 k"
b11000000100100 l"
1!
#190
0!
#200
b1 =
b1 `"
b1 n"
b10011 <
b10011 b"
b10011 o"
b1 >
b1 ]"
b1 _"
b110 9
b110 -"
b110 r"
b101 :
b101 ."
b101 s"
1$
0.
b10 /
b10 2
b10 5
b10 )"
0,
b10001100101001100000100000 ,"
b10010 q"
b10001 p"
b100000 0
b0 1
b11000000101100 H
b11000000101100 h"
b11000000101100 j"
b10001100101001100000100001 A
b10001100101001100000100001 8"
b10001100101001100000100001 S"
b10001100101001100000100000 +
b10001100101001100000100000 Q
b10001100101001100000100000 9"
b11000000101000 P
b11000000101000 /"
b11000000101000 :"
b11000000101000 D
b11000000101000 u
b11000000101000 M"
b11000000100100 T
b11000000100100 y
b11000000100100 4"
b11000000100100 L"
b11000000100000 e
b11000000100000 $"
b11000000100000 ="
b11000000100100 h
b11000000100100 !"
b11000000100100 c"
b10011 J
b10011 A"
b10011 a"
b1 L
b1 ?"
b1 ["
b100 K
b100 @"
b100 \"
b11000000011100 I
b11000000011100 B"
b11000000011100 ^"
b11000000101100 ;
b11000000101100 7"
b11000000101100 g"
b11000000101100 m"
b11000000101000 G
b11000000101000 T"
b11000000101000 k"
b11000000101000 l"
1!
#210
0!
#220
b110 ?
b110 E"
b110 Z"
b10011 @
b10011 t
b10011 W"
b100000 I"
b1001100000100000 B
b1001100000100000 ("
b1001100000100000 K"
b1001100000100000 X"
b1001100000100000 '"
b10011 U"
b10010 V"
b1011 E
b1011 v
b1011 G"
b10001100101001100000100001 ,"
b100001 0
b11000000110000 H
b11000000110000 h"
b11000000110000 j"
b10010100011001100000100010 A
b10010100011001100000100010 8"
b10010100011001100000100010 S"
b11000000100000 I
b11000000100000 B"
b11000000100000 ^"
b11000000100100 e
b11000000100100 $"
b11000000100100 ="
b11000000101000 h
b11000000101000 !"
b11000000101000 c"
b10001100101001100000100000 U
b10001100101001100000100000 z
b10001100101001100000100000 3"
b101001000010101000 D
b101001000010101000 u
b101001000010101000 M"
b11000000101000 T
b11000000101000 y
b11000000101000 4"
b11000000101000 L"
b110 R
b110 w
b110 6"
b110 Y"
b101 S
b101 x
b101 5"
b101 C"
0^
0`
b10 a
b10 0"
b10 H"
1W
b10001100101001100000100001 +
b10001100101001100000100001 Q
b10001100101001100000100001 9"
b11000000101100 P
b11000000101100 /"
b11000000101100 :"
b11000000110000 ;
b11000000110000 7"
b11000000110000 g"
b11000000110000 m"
b11000000101100 G
b11000000101100 T"
b11000000101100 k"
b11000000101100 l"
1!
#230
0!
#240
b100001 I"
b101 9
b101 -"
b101 r"
b110 :
b110 ."
b110 s"
b1001100000100001 B
b1001100000100001 ("
b1001100000100001 K"
b1001100000100001 X"
b10010100011001100000100010 ,"
b10001 q"
b10010 p"
b100010 0
b1001100000100001 '"
b1 C
b1 >"
b1 Q"
b11000000110100 H
b11000000110100 h"
b11000000110100 j"
b10010100011001100000100011 A
b10010100011001100000100011 8"
b10010100011001100000100011 S"
b10010100011001100000100010 +
b10010100011001100000100010 Q
b10010100011001100000100010 9"
b11000000110000 P
b11000000110000 /"
b11000000110000 :"
b10001100101001100000100001 U
b10001100101001100000100001 z
b10001100101001100000100001 3"
b101001000010110000 D
b101001000010110000 u
b101001000010110000 M"
b11000000101100 T
b11000000101100 y
b11000000101100 4"
b11000000101100 L"
b110 c
b110 &"
b110 O"
b101 d
b101 %"
b101 e"
b1011 i
b1011 ~
b1011 ;"
b1011 N"
b10001100101001100000100000 g
b10001100101001100000100000 ""
b10001100101001100000100000 d"
b11000000101000 e
b11000000101000 $"
b11000000101000 ="
b101001000010101000 h
b101001000010101000 !"
b101001000010101000 c"
0q
b11000000100100 I
b11000000100100 B"
b11000000100100 ^"
b11000000110100 ;
b11000000110100 7"
b11000000110100 g"
b11000000110100 m"
b11000000110000 G
b11000000110000 T"
b11000000110000 k"
b11000000110000 l"
1!
#250
0!
