multistage_pipeline/wave.vcd
$date
	Mon May 10 21:21:07 2021
$end
$version
	Icarus Verilog
$end
$timescale
	10ns
$end
$scope module test $end
$var reg 1 ! clock $end
$var reg 1 " reset $end
$scope module MIPS $end
$var wire 1 ! clock $end
$var wire 1 " reset $end
$var wire 1 # RegWrite $end
$var wire 1 $ RegDst $end
$var wire 1 % PctoReg $end
$var wire 1 & MemtoReg $end
$var wire 1 ' MemWrite $end
$var wire 2 ( LS_bit [1:0] $end
$var wire 1 ) Jump $end
$var wire 64 * IF_ID_out [63:0] $end
$var wire 1 + Ext_op $end
$var wire 2 , Branch [1:0] $end
$var wire 1 - ALUSrc $end
$var wire 4 . ALUOp [3:0] $end
$scope module Controller $end
$var wire 6 / opcode [5:0] $end
$var reg 4 0 ALUOp [3:0] $end
$var reg 1 - ALUSrc $end
$var reg 2 1 Branch [1:0] $end
$var reg 1 + Ext_op $end
$var reg 1 ) Jump $end
$var reg 2 2 LS_bit [1:0] $end
$var reg 1 ' MemWrite $end
$var reg 1 & MemtoReg $end
$var reg 1 % PctoReg $end
$var reg 1 $ RegDst $end
$var reg 1 # RegWrite $end
$upscope $end
$scope module DataPath $end
$var wire 4 3 ALUOp [3:0] $end
$var wire 1 - ALUSrc $end
$var wire 2 4 Branch [1:0] $end
$var wire 1 + Ext_op $end
$var wire 1 ) Jump $end
$var wire 2 5 LS_bit [1:0] $end
$var wire 1 ' MemWrite $end
$var wire 1 & MemtoReg $end
$var wire 1 % PctoReg $end
$var wire 1 $ RegDst $end
$var wire 1 # RegWrite $end
$var wire 1 ! clock $end
$var wire 1 " reset $end
$var wire 1 6 zero $end
$var wire 32 7 regfile_out2 [31:0] $end
$var wire 32 8 regfile_out1 [31:0] $end
$var wire 32 9 pc_add_out [31:0] $end
$var wire 32 : mux6_out [31:0] $end
$var wire 5 ; mux5_out [4:0] $end
$var wire 32 < mux4_out [31:0] $end
$var wire 32 = mux3_out [31:0] $end
$var wire 32 > mux2_out [31:0] $end
$var wire 5 ? mux1_out [4:0] $end
$var wire 32 @ instruction [31:0] $end
$var wire 32 A ext_out [31:0] $end
$var wire 32 B dm_out [31:0] $end
$var wire 32 C branch_add_out [31:0] $end
$var wire 32 D alu_out [31:0] $end
$var wire 4 E alu_ctrl_out [3:0] $end
$var wire 32 F PC [31:0] $end
$var wire 32 G NPC [31:0] $end
$var wire 104 H MEM_WB_out [103:0] $end
$var wire 64 I IF_ID_out [63:0] $end
$var wire 138 J ID_EX_out [137:0] $end
$var wire 170 K EX_MEM_out [169:0] $end
$scope module ALU $end
$var wire 32 L op_num1 [31:0] $end
$var wire 5 M shamt [4:0] $end
$var wire 1 6 zero $end
$var wire 32 N op_num2 [31:0] $end
$var wire 4 O alu_ctrl_out [3:0] $end
$var reg 32 P alu_out [31:0] $end
$upscope $end
$scope module ALU_controller $end
$var wire 4 Q ALUOp [3:0] $end
$var wire 6 R funct [5:0] $end
$var reg 4 S alu_ctrl_out [3:0] $end
$upscope $end
$scope module EX_MEM_pipeline_register $end
$var wire 2 T Branch [1:0] $end
$var wire 1 U Ext_op $end
$var wire 26 V ID_EX_instr26 [25:0] $end
$var wire 32 W ID_EX_regfile_out2 [31:0] $end
$var wire 1 X Jump $end
$var wire 2 Y LS_bit [1:0] $end
$var wire 1 Z MemWrite $end
$var wire 1 [ MemtoReg $end
$var wire 1 \ PctoReg $end
$var wire 1 ] RegWrite $end
$var wire 32 ^ alu_out [31:0] $end
$var wire 1 ! clock $end
$var wire 1 " reset $end
$var wire 1 6 zero $end
$var wire 5 _ mux1_out [4:0] $end
$var wire 32 ` branch_add_out [31:0] $end
$var wire 32 a ID_EX_pc_add_out [31:0] $end
$var reg 170 b EX_MEM_out [169:0] $end
$upscope $end
$scope module ID_EX_pipeline_register $end
$var wire 4 c ALUOp [3:0] $end
$var wire 1 d ALUSrc $end
$var wire 2 e Branch [1:0] $end
$var wire 1 + Ext_op $end
$var wire 32 f IF_ID_pc_add_out [31:0] $end
$var wire 1 ) Jump $end
$var wire 2 g LS_bit [1:0] $end
$var wire 1 ' MemWrite $end
$var wire 1 & MemtoReg $end
$var wire 1 % PctoReg $end
$var wire 1 $ RegDst $end
$var wire 1 h RegWrite $end
$var wire 1 ! clock $end
$var wire 26 i instr26 [25:0] $end
$var wire 1 " reset $end
$var wire 32 j regfile_out2 [31:0] $end
$var wire 32 k regfile_out1 [31:0] $end
$var reg 138 l ID_EX_out [137:0] $end
$upscope $end
$scope module IF_ID_pipeline_register $end
$var wire 1 ! clock $end
$var wire 32 m pc_add_out [31:0] $end
$var wire 32 n im_out [31:0] $end
$var reg 64 o IF_ID_out [63:0] $end
$upscope $end
$scope module MEM_WB_pipeline_register $end
$var wire 32 p EX_MEM_alu_out [31:0] $end
$var wire 5 q EX_MEM_mux1_out [4:0] $end
$var wire 32 r EX_MEM_pc_add_out [31:0] $end
$var wire 1 s MemtoReg $end
$var wire 1 t PctoReg $end
$var wire 1 u RegWrite $end
$var wire 1 ! clock $end
$var wire 1 " reset $end
$var wire 32 v dm_out [31:0] $end
$var reg 104 w MEM_WB_out [103:0] $end
$upscope $end
$scope module branch_move_adder $end
$var wire 32 x ID_EX_pc_add_out [31:0] $end
$var wire 32 y branch_add_out [31:0] $end
$var wire 32 z Ext_out [31:0] $end
$upscope $end
$scope module data_memory $end
$var wire 32 { EX_MEM_alu_out [31:0] $end
$var wire 32 | EX_MEM_register_out2 [31:0] $end
$var wire 1 } Ext_op $end
$var wire 2 ~ LS_bit [1:0] $end
$var wire 1 !" MemWrite $end
$var wire 1 ! clock $end
$var reg 32 "" dm_out [31:0] $end
$var reg 16 #" temp [15:0] $end
$upscope $end
$scope module extension_unit $end
$var wire 1 $" Ext_op $end
$var wire 16 %" input_num [15:0] $end
$var reg 32 &" output_num [31:0] $end
$upscope $end
$scope module instruction_memory $end
$var wire 32 '" out_instr [31:0] $end
$var wire 32 (" pc [31:0] $end
$upscope $end
$scope module next_program_counter $end
$var wire 32 )" EX_MEM_branch_add_out [31:0] $end
$var wire 26 *" EX_MEM_instr26 [25:0] $end
$var wire 32 +" EX_MEM_pc_add_out [31:0] $end
$var wire 1 ) Jump $end
$var wire 2 ," branch [1:0] $end
$var wire 1 6 zero $end
$var reg 32 -" NPC [31:0] $end
$var reg 32 ." PC [31:0] $end
$upscope $end
$scope module pc_adder $end
$var wire 32 /" pc_add_out [31:0] $end
$var wire 32 0" PC [31:0] $end
$upscope $end
$scope module program_counter $end
$var wire 32 1" NPC [31:0] $end
$var wire 1 ! clock $end
$var wire 1 " reset $end
$var reg 32 2" PC [31:0] $end
$upscope $end
$scope module register_files $end
$var wire 1 3" RegWrite $end
$var wire 1 ! clock $end
$var wire 1 " reset $end
$var wire 5 4" rs [4:0] $end
$var wire 5 5" rt [4:0] $end
$var wire 32 6" regfile_out2 [31:0] $end
$var wire 32 7" regfile_out1 [31:0] $end
$var wire 5 8" rd [4:0] $end
$var wire 32 9" data [31:0] $end
$var integer 32 :" i [31:0] $end
$upscope $end
$scope module u_mux1 $end
$var wire 1 ;" RegDst $end
$var wire 5 <" rd [4:0] $end
$var wire 5 =" rt [4:0] $end
$var reg 5 >" DstReg [4:0] $end
$upscope $end
$scope module u_mux2 $end
$var wire 1 ?" ALUSrc $end
$var wire 32 @" Ext [31:0] $end
$var wire 32 A" out2 [31:0] $end
$var reg 32 B" DstData [31:0] $end
$upscope $end
$scope module u_mux3 $end
$var wire 1 C" MemtoReg $end
$var wire 32 D" alu_out [31:0] $end
$var wire 32 E" dm_out [31:0] $end
$var reg 32 F" mux3_out [31:0] $end
$upscope $end
$scope module u_mux4 $end
$var wire 32 G" MEM_WB_pc_add_out [31:0] $end
$var wire 1 H" PctoReg $end
$var wire 32 I" mux3_out [31:0] $end
$var reg 32 J" mux4_out [31:0] $end
$upscope $end
$scope module u_mux5 $end
$var wire 5 K" MEM_WB_mux1_out [4:0] $end
$var wire 1 L" PctoReg $end
$var reg 5 M" mux5_out [4:0] $end
$upscope $end
$scope module u_mux6 $end
$var wire 32 N" ID_EX_pc_add_out [31:0] $end
$var wire 32 O" ID_EX_regfile_out2 [31:0] $end
$var wire 6 P" funct [5:0] $end
$var reg 32 Q" mux6_out [31:0] $end
$upscope $end
$upscope $end
$upscope $end
$upscope $end
$enddefinitions $end
#0
$dumpvars
bx Q"
bx P"
bx O"
bx N"
bz M"
zL"
bz K"
bx J"
bx I"
xH"
bx G"
bx F"
bx E"
bx D"
xC"
bx B"
bx A"
b0xzzxxxxxxxxxxxxx @"
x?"
bx >"
bx ="
bxzzxx <"
x;"
b100000 :"
bx 9"
bz 8"
bx 7"
bx 6"
bx 5"
bx 4"
x3"
b11000000000000 2"
bx 1"
b11000000000000 0"
b11000000000100 /"
bx ."
bx -"
bx ,"
bx +"
bx *"
bx )"
b11000000000000 ("
b111100000000010001000000000001 '"
b0xzzxxxxxxxxxxxxx &"
bxzzxxxxxxxxxxxxx %"
x$"
bx #"
bx ""
x!"
bx ~
x}
bx |
bx {
b0xzzxxxxxxxxxxxxx z
bx y
bx x
bx w
bx v
xu
xt
xs
bx r
bx q
bx p
bx o
b111100000000010001000000000001 n
b11000000000100 m
bxzzxxxxxxxxxxxxxxxxxxxxxxxxxxxxxxxxxxxxxxxxxxxxxxxxxxxxxxxxxxxxxxxxxxxxxxxxxxxxxxxxxxxxxxxxxxxxxxxxxxxxxxxxxxxxxxxxxxxxxxxxxxxxx l
bx k
bx j
bx i
zh
bx g
bx f
bx e
zd
bx c
bx b
bx a
bx `
bx _
bx ^
x]
x\
x[
xZ
bx Y
xX
bx W
bxzzxxxxxxxxxxxxx V
xU
bx T
bx S
bx R
bx Q
bx P
bx O
bx N
bx M
bx L
bx K
bxzzxxxxxxxxxxxxxxxxxxxxxxxxxxxxxxxxxxxxxxxxxxxxxxxxxxxxxxxxxxxxxxxxxxxxxxxxxxxxxxxxxxxxxxxxxxxxxxxxxxxxxxxxxxxxxxxxxxxxxxxxxxxxx J
bx I
bx H
bx G
b11000000000000 F
bx E
bx D
bx C
bx B
b0xzzxxxxxxxxxxxxx A
b111100000000010001000000000001 @
bx ?
bx >
bx =
bx <
bz ;
bx :
b11000000000100 9
bx 8
bx 7
x6
bx 5
bx 4
bx 3
bx 2
bx 1
bx 0
bx /
bx .
x-
bx ,
x+
bx *
x)
bx (
x'
x&
x%
x$
x#
1"
1!
$end
#10
0!
#20
b0 q
bx0xxxxxxxxxxxxxxxxxxxxxxxxxxxx |
0"
b0 7
b0 j
b0 6"
b0 8
b0 k
b0 7"
b0 (
b0 2
b0 5
b0 Y
b0 g
1$
b0 ,
b0 1
b0 4
b0 e
b0 ,"
0&
0-
b10 .
b10 0
b10 3
b10 c
0'
1#
0)
0+
0%
bxzzxxxxxxxx *"
b11000000000100 i
b111100000000010001000000000001 f
b0 5"
b0 4"
b0 /
b0xxx0xxxxxxxxxxxxxxxxxxxxxxxxxxxxxxxxxxxxxxxxxxxxxxxxxxxxxxxxxxxxxxxxxxxxxxxxxxxxxzzxxxxxxxxxxxxxxxxxxxxxxxxxxxxxxxxxxxxxxxxxxxxxxxxxxxxxxxxxxxxxxxxxxxxxxxxxxxxxxxxxx K
b0xxx0xxxxxxxxxxxxxxxxxxxxxxxxxxxxxxxxxxxxxxxxxxxxxxxxxxxxxxxxxxxxxxxxxxxxxxxxxxxxxzzxxxxxxxxxxxxxxxxxxxxxxxxxxxxxxxxxxxxxxxxxxxxxxxxxxxxxxxxxxxxxxxxxxxxxxxxxxxxxxxxxx b
b1100000000010000111100000000010001000000000001 *
b1100000000010000111100000000010001000000000001 I
b1100000000010000111100000000010001000000000001 o
b100000 :"
1!
#30
0!
#40
06
b100010000000000010000000000 D
b100010000000000010000000000 P
b100010000000000010000000000 ^
bx @
bx n
bx '"
b0 :
b0 a
b0 Q"
b100010000000000010000000000 >
b100010000000000010000000000 N
b100010000000000010000000000 B"
b0zz00 ?
b0zz00 _
b0zz00 >"
bx 9
bx m
bx /"
bx F
bx ("
bx 0"
bx 2"
b11 M
b110000 R
b10 E
b10 O
b10 S
b0zz0000011110000 A
b0zz0000011110000 z
b0zz0000011110000 &"
b0zz0000011110000 @"
b100010000000000010000000000 W
b100000100zz0000011110000 V
0\
0U
1X
1]
0Z
0[
b0 T
b110000 P"
b100010000000000010000000000 O"
b0 N"
b0 x
b0 L
0?"
b100010000000000010000000000 A"
b0 Q
0$"
b0zz0000011110000 %"
1;"
b0zz00 <"
b10 ="
b0xxx q
bx |
0H"
bx00 G"
0C"
03"
b100000100zz00000111100000000010001000000000001000000000000000000000000000000000000000000000000000000000000000000000000000011000000000100 J
b100000100zz00000111100000000010001000000000001000000000000000000000000000000000000000000000000000000000000000000000000000011000000000100 l
b0xxxxxxxxxxxxxxxxxxxxxxxxxxxxxxxxxxxxxxxxxxxxxxxxxxxxxxxxxxxxxxxxxxxxxxxxxxxxxxxxxxxxzzxxxxxxxxxxxxxxxxxxxxxxxxxxxxxxxxxxxxxxxxxxxxxxxxxxxxxxxxxxxxxxxxxxxxxxxxxxxxxxxxxx K
b0xxxxxxxxxxxxxxxxxxxxxxxxxxxxxxxxxxxxxxxxxxxxxxxxxxxxxxxxxxxxxxxxxxxxxxxxxxxxxxxxxxxxzzxxxxxxxxxxxxxxxxxxxxxxxxxxxxxxxxxxxxxxxxxxxxxxxxxxxxxxxxxxxxxxxxxxxxxxxxxxxxxxxxxx b
bx00000 H
bx00000 w
1!
#50
0!
#60
b100 B
b100 v
b100 ""
b10000000001000100000000000100000 G
b10000000001000100000000000100000 -"
b10000000001000100000000000100000 1"
bx 7
bx j
bx 6"
bx 8
bx k
bx 7"
xH"
xC"
x3"
b0 q
bx000000000000000000000000000 p
b11000000000100010000000000010000 r
0t
0s
0u
0}
z!"
b0 ~
b1100xxxxxxxxxxxxxxxxxxxxxxxxxxx |
bx000000000000000000000000000 {
b100000100zz00000111 *"
b10000000001000100000000000100000 +"
b10001000000000001000000 )"
bx i
bx f
bx 5"
bx 4"
bx /
bx00xxx H
bx00xxx w
b1100xxxxxxxxxxxxxxxxxxxxxxxxxxxxxxxx00000000000000000000000000000000000100000100zz000001111000000000100010000000000010000000000000001000100000000000100000000000zz00 K
b1100xxxxxxxxxxxxxxxxxxxxxxxxxxxxxxxx00000000000000000000000000000000000100000100zz000001111000000000100010000000000010000000000000001000100000000000100000000000zz00 b
bx *
bx I
bx o
1!
#70
0!
#80
b10001000000000001000000 <
b10001000000000001000000 9"
b10001000000000001000000 J"
b100000000010010000000000000001 @
b100000000010010000000000000001 n
b100000000010010000000000000001 '"
bx :
bx a
bx Q"
bx >
bx N
bx B"
b10 ?
b10 _
b10 >"
b10001000000000001000000 =
b10001000000000001000000 F"
b10001000000000001000000 I"
b10000000001000100000000000100100 9
b10000000001000100000000000100100 m
b10000000001000100000000000100100 /"
b10000000001000100000000000100000 F
b10000000001000100000000000100000 ("
b10000000001000100000000000100000 0"
b10000000001000100000000000100000 2"
x6
b0xxxx M
bx R
bx D
bx P
bx ^
b0zz000xxxxxxxxxx A
b0zz000xxxxxxxxxx z
b0zz000xxxxxxxxxx &"
b0zz000xxxxxxxxxx @"
bx W
b100000100zz000xxxxxxxxxx V
x\
xU
xX
x]
xZ
x[
bx T
bx P"
bx O"
bx N"
bx x
bx L
x?"
bx A"
bx Q
x$"
b0zz000xxxxxxxxxx %"
x;"
0H"
bx00000000000000000000000000000 G"
0C"
b10001000000000001000000 D"
b100xx E"
03"
b100000100zz000xxxxxxxxxxxxxxxxxxxxxxxxxxxxxxxxxxxxxxxxxxxxxxxxxxxxxxxxxxxxxxxxxxxxxxxxxxxxxxxxxxxxxxxxxxxxxxxxxxxxxxxxxxxxxxxxxxxxxxxxxx J
b100000100zz000xxxxxxxxxxxxxxxxxxxxxxxxxxxxxxxxxxxxxxxxxxxxxxxxxxxxxxxxxxxxxxxxxxxxxxxxxxxxxxxxxxxxxxxxxxxxxxxxxxxxxxxxxxxxxxxxxxxxxxxxxx l
b1100000000010001000000000001000000000000000000000000000000000100xxxxx00000000000000000000000000000000 H
b1100000000010001000000000001000000000000000000000000000000000100xxxxx00000000000000000000000000000000 w
1!
#90
0!
#100
b0xxxxxxxx B
b0xxxxxxxx v
b0xxxxxxxx ""
bx G
bx -"
bx 1"
b0 7
b0 j
b0 6"
b0 8
b0 k
b0 7"
b10 (
b10 2
b10 5
b10 Y
b10 g
0$
1&
1-
b0 .
b0 0
b0 3
b0 c
b0xxx q
bx p
bx r
xt
xu
x}
0!"
b10 ~
bx |
bx {
bx00100000100zz000xxxxx *"
bx +"
bx )"
b1000100000000000100100 i
b100000000010010000000000000001 f
b10 5"
b1 4"
b100000 /
b0xxxxxxxxxxxxxxxxxxxxxxxxxxxxxxxxxxxxxxxxxxxxxxxxxxxxxxxxxxxxxxxxxxxxxxxxx00100000100zz000xxxxxxxxxxxxxxxxxxxxxxxxxxxxxxxxxxxxxxxxxxxxxxxxxxxxxxxxxxxxxxxxxxxxxxxxxx00010 K
b0xxxxxxxxxxxxxxxxxxxxxxxxxxxxxxxxxxxxxxxxxxxxxxxxxxxxxxxxxxxxxxxxxxxxxxxxx00100000100zz000xxxxxxxxxxxxxxxxxxxxxxxxxxxxxxxxxxxxxxxxxxxxxxxxxxxxxxxxxxxxxxxxxxxxxxxxxx00010 b
b1000000000100010000000000010010000100000000010010000000000000001 *
b1000000000100010000000000010010000100000000010010000000000000001 I
b1000000000100010000000000010010000100000000010010000000000000001 o
1!
#110
0!
#120
bx00 <
bx00 9"
bx00 J"
06
b100100000000000000010000000000 D
b100100000000000000010000000000 P
b100100000000000000010000000000 ^
bx @
bx n
bx '"
b100010 :
b100010 a
b100010 Q"
b100100000000000000010000000000 >
b100100000000000000010000000000 N
b100100000000000000010000000000 B"
b0zz00 ?
b0zz00 _
b0zz00 >"
bx00 =
bx00 F"
bx00 I"
bx 9
bx m
bx /"
bx F
bx ("
bx 0"
bx 2"
b10 M
b0 R
b0zz0000010000000 A
b0zz0000010000000 z
b0zz0000010000000 &"
b0zz0000010000000 @"
b100100000000000000010000000000 W
b10000100000zz0000010000000 V
0\
0U
0X
0]
0Z
1[
b0 T
b0 P"
b100100000000000000010000000000 O"
b100010 N"
b100010 x
b0 L
0?"
b100100000000000000010000000000 A"
b0 Q
0$"
b0zz0000010000000 %"
1;"
b10000 ="
b10xxx q
xH"
bx00 G"
xC"
bx00 D"
b0xxxxxxxxxx E"
x3"
b10000100000zz00000100000000010010000000000000001000000000000000000000000000000000000000000000000000000000000000000001000100000000000100100 J
b10000100000zz00000100000000010010000000000000001000000000000000000000000000000000000000000000000000000000000000000001000100000000000100100 l
b10xxxxxxxxxxxxxxxxxxxxxxxxxxxxxxxxxxxxxxxxxxxxxxxxxxxxxxxxxxxxxxxxxxxxxxxxx00100000100zz000xxxxxxxxxxxxxxxxxxxxxxxxxxxxxxxxxxxxxxxxxxxxxxxxxxxxxxxxxxxxxxxxxxxxxxxxxx00010 K
b10xxxxxxxxxxxxxxxxxxxxxxxxxxxxxxxxxxxxxxxxxxxxxxxxxxxxxxxxxxxxxxxxxxxxxxxxx00100000100zz000xxxxxxxxxxxxxxxxxxxxxxxxxxxxxxxxxxxxxxxxxxxxxxxxxxxxxxxxxxxxxxxxxxxxxxxxxx00010 b
bx0xxxxxxxxxxxxxxxxxxxxxxxxxxxxxxxxx000000000000000000000000xxxxxxxxxxxxxxxxxxxxxxxxxxxxxxxxxxxxxxxx00xxx H
bx0xxxxxxxxxxxxxxxxxxxxxxxxxxxxxxxxx000000000000000000000000xxxxxxxxxxxxxxxxxxxxxxxxxxxxxxxxxxxxxxxx00xxx w
1!
#130
0!
#140
b100 B
b100 v
b100 ""
b1001000000000000000100000 G
b1001000000000000000100000 -"
b1001000000000000000100000 1"
bx 7
bx j
bx 6"
bx 8
bx k
bx 7"
bx10 G"
b10001 q
bx000000000000000000000000000 p
b100100000000000000010000 r
0t
0u
0}
z!"
b0 ~
b0xxxxxxxxxxxxxxxxxxxxxxxxxxx |
bx000000000000000000000000000 {
b1010000100000zz00000100 *"
b1001000000000000000100000 +"
b10010000000000000001000000 )"
bx i
bx f
bx 5"
bx 4"
bx /
bx0xxxxxxxxxxxxxxxxxxxxxxxxxxxxxxxxx000000000000000000000000xxxxxxxxxxxxxxxxxxxxxxxxxxxxxxxxxxxxxxxx10xxx H
bx0xxxxxxxxxxxxxxxxxxxxxxxxxxxxxxxxx000000000000000000000000xxxxxxxxxxxxxxxxxxxxxxxxxxxxxxxxxxxxxxxx10xxx w
b1000100000xxxxxxxxxxxxxxxxxxxxxxxxxxxxxxxx00000000000000000000000000010001010000100000zz000001000000000100100000000000000010000000000001001000000000000000100000000000zz00 K
b1000100000xxxxxxxxxxxxxxxxxxxxxxxxxxxxxxxx00000000000000000000000000010001010000100000zz000001000000000100100000000000000010000000000001001000000000000000100000000000zz00 b
bx *
bx I
bx o
1!
#150
0!
#160
b10010000000000000001000000 <
b10010000000000000001000000 9"
b10010000000000000001000000 J"
b100000000010010000000000000001 @
b100000000010010000000000000001 n
b100000000010010000000000000001 '"
bx :
bx a
bx Q"
bx >
bx N
bx B"
b10000 ?
b10000 _
b10000 >"
b10010000000000000001000000 =
b10010000000000000001000000 F"
b10010000000000000001000000 I"
b1001000000000000000100100 9
b1001000000000000000100100 m
b1001000000000000000100100 /"
b1001000000000000000100000 F
b1001000000000000000100000 ("
b1001000000000000000100000 0"
b1001000000000000000100000 2"
x6
b0xxxx M
bx R
bx D
bx P
bx ^
b0zz000xxxxxxxxxx A
b0zz000xxxxxxxxxx z
b0zz000xxxxxxxxxx &"
b0zz000xxxxxxxxxx @"
bx W
b10000100000zz000xxxxxxxxxx V
x\
xU
xX
x]
xZ
x[
bx T
bx P"
bx O"
bx N"
bx x
bx L
x?"
bx A"
bx Q
x$"
b0zz000xxxxxxxxxx %"
x;"
0H"
bx00000000000000000000000000010 G"
0C"
b10010000000000000001000000 D"
b100xx E"
13"
b10000100000zz000xxxxxxxxxxxxxxxxxxxxxxxxxxxxxxxxxxxxxxxxxxxxxxxxxxxxxxxxxxxxxxxxxxxxxxxxxxxxxxxxxxxxxxxxxxxxxxxxxxxxxxxxxxxxxxxxxxxxxxxxxx J
b10000100000zz000xxxxxxxxxxxxxxxxxxxxxxxxxxxxxxxxxxxxxxxxxxxxxxxxxxxxxxxxxxxxxxxxxxxxxxxxxxxxxxxxxxxxxxxxxxxxxxxxxxxxxxxxxxxxxxxxxxxxxxxxxx l
b10010000000000000001000000000000000000000000000000000100xxxxx00000000000000000000000000010001 H
b10010000000000000001000000000000000000000000000000000100xxxxx00000000000000000000000000010001 w
1!
#170
0!
#180
bx B
bx v
bx ""
bx G
bx -"
bx 1"
b0 7
b0 j
b0 6"
b0 8
b0 k
b0 7"
b0 (
b0 2
b0 5
b0 Y
b0 g
1$
0&
0-
b10 .
b10 0
b10 3
b10 c
b10xxx q
bx p
bx r
xt
1s
xu
x}
0!"
bx |
bx {
bx10000100000zz000xxxxx *"
bx +"
bx )"
b1001000000000000000100100 i
b100000000010010000000000000001 f
b0 5"
b1001 4"
b0 /
b10xxxxxxxxxxxxxxxxxxxxxxxxxxxxxxxxxxxxxxxxxxxxxxxxxxxxxxxxxxxxxxxxxxxxxxxxx10000100000zz000xxxxxxxxxxxxxxxxxxxxxxxxxxxxxxxxxxxxxxxxxxxxxxxxxxxxxxxxxxxxxxxxxxxxxxxxxx10000 K
b10xxxxxxxxxxxxxxxxxxxxxxxxxxxxxxxxxxxxxxxxxxxxxxxxxxxxxxxxxxxxxxxxxxxxxxxxx10000100000zz000xxxxxxxxxxxxxxxxxxxxxxxxxxxxxxxxxxxxxxxxxxxxxxxxxxxxxxxxxxxxxxxxxxxxxxxxxx10000 b
b100100000000000000010010000100000000010010000000000000001 *
b100100000000000000010010000100000000010010000000000000001 I
b100100000000000000010010000100000000010010000000000000001 o
1!
#190
0!
#200
bx <
bx 9"
bx J"
06
b100100000000000000010000000000 D
b100100000000000000010000000000 P
b100100000000000000010000000000 ^
bx @
bx n
bx '"
b100100000 :
b100100000 a
b100100000 Q"
b100100000000000000010000000000 >
b100100000000000000010000000000 N
b100100000000000000010000000000 B"
b0zz00 ?
b0zz00 _
b0zz00 >"
bx =
bx F"
bx I"
bx 9
bx m
bx /"
bx F
bx ("
bx 0"
bx 2"
b10 M
b0 R
b0zz0000010000000 A
b0zz0000010000000 z
b0zz0000010000000 &"
b0zz0000010000000 @"
b100100000000000000010000000000 W
b100000100zz0000010000000 V
0\
0U
0X
0]
0Z
1[
b0 T
b0 P"
b100100000000000000010000000000 O"
b100100000 N"
b100100000 x
b0 L
0?"
b100100000000000000010000000000 A"
b0 Q
0$"
b0zz0000010000000 %"
1;"
b10 ="
b0xxx q
xH"
bx10 G"
xC"
bx D"
bx E"
x3"
b100000100zz00000100000000010010000000000000001000000000000000000000000000000000000000000000000000000000000000001001000000000000000100100 J
b100000100zz00000100000000010010000000000000001000000000000000000000000000000000000000000000000000000000000000001001000000000000000100100 l
b0xxxxxxxxxxxxxxxxxxxxxxxxxxxxxxxxxxxxxxxxxxxxxxxxxxxxxxxxxxxxxxxxxxxxxxxxx10000100000zz000xxxxxxxxxxxxxxxxxxxxxxxxxxxxxxxxxxxxxxxxxxxxxxxxxxxxxxxxxxxxxxxxxxxxxxxxxx10000 K
b0xxxxxxxxxxxxxxxxxxxxxxxxxxxxxxxxxxxxxxxxxxxxxxxxxxxxxxxxxxxxxxxxxxxxxxxxx10000100000zz000xxxxxxxxxxxxxxxxxxxxxxxxxxxxxxxxxxxxxxxxxxxxxxxxxxxxxxxxxxxxxxxxxxxxxxxxxx10000 b
bx1xxxxxxxxxxxxxxxxxxxxxxxxxxxxxxxxxxxxxxxxxxxxxxxxxxxxxxxxxxxxxxxxxxxxxxxxxxxxxxxxxxxxxxxxxxxxxxxxx10xxx H
bx1xxxxxxxxxxxxxxxxxxxxxxxxxxxxxxxxxxxxxxxxxxxxxxxxxxxxxxxxxxxxxxxxxxxxxxxxxxxxxxxxxxxxxxxxxxxxxxxxx10xxx w
1!
#210
0!
#220
b11 B
b11 v
b11 ""
b1001000000000000000100000 G
b1001000000000000000100000 -"
b1001000000000000000100000 1"
bx 7
bx j
bx 6"
bx 8
bx k
bx 7"
bx00 G"
b1 q
bx000000000000000000000000100 p
b100100000000000000010000 r
0t
0s
0u
0}
z!"
b0xxxxxxxxxxxxxxxxxxxxxxxxxxx |
bx000000000000000000000000100 {
b100000100zz00000100 *"
b1001000000000000000100000 +"
b10010000000000000001000000 )"
bx i
bx f
bx 5"
bx 4"
bx /
bx1xxxxxxxxxxxxxxxxxxxxxxxxxxxxxxxxxxxxxxxxxxxxxxxxxxxxxxxxxxxxxxxxxxxxxxxxxxxxxxxxxxxxxxxxxxxxxxxxx00xxx H
bx1xxxxxxxxxxxxxxxxxxxxxxxxxxxxxxxxxxxxxxxxxxxxxxxxxxxxxxxxxxxxxxxxxxxxxxxxxxxxxxxxxxxxxxxxxxxxxxxxx00xxx w
b100000xxxxxxxxxxxxxxxxxxxxxxxxxxxxxxxx00000000000000000000000010010000000100000100zz000001000000000100100000000000000010000000000001001000000000000000100000000000zz00 K
b100000xxxxxxxxxxxxxxxxxxxxxxxxxxxxxxxx00000000000000000000000010010000000100000100zz000001000000000100100000000000000010000000000001001000000000000000100000000000zz00 b
bx *
bx I
bx o
1!
#230
0!
#240
b10010000000000000001000000 <
b10010000000000000001000000 9"
b10010000000000000001000000 J"
b100000000010010000000000000001 @
b100000000010010000000000000001 n
b100000000010010000000000000001 '"
bx :
bx a
bx Q"
bx >
bx N
bx B"
b10 ?
b10 _
b10 >"
b10010000000000000001000000 =
b10010000000000000001000000 F"
b10010000000000000001000000 I"
b1001000000000000000100100 9
b1001000000000000000100100 m
b1001000000000000000100100 /"
b1001000000000000000100000 F
b1001000000000000000100000 ("
b1001000000000000000100000 0"
b1001000000000000000100000 2"
x6
b0xxxx M
bx R
bx D
bx P
bx ^
b0zz000xxxxxxxxxx A
b0zz000xxxxxxxxxx z
b0zz000xxxxxxxxxx &"
b0zz000xxxxxxxxxx @"
bx W
b100000100zz000xxxxxxxxxx V
x\
xU
xX
x]
xZ
x[
bx T
bx P"
bx O"
bx N"
bx x
bx L
x?"
bx A"
bx Q
x$"
b0zz000xxxxxxxxxx %"
x;"
0H"
bx00000000000000000000000010000 G"
0C"
b10010000000000000001000000 D"
b11xx E"
13"
b100000100zz000xxxxxxxxxxxxxxxxxxxxxxxxxxxxxxxxxxxxxxxxxxxxxxxxxxxxxxxxxxxxxxxxxxxxxxxxxxxxxxxxxxxxxxxxxxxxxxxxxxxxxxxxxxxxxxxxxxxxxxxxxx J
b100000100zz000xxxxxxxxxxxxxxxxxxxxxxxxxxxxxxxxxxxxxxxxxxxxxxxxxxxxxxxxxxxxxxxxxxxxxxxxxxxxxxxxxxxxxxxxxxxxxxxxxxxxxxxxxxxxxxxxxxxxxxxxxx l
b10010000000000000001000000000000000000000000000000000011xxxxx00000000000000000000000010000001 H
b10010000000000000001000000000000000000000000000000000011xxxxx00000000000000000000000010000001 w
1!
#250
0!
