multistage_pipeline/wave.vcd
$date
	Thu May 13 01:59:11 2021
$end
$version
	Icarus Verilog
$end
$timescale
	10ns
$end
$scope module test $end
$var reg 1 ! clock $end
$var reg 1 " reset $end
$scope module MIPS $end
$var wire 1 ! clock $end
$var wire 1 " reset $end
$var wire 1 # RegWrite $end
$var wire 1 $ RegDst $end
$var wire 1 % PctoReg $end
$var wire 1 & MemtoReg $end
$var wire 1 ' MemWrite $end
$var wire 2 ( LS_bit [1:0] $end
$var wire 1 ) Jump $end
$var wire 32 * IF_ID_im_out [31:0] $end
$var wire 1 + Ext_op $end
$var wire 2 , Branch [1:0] $end
$var wire 1 - ALUSrc $end
$var wire 4 . ALUOp [3:0] $end
$scope module Controller $end
$var wire 6 / opcode [5:0] $end
$var reg 4 0 ALUOp [3:0] $end
$var reg 1 - ALUSrc $end
$var reg 2 1 Branch [1:0] $end
$var reg 1 + Ext_op $end
$var reg 1 ) Jump $end
$var reg 2 2 LS_bit [1:0] $end
$var reg 1 ' MemWrite $end
$var reg 1 & MemtoReg $end
$var reg 1 % PctoReg $end
$var reg 1 $ RegDst $end
$var reg 1 # RegWrite $end
$upscope $end
$scope module DataPath $end
$var wire 4 3 ALUOp [3:0] $end
$var wire 1 - ALUSrc $end
$var wire 2 4 Branch [1:0] $end
$var wire 1 + Ext_op $end
$var wire 1 ) Jump $end
$var wire 2 5 LS_bit [1:0] $end
$var wire 1 ' MemWrite $end
$var wire 1 & MemtoReg $end
$var wire 1 % PctoReg $end
$var wire 1 $ RegDst $end
$var wire 1 # RegWrite $end
$var wire 1 ! clock $end
$var wire 1 " reset $end
$var wire 1 6 zero $end
$var wire 32 7 regfile_out2 [31:0] $end
$var wire 32 8 regfile_out1 [31:0] $end
$var wire 32 9 pc_add_out [31:0] $end
$var wire 32 : mux6_out [31:0] $end
$var wire 5 ; mux5_out [4:0] $end
$var wire 32 < mux4_out [31:0] $end
$var wire 32 = mux3_out [31:0] $end
$var wire 32 > mux2_out [31:0] $end
$var wire 5 ? mux1_out [4:0] $end
$var wire 32 @ instruction [31:0] $end
$var wire 32 A ext_out [31:0] $end
$var wire 32 B dm_out [31:0] $end
$var wire 32 C branch_add_out [31:0] $end
$var wire 32 D alu_out [31:0] $end
$var wire 4 E alu_ctrl_out [3:0] $end
$var wire 32 F PC [31:0] $end
$var wire 32 G NPC [31:0] $end
$var wire 32 H MEM_WB_pc_add_out [31:0] $end
$var wire 5 I MEM_WB_mux1_out [4:0] $end
$var wire 32 J MEM_WB_dm_out [31:0] $end
$var wire 32 K MEM_WB_alu_out [31:0] $end
$var wire 1 L MEM_WB_RegWrite $end
$var wire 1 M MEM_WB_PctoReg $end
$var wire 1 N MEM_WB_MemtoReg $end
$var wire 32 O IF_ID_pc_add_out [31:0] $end
$var wire 32 P IF_ID_im_out [31:0] $end
$var wire 32 Q ID_EX_regfile_out2 [31:0] $end
$var wire 32 R ID_EX_regfile_out1 [31:0] $end
$var wire 32 S ID_EX_pc_add_out [31:0] $end
$var wire 26 T ID_EX_instr26 [25:0] $end
$var wire 1 U ID_EX_RegWrite $end
$var wire 1 V ID_EX_RegDst $end
$var wire 1 W ID_EX_PctoReg $end
$var wire 1 X ID_EX_MemtoReg $end
$var wire 1 Y ID_EX_MemWrite $end
$var wire 2 Z ID_EX_LS_bit [1:0] $end
$var wire 1 [ ID_EX_Jump $end
$var wire 1 \ ID_EX_Ext_op $end
$var wire 2 ] ID_EX_Branch [1:0] $end
$var wire 1 ^ ID_EX_ALUSrc $end
$var wire 4 _ ID_EX_ALUOp [3:0] $end
$var wire 1 ` EX_MEM_zero $end
$var wire 32 a EX_MEM_regfile_out2 [31:0] $end
$var wire 32 b EX_MEM_pc_add_out [31:0] $end
$var wire 5 c EX_MEM_mux1_out [4:0] $end
$var wire 26 d EX_MEM_instr26 [25:0] $end
$var wire 32 e EX_MEM_branch_add_out [31:0] $end
$var wire 32 f EX_MEM_alu_out [31:0] $end
$var wire 1 g EX_MEM_RegWrite $end
$var wire 1 h EX_MEM_PctoReg $end
$var wire 1 i EX_MEM_MemtoReg $end
$var wire 1 j EX_MEM_MemWrite $end
$var wire 2 k EX_MEM_LS_bit [1:0] $end
$var wire 1 l EX_MEM_Jump $end
$var wire 1 m EX_MEM_Ext_op $end
$var wire 2 n EX_MEM_Branch [1:0] $end
$scope module u_EX_MEM $end
$var wire 2 o LS_bit [1:0] $end
$var wire 1 ! clock $end
$var wire 1 " reset $end
$var wire 1 6 zero $end
$var wire 5 p mux1_out [4:0] $end
$var wire 32 q branch_add_out [31:0] $end
$var wire 32 r alu_out [31:0] $end
$var wire 1 U RegWrite $end
$var wire 1 W PctoReg $end
$var wire 1 X MemtoReg $end
$var wire 1 Y MemWrite $end
$var wire 1 [ Jump $end
$var wire 32 s ID_EX_regfile_out2 [31:0] $end
$var wire 32 t ID_EX_pc_add_out [31:0] $end
$var wire 26 u ID_EX_instr26 [25:0] $end
$var wire 1 \ Ext_op $end
$var wire 2 v Branch [1:0] $end
$var reg 2 w EX_MEM_Branch [1:0] $end
$var reg 1 m EX_MEM_Ext_op $end
$var reg 1 l EX_MEM_Jump $end
$var reg 2 x EX_MEM_LS_bit [1:0] $end
$var reg 1 j EX_MEM_MemWrite $end
$var reg 1 i EX_MEM_MemtoReg $end
$var reg 1 h EX_MEM_PctoReg $end
$var reg 1 g EX_MEM_RegWrite $end
$var reg 32 y EX_MEM_alu_out [31:0] $end
$var reg 32 z EX_MEM_branch_add_out [31:0] $end
$var reg 26 { EX_MEM_instr26 [25:0] $end
$var reg 5 | EX_MEM_mux1_out [4:0] $end
$var reg 32 } EX_MEM_pc_add_out [31:0] $end
$var reg 32 ~ EX_MEM_regfile_out2 [31:0] $end
$var reg 1 ` EX_MEM_zero $end
$upscope $end
$scope module u_Ext $end
$var wire 16 !" input_num [15:0] $end
$var wire 1 \ Ext_op $end
$var reg 32 "" output_num [31:0] $end
$upscope $end
$scope module u_ID_EX $end
$var wire 4 #" ALUOp [3:0] $end
$var wire 1 - ALUSrc $end
$var wire 2 $" Branch [1:0] $end
$var wire 1 + Ext_op $end
$var wire 1 ) Jump $end
$var wire 2 %" LS_bit [1:0] $end
$var wire 1 ' MemWrite $end
$var wire 1 & MemtoReg $end
$var wire 1 % PctoReg $end
$var wire 1 $ RegDst $end
$var wire 1 # RegWrite $end
$var wire 1 ! clock $end
$var wire 26 &" instr26 [25:0] $end
$var wire 1 " reset $end
$var wire 32 '" regfile_out2 [31:0] $end
$var wire 32 (" regfile_out1 [31:0] $end
$var wire 32 )" IF_ID_pc_add_out [31:0] $end
$var reg 4 *" ID_EX_ALUOp [3:0] $end
$var reg 1 ^ ID_EX_ALUSrc $end
$var reg 2 +" ID_EX_Branch [1:0] $end
$var reg 1 \ ID_EX_Ext_op $end
$var reg 1 [ ID_EX_Jump $end
$var reg 2 ," ID_EX_LS_bit [1:0] $end
$var reg 1 Y ID_EX_MemWrite $end
$var reg 1 X ID_EX_MemtoReg $end
$var reg 1 W ID_EX_PctoReg $end
$var reg 1 V ID_EX_RegDst $end
$var reg 1 U ID_EX_RegWrite $end
$var reg 26 -" ID_EX_instr26 [25:0] $end
$var reg 32 ." ID_EX_pc_add_out [31:0] $end
$var reg 32 /" ID_EX_regfile_out1 [31:0] $end
$var reg 32 0" ID_EX_regfile_out2 [31:0] $end
$upscope $end
$scope module u_IF_ID $end
$var wire 1 ! clock $end
$var wire 32 1" pc_add_out [31:0] $end
$var wire 32 2" im_out [31:0] $end
$var reg 32 3" IF_ID_im_out [31:0] $end
$var reg 32 4" IF_ID_pc_add_out [31:0] $end
$upscope $end
$scope module u_MEM_WB $end
$var wire 32 5" EX_MEM_alu_out [31:0] $end
$var wire 5 6" EX_MEM_mux1_out [4:0] $end
$var wire 32 7" EX_MEM_pc_add_out [31:0] $end
$var wire 1 i MemtoReg $end
$var wire 1 h PctoReg $end
$var wire 1 g RegWrite $end
$var wire 1 ! clock $end
$var wire 1 " reset $end
$var wire 32 8" dm_out [31:0] $end
$var reg 1 N MEM_WB_MemtoReg $end
$var reg 1 M MEM_WB_PctoReg $end
$var reg 1 L MEM_WB_RegWrite $end
$var reg 32 9" MEM_WB_alu_out [31:0] $end
$var reg 32 :" MEM_WB_dm_out [31:0] $end
$var reg 5 ;" MEM_WB_mux1_out [4:0] $end
$var reg 32 <" MEM_WB_pc_add_out [31:0] $end
$upscope $end
$scope module u_alu $end
$var wire 32 =" op_num1 [31:0] $end
$var wire 5 >" shamt [4:0] $end
$var wire 1 6 zero $end
$var wire 32 ?" op_num2 [31:0] $end
$var wire 4 @" alu_ctrl_out [3:0] $end
$var reg 32 A" alu_out [31:0] $end
$upscope $end
$scope module u_alu_ctrl $end
$var wire 4 B" ALUOp [3:0] $end
$var wire 6 C" funct [5:0] $end
$var reg 4 D" alu_ctrl_out [3:0] $end
$upscope $end
$scope module u_branch_add $end
$var wire 32 E" Ext_out [31:0] $end
$var wire 32 F" ID_EX_pc_add_out [31:0] $end
$var wire 32 G" branch_add_out [31:0] $end
$upscope $end
$scope module u_dm_4k $end
$var wire 32 H" EX_MEM_alu_out [31:0] $end
$var wire 32 I" EX_MEM_regfile_out2 [31:0] $end
$var wire 1 m Ext_op $end
$var wire 2 J" LS_bit [1:0] $end
$var wire 1 j MemWrite $end
$var wire 1 ! clock $end
$var reg 32 K" dm_out [31:0] $end
$var reg 16 L" temp [15:0] $end
$upscope $end
$scope module u_im_4k $end
$var wire 32 M" out_instr [31:0] $end
$var wire 32 N" pc [31:0] $end
$upscope $end
$scope module u_mux1 $end
$var wire 1 V RegDst $end
$var wire 5 O" rd [4:0] $end
$var wire 5 P" rt [4:0] $end
$var reg 5 Q" DstReg [4:0] $end
$upscope $end
$scope module u_mux2 $end
$var wire 1 ^ ALUSrc $end
$var wire 32 R" Ext [31:0] $end
$var wire 32 S" out2 [31:0] $end
$var reg 32 T" DstData [31:0] $end
$upscope $end
$scope module u_mux3 $end
$var wire 1 N MemtoReg $end
$var wire 32 U" alu_out [31:0] $end
$var wire 32 V" dm_out [31:0] $end
$var reg 32 W" mux3_out [31:0] $end
$upscope $end
$scope module u_mux4 $end
$var wire 32 X" MEM_WB_pc_add_out [31:0] $end
$var wire 1 M PctoReg $end
$var wire 32 Y" mux3_out [31:0] $end
$var reg 32 Z" mux4_out [31:0] $end
$upscope $end
$scope module u_mux5 $end
$var wire 5 [" MEM_WB_mux1_out [4:0] $end
$var wire 1 % PctoReg $end
$var reg 5 \" mux5_out [4:0] $end
$upscope $end
$scope module u_mux6 $end
$var wire 32 ]" ID_EX_pc_add_out [31:0] $end
$var wire 32 ^" ID_EX_regfile_out1 [31:0] $end
$var wire 6 _" funct [5:0] $end
$var reg 32 `" mux6_out [31:0] $end
$upscope $end
$scope module u_npc $end
$var wire 32 a" EX_MEM_branch_add_out [31:0] $end
$var wire 26 b" EX_MEM_instr26 [25:0] $end
$var wire 1 l Jump $end
$var wire 2 c" branch [1:0] $end
$var wire 1 ` zero $end
$var wire 32 d" EX_MEM_pc_add_out [31:0] $end
$var reg 32 e" NPC [31:0] $end
$var reg 32 f" PC [31:0] $end
$upscope $end
$scope module u_pc $end
$var wire 32 g" NPC [31:0] $end
$var wire 1 ! clock $end
$var wire 1 " reset $end
$var reg 32 h" PC [31:0] $end
$upscope $end
$scope module u_pc_add $end
$var wire 32 i" PC [31:0] $end
$var wire 32 j" pc_add_out [31:0] $end
$upscope $end
$scope module u_regfile $end
$var wire 1 L RegWrite $end
$var wire 1 ! clock $end
$var wire 32 k" data [31:0] $end
$var wire 5 l" rd [4:0] $end
$var wire 1 " reset $end
$var wire 5 m" rs [4:0] $end
$var wire 5 n" rt [4:0] $end
$var wire 32 o" regfile_out2 [31:0] $end
$var wire 32 p" regfile_out1 [31:0] $end
$var integer 32 q" i [31:0] $end
$upscope $end
$upscope $end
$upscope $end
$upscope $end
$enddefinitions $end
#0
$dumpvars
b100000 q"
bx p"
bx o"
bx n"
bx m"
bx l"
bx k"
b11000000000100 j"
b11000000000000 i"
b11000000000000 h"
b11000000000100 g"
bx f"
b11000000000100 e"
b11000000000100 d"
bx c"
bx b"
bx a"
bx `"
bx _"
bx ^"
bx ]"
bx \"
bx ["
bx Z"
bx Y"
bx X"
bx W"
bx V"
bx U"
bx T"
bx S"
bx R"
bx Q"
bx P"
bx O"
b11000000000000 N"
b100000000100010000000000000001 M"
bx L"
bx K"
bx J"
bx I"
bx H"
bx G"
bx F"
bx E"
bx D"
bx C"
bx B"
bx A"
bx @"
bx ?"
bx >"
bx ="
bx <"
bx ;"
bx :"
bx 9"
bx 8"
bx 7"
bx 6"
bx 5"
bx 4"
bx 3"
b100000000100010000000000000001 2"
b11000000000100 1"
bx 0"
bx /"
bx ."
bx -"
bx ,"
bx +"
bx *"
bx )"
bx ("
bx '"
bx &"
bx %"
bx $"
bx #"
bx ""
bx !"
bx ~
bx }
bx |
bx {
bx z
bx y
bx x
bx w
bx v
bx u
bx t
bx s
bx r
bx q
bx p
bx o
bx n
xm
xl
bx k
xj
xi
xh
xg
bx f
bx e
bx d
bx c
bx b
bx a
x`
bx _
x^
bx ]
x\
x[
bx Z
xY
xX
xW
xV
xU
bx T
bx S
bx R
bx Q
bx P
bx O
xN
xM
xL
bx K
bx J
bx I
bx H
b11000000000100 G
b11000000000000 F
bx E
bx D
bx C
bx B
bx A
b100000000100010000000000000001 @
bx ?
bx >
bx =
bx <
bx ;
bx :
b11000000000100 9
bx 8
bx 7
x6
bx 5
bx 4
bx 3
bx 2
bx 1
bx 0
bx /
bx .
x-
bx ,
x+
bx *
x)
bx (
x'
x&
x%
x$
x#
1"
1!
$end
#10
0"
0!
#20
b0 7
b0 '"
b0 o"
b0 8
b0 ("
b0 p"
b0 (
b0 2
b0 5
b0 o
b0 %"
0$
b0 ,
b0 1
b0 4
b0 $"
0&
1-
b0 .
b0 0
b0 3
b0 #"
0'
1#
0)
0+
0%
b100010000000000000001 &"
b10001 n"
b0 m"
b1000 /
b11000000001000 G
b11000000001000 e"
b11000000001000 g"
b100000000100100000000000000010 @
b100000000100100000000000000010 2"
b100000000100100000000000000010 M"
b100000000100010000000000000001 *
b100000000100010000000000000001 P
b100000000100010000000000000001 3"
b11000000000100 O
b11000000000100 )"
b11000000000100 4"
b11000000001000 9
b11000000001000 1"
b11000000001000 d"
b11000000001000 j"
b11000000000100 F
b11000000000100 N"
b11000000000100 h"
b11000000000100 i"
1!
#30
0!
#40
06
b1 D
b1 r
b1 A"
b10001 ?
b10001 p
b10001 Q"
b1 >
b1 ?"
b1 T"
b11000000000100 :
b11000000000100 t
b11000000000100 `"
b11000000001000 C
b11000000001000 q
b11000000001000 G"
b0 >"
b1 C"
b100100000000000000010 &"
b10010 n"
b1 _"
b1 !"
b0 O"
b10001 P"
b1 A
b1 ""
b1 E"
b1 R"
b10 E
b10 @"
b10 D"
b11000000001100 G
b11000000001100 e"
b11000000001100 g"
b111100000000000000000000000000 @
b111100000000000000000000000000 2"
b111100000000000000000000000000 M"
b100000000100100000000000000010 *
b100000000100100000000000000010 P
b100000000100100000000000000010 3"
b11000000001000 O
b11000000001000 )"
b11000000001000 4"
b100010000000000000001 T
b100010000000000000001 u
b100010000000000000001 -"
b11000000000100 S
b11000000000100 ."
b11000000000100 F"
b11000000000100 ]"
b0 Q
b0 s
b0 0"
b0 S"
b0 R
b0 /"
b0 ="
b0 ^"
0W
0\
0[
1U
1^
0Y
b0 _
b0 *"
b0 B"
0X
b0 ]
b0 v
b0 +"
0V
b0 Z
b0 ,"
b0 k
b0 x
b0 J"
b11000000001100 9
b11000000001100 1"
b11000000001100 d"
b11000000001100 j"
b11000000001000 F
b11000000001000 N"
b11000000001000 h"
b11000000001000 i"
1!
#50
0!
#60
b10 D
b10 r
b10 A"
b10 >
b10 ?"
b10 T"
b10010 ?
b10010 p
b10010 Q"
b11000000001000 :
b11000000001000 t
b11000000001000 `"
b10 C"
b10 A
b10 ""
b10 E"
b10 R"
b11 .
b11 0
b11 3
b11 #"
b100 B
b100 8"
b100 K"
b10 _"
b10 !"
b10010 P"
b0 &"
b0 n"
b1111 /
b11000000010000 G
b11000000010000 e"
b11000000010000 g"
b10001 c
b10001 |
b10001 6"
b0 a
b0 ~
b0 I"
b1 f
b1 y
b1 5"
b1 H"
b100010000000000000001 d
b100010000000000000001 {
b100010000000000000001 b"
b11000000000100 b
b11000000000100 }
b11000000000100 7"
0`
b11000000001000 e
b11000000001000 z
b11000000001000 a"
0h
0m
0l
1g
0j
0i
b0 n
b0 w
b0 c"
b100100000000000000010 T
b100100000000000000010 u
b100100000000000000010 -"
b11000000010000 C
b11000000010000 q
b11000000010000 G"
b11000000001000 S
b11000000001000 ."
b11000000001000 F"
b11000000001000 ]"
b111100000000000000000000000000 *
b111100000000000000000000000000 P
b111100000000000000000000000000 3"
b11000000001100 O
b11000000001100 )"
b11000000001100 4"
b11000000010000 9
b11000000010000 1"
b11000000010000 d"
b11000000010000 j"
b11000000001100 F
b11000000001100 N"
b11000000001100 h"
b11000000001100 i"
1!
#70
0!
#80
b1 <
b1 Z"
b1 k"
16
b0 >
b0 ?"
b0 T"
b0 ?
b0 p
b0 Q"
b11000000001100 :
b11000000001100 t
b11000000001100 `"
b10001 ;
b10001 \"
b10001 l"
b1 =
b1 W"
b1 Y"
b0 C"
b0 A
b0 ""
b0 E"
b0 R"
b0 D
b0 r
b0 A"
b0 _"
b0 !"
b0 P"
b101 E
b101 @"
b101 D"
b11000000010100 G
b11000000010100 e"
b11000000010100 g"
b11000000010000 O
b11000000010000 )"
b11000000010000 4"
b0 T
b0 u
b0 -"
b11000000001100 C
b11000000001100 q
b11000000001100 G"
b11000000001100 S
b11000000001100 ."
b11000000001100 F"
b11000000001100 ]"
b11 _
b11 *"
b11 B"
b10010 c
b10010 |
b10010 6"
b10 f
b10 y
b10 5"
b10 H"
b100100000000000000010 d
b100100000000000000010 {
b100100000000000000010 b"
b11000000001000 b
b11000000001000 }
b11000000001000 7"
b11000000010000 e
b11000000010000 z
b11000000010000 a"
b10001 I
b10001 ;"
b10001 ["
b1 K
b1 9"
b1 U"
b100 J
b100 :"
b100 V"
b11000000000100 H
b11000000000100 <"
b11000000000100 X"
0M
0N
1L
b11000000010100 9
b11000000010100 1"
b11000000010100 d"
b11000000010100 j"
b11000000010000 F
b11000000010000 N"
b11000000010000 h"
b11000000010000 i"
1!
#90
0!
#100
b10 <
b10 Z"
b10 k"
b10010 ;
b10010 \"
b10010 l"
b10 =
b10 W"
b10 Y"
b11000000010000 :
b11000000010000 t
b11000000010000 `"
b11000000011000 G
b11000000011000 e"
b11000000011000 g"
b10010 I
b10010 ;"
b10010 ["
b10 K
b10 9"
b10 U"
b11000000001000 H
b11000000001000 <"
b11000000001000 X"
b0 c
b0 |
b0 6"
b0 f
b0 y
b0 5"
b0 H"
b0 d
b0 {
b0 b"
b11000000001100 b
b11000000001100 }
b11000000001100 7"
1`
b11000000001100 e
b11000000001100 z
b11000000001100 a"
b11000000010000 C
b11000000010000 q
b11000000010000 G"
b11000000010000 S
b11000000010000 ."
b11000000010000 F"
b11000000010000 ]"
b11000000010100 O
b11000000010100 )"
b11000000010100 4"
b11000000011000 9
b11000000011000 1"
b11000000011000 d"
b11000000011000 j"
b11000000010100 F
b11000000010100 N"
b11000000010100 h"
b11000000010100 i"
1!
#110
0!
#120
b0 <
b0 Z"
b0 k"
b11000000010100 :
b11000000010100 t
b11000000010100 `"
b0 ;
b0 \"
b0 l"
b0 =
b0 W"
b0 Y"
b11000000011100 G
b11000000011100 e"
b11000000011100 g"
b11000000011000 O
b11000000011000 )"
b11000000011000 4"
b11000000010100 C
b11000000010100 q
b11000000010100 G"
b11000000010100 S
b11000000010100 ."
b11000000010100 F"
b11000000010100 ]"
b11000000010000 b
b11000000010000 }
b11000000010000 7"
b11000000010000 e
b11000000010000 z
b11000000010000 a"
b0 I
b0 ;"
b0 ["
b0 K
b0 9"
b0 U"
b11000000001100 H
b11000000001100 <"
b11000000001100 X"
b11000000011100 9
b11000000011100 1"
b11000000011100 d"
b11000000011100 j"
b11000000011000 F
b11000000011000 N"
b11000000011000 h"
b11000000011000 i"
1!
#130
0!
#140
b11000000011000 :
b11000000011000 t
b11000000011000 `"
b11000000100000 G
b11000000100000 e"
b11000000100000 g"
b1000000100000000000000001111 @
b1000000100000000000000001111 2"
b1000000100000000000000001111 M"
b11000000010000 H
b11000000010000 <"
b11000000010000 X"
b11000000010100 b
b11000000010100 }
b11000000010100 7"
b11000000010100 e
b11000000010100 z
b11000000010100 a"
b11000000011000 C
b11000000011000 q
b11000000011000 G"
b11000000011000 S
b11000000011000 ."
b11000000011000 F"
b11000000011000 ]"
b11000000011100 O
b11000000011100 )"
b11000000011100 4"
b11000000100000 9
b11000000100000 1"
b11000000100000 d"
b11000000100000 j"
b11000000011100 F
b11000000011100 N"
b11000000011100 h"
b11000000011100 i"
1!
#150
0!
#160
b11000000011100 :
b11000000011100 t
b11000000011100 `"
0-
b0 .
b0 0
b0 3
b0 #"
0#
1)
b100000000000000001111 &"
b10000 n"
b10 /
b11000000100100 G
b11000000100100 e"
b11000000100100 g"
b111100000000000000000000000000 @
b111100000000000000000000000000 2"
b111100000000000000000000000000 M"
b1000000100000000000000001111 *
b1000000100000000000000001111 P
b1000000100000000000000001111 3"
b11000000100000 O
b11000000100000 )"
b11000000100000 4"
b11000000011100 C
b11000000011100 q
b11000000011100 G"
b11000000011100 S
b11000000011100 ."
b11000000011100 F"
b11000000011100 ]"
b11000000011000 b
b11000000011000 }
b11000000011000 7"
b11000000011000 e
b11000000011000 z
b11000000011000 a"
b11000000010100 H
b11000000010100 <"
b11000000010100 X"
b11000000100100 9
b11000000100100 1"
b11000000100100 d"
b11000000100100 j"
b11000000100000 F
b11000000100000 N"
b11000000100000 h"
b11000000100000 i"
1!
#170
0!
#180
b10000 ?
b10000 p
b10000 Q"
b11000000100000 :
b11000000100000 t
b11000000100000 `"
b1111 C"
b1111 A
b1111 ""
b1111 E"
b1111 R"
1-
b11 .
b11 0
b11 3
b11 #"
1#
0)
b1111 _"
b1111 !"
b10000 P"
b10 E
b10 @"
b10 D"
b0 &"
b0 n"
b1111 /
b11000000101000 G
b11000000101000 e"
b11000000101000 g"
b11000000011000 H
b11000000011000 <"
b11000000011000 X"
b11000000011100 b
b11000000011100 }
b11000000011100 7"
b11000000011100 e
b11000000011100 z
b11000000011100 a"
b100000000000000001111 T
b100000000000000001111 u
b100000000000000001111 -"
b11000001011100 C
b11000001011100 q
b11000001011100 G"
b11000000100000 S
b11000000100000 ."
b11000000100000 F"
b11000000100000 ]"
1[
0U
0^
b0 _
b0 *"
b0 B"
b111100000000000000000000000000 *
b111100000000000000000000000000 P
b111100000000000000000000000000 3"
b11000000100100 O
b11000000100100 )"
b11000000100100 4"
b11000000101000 9
b11000000101000 1"
b11000000101000 d"
b11000000101000 j"
b11000000100100 F
b11000000100100 N"
b11000000100100 h"
b11000000100100 i"
1!
#190
0!
#200
b0 ?
b0 p
b0 Q"
b11000000100100 :
b11000000100100 t
b11000000100100 `"
b0 >
b0 ?"
b0 T"
b0 C"
b0 A
b0 ""
b0 E"
b0 R"
b0 _"
b0 !"
b0 P"
b101 E
b101 @"
b101 D"
b10000000000000000111100 G
b10000000000000000111100 e"
b10000000000000000111100 g"
b11000000101000 f"
b11000000101000 O
b11000000101000 )"
b11000000101000 4"
b0 T
b0 u
b0 -"
b11000000100100 C
b11000000100100 q
b11000000100100 G"
b11000000100100 S
b11000000100100 ."
b11000000100100 F"
b11000000100100 ]"
0[
1U
1^
b11 _
b11 *"
b11 B"
b10000 c
b10000 |
b10000 6"
b100000000000000001111 d
b100000000000000001111 {
b100000000000000001111 b"
b11000000100000 b
b11000000100000 }
b11000000100000 7"
b11000001011100 e
b11000001011100 z
b11000001011100 a"
1l
0g
b11000000011100 H
b11000000011100 <"
b11000000011100 X"
b11000000101100 9
b11000000101100 1"
b11000000101100 d"
b11000000101100 j"
b11000000101000 F
b11000000101000 N"
b11000000101000 h"
b11000000101000 i"
1!
#210
0!
#220
b10000 ;
b10000 \"
b10000 l"
b11000000101000 :
b11000000101000 t
b11000000101000 `"
b10000000000000001000000 G
b10000000000000001000000 e"
b10000000000000001000000 g"
b100010001101000000000000000001 @
b100010001101000000000000000001 2"
b100010001101000000000000000001 M"
b10000 I
b10000 ;"
b10000 ["
b11000000100000 H
b11000000100000 <"
b11000000100000 X"
0L
b0 c
b0 |
b0 6"
b0 d
b0 {
b0 b"
b11000000100100 b
b11000000100100 }
b11000000100100 7"
b11000000100100 e
b11000000100100 z
b11000000100100 a"
0l
1g
b11000000101000 C
b11000000101000 q
b11000000101000 G"
b11000000101000 S
b11000000101000 ."
b11000000101000 F"
b11000000101000 ]"
b11000000101100 O
b11000000101100 )"
b11000000101100 4"
b10000000000000001000000 9
b10000000000000001000000 1"
b10000000000000001000000 d"
b10000000000000001000000 j"
b10000000000000000111100 F
b10000000000000000111100 N"
b10000000000000000111100 h"
b10000000000000000111100 i"
1!
#230
0!
#240
b11000000101100 :
b11000000101100 t
b11000000101100 `"
b0 ;
b0 \"
b0 l"
b1 8
b1 ("
b1 p"
b0 .
b0 0
b0 3
b0 #"
b10001101000000000000000001 &"
b10100 n"
b10001 m"
b1000 /
b10000000000000001000100 G
b10000000000000001000100 e"
b10000000000000001000100 g"
b1000000100000000000000001011 @
b1000000100000000000000001011 2"
b1000000100000000000000001011 M"
b100010001101000000000000000001 *
b100010001101000000000000000001 P
b100010001101000000000000000001 3"
b10000000000000001000000 O
b10000000000000001000000 )"
b10000000000000001000000 4"
b11000000101100 C
b11000000101100 q
b11000000101100 G"
b11000000101100 S
b11000000101100 ."
b11000000101100 F"
b11000000101100 ]"
b11000000101000 b
b11000000101000 }
b11000000101000 7"
b11000000101000 e
b11000000101000 z
b11000000101000 a"
b0 I
b0 ;"
b0 ["
b11000000100100 H
b11000000100100 <"
b11000000100100 X"
1L
b10000000000000001000100 9
b10000000000000001000100 1"
b10000000000000001000100 d"
b10000000000000001000100 j"
b10000000000000001000000 F
b10000000000000001000000 N"
b10000000000000001000000 h"
b10000000000000001000000 i"
1!
#250
0!
#260
b1 >
b1 ?"
b1 T"
b10100 ?
b10100 p
b10100 Q"
b10000000000000001000000 :
b10000000000000001000000 t
b10000000000000001000000 `"
b1 C"
06
b1 A
b1 ""
b1 E"
b1 R"
b0 8
b0 ("
b0 p"
0-
0#
1)
b1 _"
b1 !"
b10100 P"
b10 D
b10 r
b10 A"
b10 E
b10 @"
b10 D"
b100000000000000001011 &"
b10000 n"
b0 m"
b10 /
b10000000000000001001000 G
b10000000000000001001000 e"
b10000000000000001001000 g"
b100010001100010000000000000000 @
b100010001100010000000000000000 2"
b100010001100010000000000000000 M"
b11000000101000 H
b11000000101000 <"
b11000000101000 X"
b11000000101100 b
b11000000101100 }
b11000000101100 7"
b11000000101100 e
b11000000101100 z
b11000000101100 a"
b10001101000000000000000001 T
b10001101000000000000000001 u
b10001101000000000000000001 -"
b10000000000000001000100 C
b10000000000000001000100 q
b10000000000000001000100 G"
b10000000000000001000000 S
b10000000000000001000000 ."
b10000000000000001000000 F"
b10000000000000001000000 ]"
b1 R
b1 /"
b1 ="
b1 ^"
b0 _
b0 *"
b0 B"
b1000000100000000000000001011 *
b1000000100000000000000001011 P
b1000000100000000000000001011 3"
b10000000000000001000100 O
b10000000000000001000100 )"
b10000000000000001000100 4"
b10000000000000001001000 9
b10000000000000001001000 1"
b10000000000000001001000 d"
b10000000000000001001000 j"
b10000000000000001000100 F
b10000000000000001000100 N"
b10000000000000001000100 h"
b10000000000000001000100 i"
1!
#270
0!
#280
16
b10000 ?
b10000 p
b10000 Q"
b10000000000000001000100 :
b10000000000000001000100 t
b10000000000000001000100 `"
b0 >
b0 ?"
b0 T"
b1011 C"
b1 7
b1 '"
b1 o"
b1 8
b1 ("
b1 p"
1-
1#
0)
b1011 A
b1011 ""
b1011 E"
b1011 R"
b10001100010000000000000000 &"
b10001 n"
b10001 m"
b1000 /
b1011 _"
b1011 !"
b10000 P"
b0 D
b0 r
b0 A"
b10000000000000001001100 G
b10000000000000001001100 e"
b10000000000000001001100 g"
b100010001100010000000000000000 *
b100010001100010000000000000000 P
b100010001100010000000000000000 3"
b10000000000000001001000 O
b10000000000000001001000 )"
b10000000000000001001000 4"
b100000000000000001011 T
b100000000000000001011 u
b100000000000000001011 -"
b10000000000000001110000 C
b10000000000000001110000 q
b10000000000000001110000 G"
b10000000000000001000100 S
b10000000000000001000100 ."
b10000000000000001000100 F"
b10000000000000001000100 ]"
b0 R
b0 /"
b0 ="
b0 ^"
1[
0U
0^
b10100 c
b10100 |
b10100 6"
b10 f
b10 y
b10 5"
b10 H"
b10001101000000000000000001 d
b10001101000000000000000001 {
b10001101000000000000000001 b"
b10000000000000001000000 b
b10000000000000001000000 }
b10000000000000001000000 7"
0`
b10000000000000001000100 e
b10000000000000001000100 z
b10000000000000001000100 a"
b11000000101100 H
b11000000101100 <"
b11000000101100 X"
b10000000000000001001100 9
b10000000000000001001100 1"
b10000000000000001001100 d"
b10000000000000001001100 j"
b10000000000000001001000 F
b10000000000000001001000 N"
b10000000000000001001000 h"
b10000000000000001001000 i"
1!
#290
0!
