multistage_pipeline/wave.vcd
$date
	Thu May 13 19:18:32 2021
$end
$version
	Icarus Verilog
$end
$timescale
	10ns
$end
$scope module test $end
$var reg 1 ! clock $end
$var reg 1 " reset $end
$scope module MIPS $end
$var wire 1 ! clock $end
$var wire 1 " reset $end
$var wire 1 # RegWrite $end
$var wire 1 $ RegDst $end
$var wire 1 % PctoReg $end
$var wire 1 & MemtoReg $end
$var wire 1 ' MemWrite $end
$var wire 2 ( LS_bit [1:0] $end
$var wire 1 ) Jump $end
$var wire 1 * JR $end
$var wire 32 + IF_ID_im_out [31:0] $end
$var wire 1 , Ext_op $end
$var wire 2 - Branch [1:0] $end
$var wire 1 . ALUSrc $end
$var wire 4 / ALUOp [3:0] $end
$scope module Controller $end
$var wire 6 0 funct [5:0] $end
$var wire 6 1 opcode [5:0] $end
$var reg 4 2 ALUOp [3:0] $end
$var reg 1 . ALUSrc $end
$var reg 2 3 Branch [1:0] $end
$var reg 1 , Ext_op $end
$var reg 1 * JR $end
$var reg 1 ) Jump $end
$var reg 2 4 LS_bit [1:0] $end
$var reg 1 ' MemWrite $end
$var reg 1 & MemtoReg $end
$var reg 1 % PctoReg $end
$var reg 1 $ RegDst $end
$var reg 1 # RegWrite $end
$upscope $end
$scope module DataPath $end
$var wire 4 5 ALUOp [3:0] $end
$var wire 1 . ALUSrc $end
$var wire 2 6 Branch [1:0] $end
$var wire 1 , Ext_op $end
$var wire 1 * JR $end
$var wire 1 ) Jump $end
$var wire 2 7 LS_bit [1:0] $end
$var wire 1 ' MemWrite $end
$var wire 1 & MemtoReg $end
$var wire 1 % PctoReg $end
$var wire 1 $ RegDst $end
$var wire 1 # RegWrite $end
$var wire 1 ! clock $end
$var wire 1 " reset $end
$var wire 1 8 zero $end
$var wire 32 9 regfile_out2 [31:0] $end
$var wire 32 : regfile_out1 [31:0] $end
$var wire 32 ; pc_add_out [31:0] $end
$var wire 5 < mux5_out [4:0] $end
$var wire 32 = mux4_out [31:0] $end
$var wire 32 > mux3_out [31:0] $end
$var wire 32 ? mux2_out [31:0] $end
$var wire 5 @ mux1_out [4:0] $end
$var wire 32 A instruction [31:0] $end
$var wire 32 B ext_out [31:0] $end
$var wire 32 C dm_out [31:0] $end
$var wire 32 D branch_add_out [31:0] $end
$var wire 32 E alu_out [31:0] $end
$var wire 4 F alu_ctrl_out [3:0] $end
$var wire 32 G PC [31:0] $end
$var wire 32 H NPC [31:0] $end
$var wire 32 I MEM_WB_pc_add_out [31:0] $end
$var wire 5 J MEM_WB_mux1_out [4:0] $end
$var wire 32 K MEM_WB_dm_out [31:0] $end
$var wire 32 L MEM_WB_alu_out [31:0] $end
$var wire 1 M MEM_WB_RegWrite $end
$var wire 1 N MEM_WB_PctoReg $end
$var wire 1 O MEM_WB_MemtoReg $end
$var wire 32 P IF_ID_pc_add_out [31:0] $end
$var wire 32 Q IF_ID_im_out [31:0] $end
$var wire 32 R ID_EX_regfile_out2 [31:0] $end
$var wire 32 S ID_EX_regfile_out1 [31:0] $end
$var wire 32 T ID_EX_pc_add_out [31:0] $end
$var wire 26 U ID_EX_instr26 [25:0] $end
$var wire 1 V ID_EX_RegWrite $end
$var wire 1 W ID_EX_RegDst $end
$var wire 1 X ID_EX_PctoReg $end
$var wire 1 Y ID_EX_MemtoReg $end
$var wire 1 Z ID_EX_MemWrite $end
$var wire 2 [ ID_EX_LS_bit [1:0] $end
$var wire 1 \ ID_EX_Jump $end
$var wire 1 ] ID_EX_JR $end
$var wire 1 ^ ID_EX_Ext_op $end
$var wire 2 _ ID_EX_Branch [1:0] $end
$var wire 1 ` ID_EX_ALUSrc $end
$var wire 4 a ID_EX_ALUOp [3:0] $end
$var wire 1 b EX_MEM_zero $end
$var wire 32 c EX_MEM_regfile_out2 [31:0] $end
$var wire 32 d EX_MEM_regfile_out1 [31:0] $end
$var wire 32 e EX_MEM_pc_add_out [31:0] $end
$var wire 5 f EX_MEM_mux1_out [4:0] $end
$var wire 26 g EX_MEM_instr26 [25:0] $end
$var wire 32 h EX_MEM_branch_add_out [31:0] $end
$var wire 32 i EX_MEM_alu_out [31:0] $end
$var wire 1 j EX_MEM_RegWrite $end
$var wire 1 k EX_MEM_PctoReg $end
$var wire 1 l EX_MEM_MemtoReg $end
$var wire 1 m EX_MEM_MemWrite $end
$var wire 2 n EX_MEM_LS_bit [1:0] $end
$var wire 1 o EX_MEM_Jump $end
$var wire 1 p EX_MEM_JR $end
$var wire 1 q EX_MEM_Ext_op $end
$var wire 2 r EX_MEM_Branch [1:0] $end
$scope module u_EX_MEM $end
$var wire 2 s LS_bit [1:0] $end
$var wire 1 ! clock $end
$var wire 1 " reset $end
$var wire 1 8 zero $end
$var wire 5 t mux1_out [4:0] $end
$var wire 32 u branch_add_out [31:0] $end
$var wire 32 v alu_out [31:0] $end
$var wire 1 V RegWrite $end
$var wire 1 X PctoReg $end
$var wire 1 Y MemtoReg $end
$var wire 1 Z MemWrite $end
$var wire 1 \ Jump $end
$var wire 1 ] JR $end
$var wire 32 w ID_EX_regfile_out2 [31:0] $end
$var wire 32 x ID_EX_regfile_out1 [31:0] $end
$var wire 32 y ID_EX_pc_add_out [31:0] $end
$var wire 26 z ID_EX_instr26 [25:0] $end
$var wire 1 ^ Ext_op $end
$var wire 2 { Branch [1:0] $end
$var reg 2 | EX_MEM_Branch [1:0] $end
$var reg 1 q EX_MEM_Ext_op $end
$var reg 1 p EX_MEM_JR $end
$var reg 1 o EX_MEM_Jump $end
$var reg 2 } EX_MEM_LS_bit [1:0] $end
$var reg 1 m EX_MEM_MemWrite $end
$var reg 1 l EX_MEM_MemtoReg $end
$var reg 1 k EX_MEM_PctoReg $end
$var reg 1 j EX_MEM_RegWrite $end
$var reg 32 ~ EX_MEM_alu_out [31:0] $end
$var reg 32 !" EX_MEM_branch_add_out [31:0] $end
$var reg 26 "" EX_MEM_instr26 [25:0] $end
$var reg 5 #" EX_MEM_mux1_out [4:0] $end
$var reg 32 $" EX_MEM_pc_add_out [31:0] $end
$var reg 32 %" EX_MEM_regfile_out1 [31:0] $end
$var reg 32 &" EX_MEM_regfile_out2 [31:0] $end
$var reg 1 b EX_MEM_zero $end
$upscope $end
$scope module u_Ext $end
$var wire 16 '" input_num [15:0] $end
$var wire 1 ^ Ext_op $end
$var reg 32 (" output_num [31:0] $end
$upscope $end
$scope module u_ID_EX $end
$var wire 4 )" ALUOp [3:0] $end
$var wire 1 . ALUSrc $end
$var wire 2 *" Branch [1:0] $end
$var wire 1 , Ext_op $end
$var wire 1 * JR $end
$var wire 1 ) Jump $end
$var wire 2 +" LS_bit [1:0] $end
$var wire 1 ' MemWrite $end
$var wire 1 & MemtoReg $end
$var wire 1 % PctoReg $end
$var wire 1 $ RegDst $end
$var wire 1 # RegWrite $end
$var wire 1 ! clock $end
$var wire 26 ," instr26 [25:0] $end
$var wire 1 " reset $end
$var wire 32 -" regfile_out2 [31:0] $end
$var wire 32 ." regfile_out1 [31:0] $end
$var wire 32 /" IF_ID_pc_add_out [31:0] $end
$var reg 4 0" ID_EX_ALUOp [3:0] $end
$var reg 1 ` ID_EX_ALUSrc $end
$var reg 2 1" ID_EX_Branch [1:0] $end
$var reg 1 ^ ID_EX_Ext_op $end
$var reg 1 ] ID_EX_JR $end
$var reg 1 \ ID_EX_Jump $end
$var reg 2 2" ID_EX_LS_bit [1:0] $end
$var reg 1 Z ID_EX_MemWrite $end
$var reg 1 Y ID_EX_MemtoReg $end
$var reg 1 X ID_EX_PctoReg $end
$var reg 1 W ID_EX_RegDst $end
$var reg 1 V ID_EX_RegWrite $end
$var reg 26 3" ID_EX_instr26 [25:0] $end
$var reg 32 4" ID_EX_pc_add_out [31:0] $end
$var reg 32 5" ID_EX_regfile_out1 [31:0] $end
$var reg 32 6" ID_EX_regfile_out2 [31:0] $end
$upscope $end
$scope module u_IF_ID $end
$var wire 1 ! clock $end
$var wire 32 7" pc_add_out [31:0] $end
$var wire 32 8" im_out [31:0] $end
$var reg 32 9" IF_ID_im_out [31:0] $end
$var reg 32 :" IF_ID_pc_add_out [31:0] $end
$upscope $end
$scope module u_MEM_WB $end
$var wire 32 ;" EX_MEM_alu_out [31:0] $end
$var wire 5 <" EX_MEM_mux1_out [4:0] $end
$var wire 32 =" EX_MEM_pc_add_out [31:0] $end
$var wire 1 l MemtoReg $end
$var wire 1 k PctoReg $end
$var wire 1 j RegWrite $end
$var wire 1 ! clock $end
$var wire 1 " reset $end
$var wire 32 >" dm_out [31:0] $end
$var reg 1 O MEM_WB_MemtoReg $end
$var reg 1 N MEM_WB_PctoReg $end
$var reg 1 M MEM_WB_RegWrite $end
$var reg 32 ?" MEM_WB_alu_out [31:0] $end
$var reg 32 @" MEM_WB_dm_out [31:0] $end
$var reg 5 A" MEM_WB_mux1_out [4:0] $end
$var reg 32 B" MEM_WB_pc_add_out [31:0] $end
$upscope $end
$scope module u_alu $end
$var wire 32 C" op_num1 [31:0] $end
$var wire 5 D" shamt [4:0] $end
$var wire 1 8 zero $end
$var wire 32 E" op_num2 [31:0] $end
$var wire 4 F" alu_ctrl_out [3:0] $end
$var reg 32 G" alu_out [31:0] $end
$upscope $end
$scope module u_alu_ctrl $end
$var wire 4 H" ALUOp [3:0] $end
$var wire 6 I" funct [5:0] $end
$var reg 4 J" alu_ctrl_out [3:0] $end
$upscope $end
$scope module u_branch_add $end
$var wire 32 K" Ext_out [31:0] $end
$var wire 32 L" ID_EX_pc_add_out [31:0] $end
$var wire 32 M" branch_add_out [31:0] $end
$upscope $end
$scope module u_dm_4k $end
$var wire 32 N" EX_MEM_alu_out [31:0] $end
$var wire 32 O" EX_MEM_regfile_out2 [31:0] $end
$var wire 1 q Ext_op $end
$var wire 2 P" LS_bit [1:0] $end
$var wire 1 m MemWrite $end
$var wire 1 ! clock $end
$var reg 32 Q" dm_out [31:0] $end
$var reg 16 R" temp [15:0] $end
$scope begin $ivl_for_loop0 $end
$var integer 32 S" i [31:0] $end
$upscope $end
$upscope $end
$scope module u_im_4k $end
$var wire 32 T" out_instr [31:0] $end
$var wire 32 U" pc [31:0] $end
$upscope $end
$scope module u_mux1 $end
$var wire 1 W RegDst $end
$var wire 5 V" rd [4:0] $end
$var wire 5 W" rt [4:0] $end
$var reg 5 X" DstReg [4:0] $end
$upscope $end
$scope module u_mux2 $end
$var wire 1 ` ALUSrc $end
$var wire 32 Y" Ext [31:0] $end
$var wire 32 Z" out2 [31:0] $end
$var reg 32 [" DstData [31:0] $end
$upscope $end
$scope module u_mux3 $end
$var wire 1 O MemtoReg $end
$var wire 32 \" alu_out [31:0] $end
$var wire 32 ]" dm_out [31:0] $end
$var reg 32 ^" mux3_out [31:0] $end
$upscope $end
$scope module u_mux4 $end
$var wire 32 _" MEM_WB_pc_add_out [31:0] $end
$var wire 1 N PctoReg $end
$var wire 32 `" mux3_out [31:0] $end
$var reg 32 a" mux4_out [31:0] $end
$upscope $end
$scope module u_mux5 $end
$var wire 5 b" MEM_WB_mux1_out [4:0] $end
$var wire 1 N PctoReg $end
$var reg 5 c" mux5_out [4:0] $end
$upscope $end
$scope module u_npc $end
$var wire 32 d" EX_MEM_branch_add_out [31:0] $end
$var wire 26 e" EX_MEM_instr26 [25:0] $end
$var wire 32 f" EX_MEM_regfile_out1 [31:0] $end
$var wire 1 p JR $end
$var wire 1 o Jump $end
$var wire 2 g" branch [1:0] $end
$var wire 1 b zero $end
$var wire 32 h" pc_add_out [31:0] $end
$var reg 32 i" NPC [31:0] $end
$var reg 32 j" PC [31:0] $end
$upscope $end
$scope module u_pc $end
$var wire 32 k" NPC [31:0] $end
$var wire 1 ! clock $end
$var wire 1 " reset $end
$var reg 32 l" PC [31:0] $end
$upscope $end
$scope module u_pc_add $end
$var wire 32 m" PC [31:0] $end
$var wire 32 n" pc_add_out [31:0] $end
$upscope $end
$scope module u_regfile $end
$var wire 1 M RegWrite $end
$var wire 1 ! clock $end
$var wire 32 o" data [31:0] $end
$var wire 5 p" rd [4:0] $end
$var wire 1 " reset $end
$var wire 5 q" rs [4:0] $end
$var wire 5 r" rt [4:0] $end
$var wire 32 s" regfile_out2 [31:0] $end
$var wire 32 t" regfile_out1 [31:0] $end
$var integer 32 u" i [31:0] $end
$upscope $end
$upscope $end
$upscope $end
$upscope $end
$enddefinitions $end
#0
$dumpvars
b100000 u"
bx t"
bx s"
bx r"
bx q"
bx p"
bx o"
b11000000000100 n"
b11000000000000 m"
b11000000000000 l"
b11000000000100 k"
bx j"
b11000000000100 i"
b11000000000100 h"
bx g"
bx f"
bx e"
bx d"
bx c"
bx b"
bx a"
bx `"
bx _"
bx ^"
bx ]"
bx \"
bx ["
bx Z"
bx Y"
bx X"
bx W"
bx V"
b11000000000000 U"
b111100000000010001000000000001 T"
b110 S"
bx R"
bx Q"
bx P"
bx O"
bx N"
bx M"
bx L"
bx K"
bx J"
bx I"
bx H"
bx G"
bx F"
bx E"
bx D"
bx C"
bx B"
bx A"
bx @"
bx ?"
bx >"
bx ="
bx <"
bx ;"
bx :"
bx 9"
b111100000000010001000000000001 8"
b11000000000100 7"
bx 6"
bx 5"
bx 4"
bx 3"
bx 2"
bx 1"
bx 0"
bx /"
bx ."
bx -"
bx ,"
bx +"
bx *"
bx )"
bx ("
bx '"
bx &"
bx %"
bx $"
bx #"
bx ""
bx !"
bx ~
bx }
bx |
bx {
bx z
bx y
bx x
bx w
bx v
bx u
bx t
bx s
bx r
xq
xp
xo
bx n
xm
xl
xk
xj
bx i
bx h
bx g
bx f
bx e
bx d
bx c
xb
bx a
x`
bx _
x^
x]
x\
bx [
xZ
xY
xX
xW
xV
bx U
bx T
bx S
bx R
bx Q
bx P
xO
xN
xM
bx L
bx K
bx J
bx I
b11000000000100 H
b11000000000000 G
bx F
bx E
bx D
bx C
bx B
b111100000000010001000000000001 A
bx @
bx ?
bx >
bx =
bx <
b11000000000100 ;
bx :
bx 9
x8
bx 7
bx 6
bx 5
bx 4
bx 3
bx 2
bx 1
bx 0
bx /
x.
bx -
x,
bx +
x*
x)
bx (
x'
x&
x%
x$
x#
1"
1!
$end
#10
0"
0!
#20
b0 9
b0 -"
b0 s"
b0 :
b0 ."
b0 t"
b0 (
b0 4
b0 7
b0 s
b0 +"
0$
b0 -
b0 3
b0 6
b0 *"
0&
1.
b11 /
b11 2
b11 5
b11 )"
0'
1#
0)
0,
0%
0*
b10001000000000001 ,"
b1 r"
b0 q"
b1 0
b1111 1
b11000000001000 H
b11000000001000 i"
b11000000001000 k"
b100000000010010000000000000000 A
b100000000010010000000000000000 8"
b100000000010010000000000000000 T"
b111100000000010001000000000001 +
b111100000000010001000000000001 Q
b111100000000010001000000000001 9"
b11000000000100 P
b11000000000100 /"
b11000000000100 :"
b11000000001000 ;
b11000000001000 7"
b11000000001000 h"
b11000000001000 n"
b11000000000100 G
b11000000000100 U"
b11000000000100 l"
b11000000000100 m"
1!
#30
0!
#40
08
b1 @
b1 t
b1 X"
b1000000000001 ?
b1000000000001 E"
b1000000000001 ["
b111000000001000 D
b111000000001000 u
b111000000001000 M"
b0 D"
b1 I"
b0 /
b0 2
b0 5
b0 )"
b10010000000000000000 ,"
b1001 r"
b0 0
b1000 1
b1000000000001 '"
b10 V"
b1 W"
b10000000000010000000000000000 E
b10000000000010000000000000000 v
b10000000000010000000000000000 G"
b1000000000001 B
b1000000000001 ("
b1000000000001 K"
b1000000000001 Y"
b101 F
b101 F"
b101 J"
b11000000001100 H
b11000000001100 i"
b11000000001100 k"
b100000000010010000000000000000 +
b100000000010010000000000000000 Q
b100000000010010000000000000000 9"
b11000000001000 P
b11000000001000 /"
b11000000001000 :"
b10001000000000001 U
b10001000000000001 z
b10001000000000001 3"
b11000000000100 T
b11000000000100 y
b11000000000100 4"
b11000000000100 L"
b0 R
b0 w
b0 6"
b0 Z"
b0 S
b0 x
b0 5"
b0 C"
0]
0X
0^
0\
1V
1`
0Z
b11 a
b11 0"
b11 H"
0Y
b0 _
b0 {
b0 1"
0W
b0 [
b0 2"
b0 n
b0 }
b0 P"
b11000000001100 ;
b11000000001100 7"
b11000000001100 h"
b11000000001100 n"
b11000000001000 G
b11000000001000 U"
b11000000001000 l"
b11000000001000 m"
1!
#50
0!
#60
18
b0 ?
b0 E"
b0 ["
b1001 @
b1001 t
b1001 X"
b0 I"
b0 B
b0 ("
b0 K"
b0 Y"
b0 E
b0 v
b0 G"
b10001111111111111111111111111111 C
b10001111111111111111111111111111 >"
b10001111111111111111111111111111 Q"
b0 '"
b0 V"
b1001 W"
b10 F
b10 F"
b10 J"
b11000000010000 H
b11000000010000 i"
b11000000010000 k"
b1 f
b1 #"
b1 <"
b0 c
b0 &"
b0 O"
b0 d
b0 %"
b0 f"
b10000000000010000000000000000 i
b10000000000010000000000000000 ~
b10000000000010000000000000000 ;"
b10000000000010000000000000000 N"
b10001000000000001 g
b10001000000000001 ""
b10001000000000001 e"
b11000000000100 e
b11000000000100 $"
b11000000000100 ="
0b
b111000000001000 h
b111000000001000 !"
b111000000001000 d"
0p
0k
0q
0o
1j
0m
0l
b0 r
b0 |
b0 g"
b10010000000000000000 U
b10010000000000000000 z
b10010000000000000000 3"
b11000000001000 D
b11000000001000 u
b11000000001000 M"
b11000000001000 T
b11000000001000 y
b11000000001000 4"
b11000000001000 L"
b0 a
b0 0"
b0 H"
b11000000001100 P
b11000000001100 /"
b11000000001100 :"
b11000000010000 ;
b11000000010000 7"
b11000000010000 h"
b11000000010000 n"
b11000000001100 G
b11000000001100 U"
b11000000001100 l"
b11000000001100 m"
1!
#70
0!
#80
b10000000000010000000000000000 =
b10000000000010000000000000000 a"
b10000000000010000000000000000 o"
b1 <
b1 c"
b1 p"
b10000000000010000000000000000 >
b10000000000010000000000000000 ^"
b10000000000010000000000000000 `"
b11000000010100 H
b11000000010100 i"
b11000000010100 k"
b11000000010000 P
b11000000010000 /"
b11000000010000 :"
b11000000001100 D
b11000000001100 u
b11000000001100 M"
b11000000001100 T
b11000000001100 y
b11000000001100 4"
b11000000001100 L"
b1001 f
b1001 #"
b1001 <"
b0 i
b0 ~
b0 ;"
b0 N"
b10010000000000000000 g
b10010000000000000000 ""
b10010000000000000000 e"
b11000000001000 e
b11000000001000 $"
b11000000001000 ="
1b
b11000000001000 h
b11000000001000 !"
b11000000001000 d"
b1 J
b1 A"
b1 b"
b10000000000010000000000000000 L
b10000000000010000000000000000 ?"
b10000000000010000000000000000 \"
b10001111111111111111111111111111 K
b10001111111111111111111111111111 @"
b10001111111111111111111111111111 ]"
b11000000000100 I
b11000000000100 B"
b11000000000100 _"
0N
0O
1M
b11000000010100 ;
b11000000010100 7"
b11000000010100 h"
b11000000010100 n"
b11000000010000 G
b11000000010000 U"
b11000000010000 l"
b11000000010000 m"
1!
#90
0!
#100
b0 =
b0 a"
b0 o"
b1001 <
b1001 c"
b1001 p"
b0 >
b0 ^"
b0 `"
b11000000011000 H
b11000000011000 i"
b11000000011000 k"
b110100001010000000000000000000 A
b110100001010000000000000000000 8"
b110100001010000000000000000000 T"
b1001 J
b1001 A"
b1001 b"
b0 L
b0 ?"
b0 \"
b11000000001000 I
b11000000001000 B"
b11000000001000 _"
b11000000001100 e
b11000000001100 $"
b11000000001100 ="
b11000000001100 h
b11000000001100 !"
b11000000001100 d"
b11000000010000 D
b11000000010000 u
b11000000010000 M"
b11000000010000 T
b11000000010000 y
b11000000010000 4"
b11000000010000 L"
b11000000010100 P
b11000000010100 /"
b11000000010100 :"
b11000000011000 ;
b11000000011000 7"
b11000000011000 h"
b11000000011000 n"
b11000000010100 G
b11000000010100 U"
b11000000010100 l"
b11000000010100 m"
1!
#110
0!
#120
b10000000000010000000000000000 :
b10000000000010000000000000000 ."
b10000000000010000000000000000 t"
b100 /
b100 2
b100 5
b100 )"
b1010000000000000000000 ,"
b1000 r"
b1 q"
b1101 1
b11000000011100 H
b11000000011100 i"
b11000000011100 k"
b100000000010010000000000001000 A
b100000000010010000000000001000 8"
b100000000010010000000000001000 T"
b110100001010000000000000000000 +
b110100001010000000000000000000 Q
b110100001010000000000000000000 9"
b11000000011000 P
b11000000011000 /"
b11000000011000 :"
b11000000010100 D
b11000000010100 u
b11000000010100 M"
b11000000010100 T
b11000000010100 y
b11000000010100 4"
b11000000010100 L"
b11000000010000 e
b11000000010000 $"
b11000000010000 ="
b11000000010000 h
b11000000010000 !"
b11000000010000 d"
b11000000001100 I
b11000000001100 B"
b11000000001100 _"
b11000000011100 ;
b11000000011100 7"
b11000000011100 h"
b11000000011100 n"
b11000000011000 G
b11000000011000 U"
b11000000011000 l"
b11000000011000 m"
1!
#130
0!
#140
b1000 @
b1000 t
b1000 X"
08
b0 :
b0 ."
b0 t"
b0 /
b0 2
b0 5
b0 )"
b1000 W"
b10000000000010000000000000000 E
b10000000000010000000000000000 v
b10000000000010000000000000000 G"
b1 F
b1 F"
b1 J"
b10010000000000001000 ,"
b1001 r"
b0 q"
b1000 0
b1000 1
b11000000100000 H
b11000000100000 i"
b11000000100000 k"
b11000000010000 I
b11000000010000 B"
b11000000010000 _"
b11000000010100 e
b11000000010100 $"
b11000000010100 ="
b11000000010100 h
b11000000010100 !"
b11000000010100 d"
b1010000000000000000000 U
b1010000000000000000000 z
b1010000000000000000000 3"
b11000000011000 D
b11000000011000 u
b11000000011000 M"
b11000000011000 T
b11000000011000 y
b11000000011000 4"
b11000000011000 L"
b10000000000010000000000000000 S
b10000000000010000000000000000 x
b10000000000010000000000000000 5"
b10000000000010000000000000000 C"
b100 a
b100 0"
b100 H"
b100000000010010000000000001000 +
b100000000010010000000000001000 Q
b100000000010010000000000001000 9"
b11000000011100 P
b11000000011100 /"
b11000000011100 :"
b11000000100000 ;
b11000000100000 7"
b11000000100000 h"
b11000000100000 n"
b11000000011100 G
b11000000011100 U"
b11000000011100 l"
b11000000011100 m"
1!
#150
0!
#160
b1000 ?
b1000 E"
b1000 ["
b1001 @
b1001 t
b1001 X"
b1000 I"
08
b1000 B
b1000 ("
b1000 K"
b1000 Y"
b1000 '"
b1001 W"
b1000 E
b1000 v
b1000 G"
b10 F
b10 F"
b10 J"
b11000000100100 H
b11000000100100 i"
b11000000100100 k"
b11000000100000 P
b11000000100000 /"
b11000000100000 :"
b10010000000000001000 U
b10010000000000001000 z
b10010000000000001000 3"
b11000000111100 D
b11000000111100 u
b11000000111100 M"
b11000000011100 T
b11000000011100 y
b11000000011100 4"
b11000000011100 L"
b0 S
b0 x
b0 5"
b0 C"
b0 a
b0 0"
b0 H"
b1000 f
b1000 #"
b1000 <"
b10000000000010000000000000000 d
b10000000000010000000000000000 %"
b10000000000010000000000000000 f"
b10000000000010000000000000000 i
b10000000000010000000000000000 ~
b10000000000010000000000000000 ;"
b10000000000010000000000000000 N"
b1010000000000000000000 g
b1010000000000000000000 ""
b1010000000000000000000 e"
b11000000011000 e
b11000000011000 $"
b11000000011000 ="
0b
b11000000011000 h
b11000000011000 !"
b11000000011000 d"
b11000000010100 I
b11000000010100 B"
b11000000010100 _"
b11000000100100 ;
b11000000100100 7"
b11000000100100 h"
b11000000100100 n"
b11000000100000 G
b11000000100000 U"
b11000000100000 l"
b11000000100000 m"
1!
#170
0!
#180
b10000000000010000000000000000 =
b10000000000010000000000000000 a"
b10000000000010000000000000000 o"
b1000 <
b1000 c"
b1000 p"
b10000000000010000000000000000 >
b10000000000010000000000000000 ^"
b10000000000010000000000000000 `"
b100001000100010000000000000000 C
b100001000100010000000000000000 >"
b100001000100010000000000000000 Q"
b11000000101000 H
b11000000101000 i"
b11000000101000 k"
b1000 J
b1000 A"
b1000 b"
b10000000000010000000000000000 L
b10000000000010000000000000000 ?"
b10000000000010000000000000000 \"
b11000000011000 I
b11000000011000 B"
b11000000011000 _"
b1001 f
b1001 #"
b1001 <"
b0 d
b0 %"
b0 f"
b1000 i
b1000 ~
b1000 ;"
b1000 N"
b10010000000000001000 g
b10010000000000001000 ""
b10010000000000001000 e"
b11000000011100 e
b11000000011100 $"
b11000000011100 ="
b11000000111100 h
b11000000111100 !"
b11000000111100 d"
b11000001000000 D
b11000001000000 u
b11000001000000 M"
b11000000100000 T
b11000000100000 y
b11000000100000 4"
b11000000100000 L"
b11000000100100 P
b11000000100100 /"
b11000000100100 :"
b11000000101000 ;
b11000000101000 7"
b11000000101000 h"
b11000000101000 n"
b11000000100100 G
b11000000100100 U"
b11000000100100 l"
b11000000100100 m"
1!
#190
0!
#200
b1000 =
b1000 a"
b1000 o"
b1001 <
b1001 c"
b1001 p"
b1000 >
b1000 ^"
b1000 `"
b11000000101100 H
b11000000101100 i"
b11000000101100 k"
b10001101000100000000000000000000 A
b10001101000100000000000000000000 8"
b10001101000100000000000000000000 T"
b11000000101000 P
b11000000101000 /"
b11000000101000 :"
b11000001000100 D
b11000001000100 u
b11000001000100 M"
b11000000100100 T
b11000000100100 y
b11000000100100 4"
b11000000100100 L"
b11000000100000 e
b11000000100000 $"
b11000000100000 ="
b11000001000000 h
b11000001000000 !"
b11000001000000 d"
b1001 J
b1001 A"
b1001 b"
b1000 L
b1000 ?"
b1000 \"
b100001000100010000000000000000 K
b100001000100010000000000000000 @"
b100001000100010000000000000000 ]"
b11000000011100 I
b11000000011100 B"
b11000000011100 _"
b11000000101100 ;
b11000000101100 7"
b11000000101100 h"
b11000000101100 n"
b11000000101000 G
b11000000101000 U"
b11000000101000 l"
b11000000101000 m"
1!
#210
0!
#220
b10000000000010000000000000000 :
b10000000000010000000000000000 ."
b10000000000010000000000000000 t"
1&
b1000100000000000000000000 ,"
b10000 r"
b1000 q"
b0 0
b100011 1
b0 9
b0 -"
b0 s"
b11000000110000 H
b11000000110000 i"
b11000000110000 k"
b10001101000100010000000000000100 A
b10001101000100010000000000000100 8"
b10001101000100010000000000000100 T"
b11000000100000 I
b11000000100000 B"
b11000000100000 _"
b11000000100100 e
b11000000100100 $"
b11000000100100 ="
b11000001000100 h
b11000001000100 !"
b11000001000100 d"
b11000001001000 D
b11000001001000 u
b11000001001000 M"
b11000000101000 T
b11000000101000 y
b11000000101000 4"
b11000000101000 L"
b10001101000100000000000000000000 +
b10001101000100000000000000000000 Q
b10001101000100000000000000000000 9"
b11000000101100 P
b11000000101100 /"
b11000000101100 :"
b11000000110000 ;
b11000000110000 7"
b11000000110000 h"
b11000000110000 n"
b11000000101100 G
b11000000101100 U"
b11000000101100 l"
b11000000101100 m"
1!
#230
0!
#240
b0 ?
b0 E"
b0 ["
b10000 @
b10000 t
b10000 X"
b0 I"
b0 B
b0 ("
b0 K"
b0 Y"
b1000100010000000000000100 ,"
b10001 r"
b100 0
b0 '"
b10000 W"
b10000000000010000000000000000 E
b10000000000010000000000000000 v
b10000000000010000000000000000 G"
b11000000110100 H
b11000000110100 i"
b11000000110100 k"
b10001101000100100000000000001000 A
b10001101000100100000000000001000 8"
b10001101000100100000000000001000 T"
b10001101000100010000000000000100 +
b10001101000100010000000000000100 Q
b10001101000100010000000000000100 9"
b11000000110000 P
b11000000110000 /"
b11000000110000 :"
b1000100000000000000000000 U
b1000100000000000000000000 z
b1000100000000000000000000 3"
b11000000101100 D
b11000000101100 u
b11000000101100 M"
b11000000101100 T
b11000000101100 y
b11000000101100 4"
b11000000101100 L"
b10000000000010000000000000000 S
b10000000000010000000000000000 x
b10000000000010000000000000000 5"
b10000000000010000000000000000 C"
1Y
b11000000101000 e
b11000000101000 $"
b11000000101000 ="
b11000001001000 h
b11000001001000 !"
b11000001001000 d"
b11000000100100 I
b11000000100100 B"
b11000000100100 _"
b11000000110100 ;
b11000000110100 7"
b11000000110100 h"
b11000000110100 n"
b11000000110000 G
b11000000110000 U"
b11000000110000 l"
b11000000110000 m"
1!
#250
0!
#260
b10000000000010000000000000100 E
b10000000000010000000000000100 v
b10000000000010000000000000100 G"
b100 ?
b100 E"
b100 ["
b10001 @
b10001 t
b10001 X"
b100 I"
b100 B
b100 ("
b100 K"
b100 Y"
b10001111111111111111111111111111 C
b10001111111111111111111111111111 >"
b10001111111111111111111111111111 Q"
b100 '"
b10001 W"
b1000100100000000000001000 ,"
b10010 r"
b1000 0
b11000000111000 H
b11000000111000 i"
b11000000111000 k"
b10101101000010010000000000000000 A
b10101101000010010000000000000000 8"
b10101101000010010000000000000000 T"
b11000000101000 I
b11000000101000 B"
b11000000101000 _"
b10000 f
b10000 #"
b10000 <"
b10000000000010000000000000000 d
b10000000000010000000000000000 %"
b10000000000010000000000000000 f"
b10000000000010000000000000000 i
b10000000000010000000000000000 ~
b10000000000010000000000000000 ;"
b10000000000010000000000000000 N"
b1000100000000000000000000 g
b1000100000000000000000000 ""
b1000100000000000000000000 e"
b11000000101100 e
b11000000101100 $"
b11000000101100 ="
b11000000101100 h
b11000000101100 !"
b11000000101100 d"
1l
b1000100010000000000000100 U
b1000100010000000000000100 z
b1000100010000000000000100 3"
b11000001000000 D
b11000001000000 u
b11000001000000 M"
b11000000110000 T
b11000000110000 y
b11000000110000 4"
b11000000110000 L"
b10001101000100100000000000001000 +
b10001101000100100000000000001000 Q
b10001101000100100000000000001000 9"
b11000000110100 P
b11000000110100 /"
b11000000110100 :"
b11000000111000 ;
b11000000111000 7"
b11000000111000 h"
b11000000111000 n"
b11000000110100 G
b11000000110100 U"
b11000000110100 l"
b11000000110100 m"
1!
#270
0!
